4/tek0005NRM.csv

Model,MDO3104
Firmware Version,1.30

Waveform Type,RF_FD
Point Format,Y
Horizontal Units,Hz
Horizontal Scale,2.8e+07
,
Sample Interval,373333
Record Length,751
Gating,0.133155792277% to 100.0%
Probe Attenuation,1
Vertical Units,dBm
Vertical Offset,0
Vertical Scale,10
Vertical Position,0
Center Frequency,1.4e+08
Span,2.8e+08
Reference Level,-15
Label,
FREQUENCY,FD NORM
0.000000000e+00,-72.9221
3.733333333e+05,-79.8964
7.466666667e+05,-79.9202
1.120000000e+06,-73.9369
1.493333333e+06,-66.5189
1.866666667e+06,-66.0372
2.240000000e+06,-75.0866
2.613333333e+06,-66.036
2.986666667e+06,-66.8628
3.360000000e+06,-59.459
3.733333333e+06,-61.099
4.106666667e+06,-61.3597
4.480000000e+06,-66.4597
4.853333333e+06,-72.0003
5.226666667e+06,-71.2824
5.600000000e+06,-71.375
5.973333333e+06,-71.6321
6.346666667e+06,-69.0848
6.720000000e+06,-66.8736
7.093333333e+06,-75.0483
7.466666667e+06,-78.6616
7.840000000e+06,-67.7082
8.213333333e+06,-67.735
8.586666667e+06,-69.2926
8.960000000e+06,-75.6551
9.333333333e+06,-79.5266
9.706666667e+06,-78.0299
1.008000000e+07,-65.9071
1.045333333e+07,-64.8322
1.082666667e+07,-73.509
1.120000000e+07,-69.0734
1.157333333e+07,-70.062
1.194666667e+07,-64.6816
1.232000000e+07,-65.7433
1.269333333e+07,-75.0942
1.306666667e+07,-75.3939
1.344000000e+07,-70.1226
1.381333333e+07,-66.2527
1.418666667e+07,-68.9582
1.456000000e+07,-72.4992
1.493333333e+07,-73.621
1.530666667e+07,-71.2949
1.568000000e+07,-69.603
1.605333333e+07,-64.9509
1.642666667e+07,-62.3592
1.680000000e+07,-62.9367
1.717333333e+07,-70.8272
1.754666667e+07,-68.6763
1.792000000e+07,-64.0539
1.829333333e+07,-63.8091
1.866666667e+07,-65.0567
1.904000000e+07,-65.6048
1.941333333e+07,-64.5433
1.978666667e+07,-64.3228
2.016000000e+07,-67.3794
2.053333333e+07,-66.4274
2.090666667e+07,-70.4059
2.128000000e+07,-74.9332
2.165333333e+07,-74.3949
2.202666667e+07,-64.1675
2.240000000e+07,-65.7707
2.277333333e+07,-65.041
2.314666667e+07,-68.4852
2.352000000e+07,-77.6348
2.389333333e+07,-70.1559
2.426666667e+07,-68.5268
2.464000000e+07,-61.7171
2.501333333e+07,-53.3315
2.538666667e+07,-66.1266
2.576000000e+07,-65.4255
2.613333333e+07,-63.1805
2.650666667e+07,-65.5324
2.688000000e+07,-63.7466
2.725333333e+07,-62.7949
2.762666667e+07,-70.6339
2.800000000e+07,-73.7431
2.837333333e+07,-73.3388
2.874666667e+07,-74.5123
2.912000000e+07,-70.7258
2.949333333e+07,-66.6168
2.986666667e+07,-58.3395
3.024000000e+07,-60.1299
3.061333333e+07,-71.2767
3.098666667e+07,-74.0807
3.136000000e+07,-74.162
3.173333333e+07,-80.8571
3.210666667e+07,-72.5752
3.248000000e+07,-59.9652
3.285333333e+07,-59.5211
3.322666667e+07,-68.3883
3.360000000e+07,-76.3409
3.397333333e+07,-75.9822
3.434666667e+07,-81.2418
3.472000000e+07,-71.8676
3.509333333e+07,-63.442
3.546666667e+07,-60.3648
3.584000000e+07,-61.5707
3.621333333e+07,-63.4036
3.658666667e+07,-68.4425
3.696000000e+07,-72.5285
3.733333333e+07,-72.1816
3.770666667e+07,-68.5284
3.808000000e+07,-60.5218
3.845333333e+07,-69.1092
3.882666667e+07,-73.9854
3.920000000e+07,-72.3043
3.957333333e+07,-72.3275
3.994666667e+07,-75.9752
4.032000000e+07,-67.6726
4.069333333e+07,-58.2175
4.106666667e+07,-62.7782
4.144000000e+07,-65.1516
4.181333333e+07,-72.0813
4.218666667e+07,-71.7523
4.256000000e+07,-73.7373
4.293333333e+07,-75.8138
4.330666667e+07,-61.7044
4.368000000e+07,-62.6591
4.405333333e+07,-65.3513
4.442666667e+07,-67.3209
4.480000000e+07,-67.0163
4.517333333e+07,-73.0619
4.554666667e+07,-68.8596
4.592000000e+07,-61.3782
4.629333333e+07,-60.2503
4.666666667e+07,-58.5294
4.704000000e+07,-67.504
4.741333333e+07,-67.8685
4.778666667e+07,-61.4046
4.816000000e+07,-60.4526
4.853333333e+07,-71.0396
4.890666667e+07,-64.0471
4.928000000e+07,-59.1177
4.965333333e+07,-64.5324
5.002666667e+07,-68.6446
5.040000000e+07,-72.6251
5.077333333e+07,-73.3164
5.114666667e+07,-68.0064
5.152000000e+07,-64.3335
5.189333333e+07,-55.1141
5.226666667e+07,-59.8654
5.264000000e+07,-67.5575
5.301333333e+07,-68.8898
5.338666667e+07,-71.0744
5.376000000e+07,-72.6397
5.413333333e+07,-69.3565
5.450666667e+07,-56.3757
5.488000000e+07,-58.9091
5.525333333e+07,-68.1593
5.562666667e+07,-68.8108
5.600000000e+07,-69.3255
5.637333333e+07,-78.5237
5.674666667e+07,-68.3076
5.712000000e+07,-53.0656
5.749333333e+07,-53.0695
5.786666667e+07,-70.995
5.824000000e+07,-75.3656
5.861333333e+07,-73.3169
5.898666667e+07,-75.8883
5.936000000e+07,-77.3408
5.973333333e+07,-36.177
6.010666667e+07,-33.869
6.048000000e+07,-52.2813
6.085333333e+07,-79.3294
6.122666667e+07,-70.185
6.160000000e+07,-71.3105
6.197333333e+07,-68.9909
6.234666667e+07,-57.6331
6.272000000e+07,-51.6517
6.309333333e+07,-61.4751
6.346666667e+07,-72.3571
6.384000000e+07,-66.8353
6.421333333e+07,-63.9443
6.458666667e+07,-68.6965
6.496000000e+07,-67.019
6.533333333e+07,-55.2076
6.570666667e+07,-59.1987
6.608000000e+07,-69.9521
6.645333333e+07,-74.7209
6.682666667e+07,-69.51
6.720000000e+07,-71.9519
6.757333333e+07,-70.4911
6.794666667e+07,-57.7299
6.832000000e+07,-59.4391
6.869333333e+07,-64.6746
6.906666667e+07,-67.7376
6.944000000e+07,-68.4031
6.981333333e+07,-66.4051
7.018666667e+07,-66.3697
7.056000000e+07,-55.5236
7.093333333e+07,-55.2809
7.130666667e+07,-62.6336
7.168000000e+07,-66.2619
7.205333333e+07,-63.2619
7.242666667e+07,-68.1059
7.280000000e+07,-65.1159
7.317333333e+07,-60.8841
7.354666667e+07,-56.5479
7.392000000e+07,-59.5511
7.429333333e+07,-64.8364
7.466666667e+07,-64.9564
7.504000000e+07,-60.6514
7.541333333e+07,-62.9293
7.578666667e+07,-62.6503
7.616000000e+07,-58.2113
7.653333333e+07,-55.767
7.690666667e+07,-64.7209
7.728000000e+07,-73.0015
7.765333333e+07,-74.1555
7.802666667e+07,-70.2669
7.840000000e+07,-63.3156
7.877333333e+07,-59.2068
7.914666667e+07,-56.5526
7.952000000e+07,-59.2738
7.989333333e+07,-63.0264
8.026666667e+07,-61.7859
8.064000000e+07,-61.5974
8.101333333e+07,-64.3304
8.138666667e+07,-59.4933
8.176000000e+07,-54.8504
8.213333333e+07,-55.6927
8.250666667e+07,-66.0832
8.288000000e+07,-65.9769
8.325333333e+07,-64.0748
8.362666667e+07,-60.8455
8.400000000e+07,-53.8768
8.437333333e+07,-55.931
8.474666667e+07,-53.885
8.512000000e+07,-66.9223
8.549333333e+07,-69.316
8.586666667e+07,-65.5273
8.624000000e+07,-72.0485
8.661333333e+07,-70.0372
8.698666667e+07,-57.8701
8.736000000e+07,-52.217
8.773333333e+07,-63.1665
8.810666667e+07,-74.7945
8.848000000e+07,-64.2924
8.885333333e+07,-63.7902
8.922666667e+07,-71.5542
8.960000000e+07,-60.7347
8.997333333e+07,-51.4728
9.034666667e+07,-59.2164
9.072000000e+07,-70.6372
9.109333333e+07,-65.3159
9.146666667e+07,-68.3484
9.184000000e+07,-67.8089
9.221333333e+07,-67.9649
9.258666667e+07,-53.2727
9.296000000e+07,-55.8287
9.333333333e+07,-69.3703
9.370666667e+07,-70.1027
9.408000000e+07,-77.1511
9.445333333e+07,-72.0868
9.482666667e+07,-67.3425
9.520000000e+07,-52.6669
9.557333333e+07,-52.3054
9.594666667e+07,-54.49
9.632000000e+07,-56.3756
9.669333333e+07,-73.7011
9.706666667e+07,-70.137
9.744000000e+07,-64.4247
9.781333333e+07,-56.4536
9.818666667e+07,-54.1404
9.856000000e+07,-61.5612
9.893333333e+07,-74.4655
9.930666667e+07,-76.5111
9.968000000e+07,-66.2168
1.000533333e+08,-63.3452
1.004266667e+08,-56.8866
1.008000000e+08,-52.2134
1.011733333e+08,-56.5696
1.015466667e+08,-59.9286
1.019200000e+08,-63.4626
1.022933333e+08,-69.2362
1.026666667e+08,-64.2648
1.030400000e+08,-60.7243
1.034133333e+08,-55.7195
1.037866667e+08,-57.803
1.041600000e+08,-61.2274
1.045333333e+08,-62.9552
1.049066667e+08,-72.7354
1.052800000e+08,-69.2512
1.056533333e+08,-63.3392
1.060266667e+08,-55.6433
1.064000000e+08,-54.1529
1.067733333e+08,-55.2052
1.071466667e+08,-64.8199
1.075200000e+08,-65.3221
1.078933333e+08,-51.4036
1.082666667e+08,-54.0347
1.086400000e+08,-58.956
1.090133333e+08,-55.1808
1.093866667e+08,-54.2646
1.097600000e+08,-64.7002
1.101333333e+08,-66.1535
1.105066667e+08,-62.7664
1.108800000e+08,-62.7877
1.112533333e+08,-61.7555
1.116266667e+08,-54.2344
1.120000000e+08,-50.6425
1.123733333e+08,-58.1134
1.127466667e+08,-62.6863
1.131200000e+08,-71.8046
1.134933333e+08,-68.5519
1.138666667e+08,-67.1914
1.142400000e+08,-63.0101
1.146133333e+08,-53.4477
1.149866667e+08,-58.9427
1.153600000e+08,-69.8989
1.157333333e+08,-69.5121
1.161066667e+08,-65.1941
1.164800000e+08,-66.331
1.168533333e+08,-61.5333
1.172266667e+08,-49.1214
1.176000000e+08,-52.6716
1.179733333e+08,-67.4386
1.183466667e+08,-68.7062
1.187200000e+08,-67.1196
1.190933333e+08,-69.8242
1.194666667e+08,-58.1741
1.198400000e+08,-35.9084
1.202133333e+08,-36.7289
1.205866667e+08,-67.0421
1.209600000e+08,-69.2315
1.213333333e+08,-69.2669
1.217066667e+08,-74.9916
1.220800000e+08,-72.4317
1.224533333e+08,-50.4277
1.228266667e+08,-48.8667
1.232000000e+08,-62.2152
1.235733333e+08,-62.3685
1.239466667e+08,-62.6003
1.243200000e+08,-63.2723
1.246933333e+08,-72.3933
1.250666667e+08,-55.1832
1.254400000e+08,-51.5554
1.258133333e+08,-65.6311
1.261866667e+08,-68.081
1.265600000e+08,-66.3942
1.269333333e+08,-66.7154
1.273066667e+08,-63.7247
1.276800000e+08,-58.1269
1.280533333e+08,-50.6933
1.284266667e+08,-57.5233
1.288000000e+08,-59.6419
1.291733333e+08,-60.2367
1.295466667e+08,-60.7429
1.299200000e+08,-62.6731
1.302933333e+08,-61.7269
1.306666667e+08,-53.3
1.310400000e+08,-56.0012
1.314133333e+08,-58.1134
1.317866667e+08,-50.5022
1.321600000e+08,-49.5249
1.325333333e+08,-69.5239
1.329066667e+08,-64.5562
1.332800000e+08,-52.3343
1.336533333e+08,-53.1212
1.340266667e+08,-53.3785
1.344000000e+08,-60.2322
1.347733333e+08,-60.5455
1.351466667e+08,-60.9587
1.355200000e+08,-65.1441
1.358933333e+08,-58.9712
1.362666667e+08,-56.4251
1.366400000e+08,-55.1387
1.370133333e+08,-63.073
1.373866667e+08,-61.4681
1.377600000e+08,-60.9327
1.381333333e+08,-67.5856
1.385066667e+08,-64.7105
1.388800000e+08,-56.8303
1.392533333e+08,-49.8883
1.396266667e+08,-56.2918
1.400000000e+08,-64.5359
1.403733333e+08,-66.7209
1.407466667e+08,-69.0051
1.411200000e+08,-66.3491
1.414933333e+08,-61.7336
1.418666667e+08,-52.7179
1.422400000e+08,-57.3872
1.426133333e+08,-77.8515
1.429866667e+08,-73.1551
1.433600000e+08,-70.3137
1.437333333e+08,-59.7115
1.441066667e+08,-55.5607
1.444800000e+08,-49.6396
1.448533333e+08,-50.9359
1.452266667e+08,-64.561
1.456000000e+08,-64.8759
1.459733333e+08,-65.6065
1.463466667e+08,-68.2805
1.467200000e+08,-68.3661
1.470933333e+08,-52.322
1.474666667e+08,-51.9726
1.478400000e+08,-66.9597
1.482133333e+08,-70.7397
1.485866667e+08,-67.8274
1.489600000e+08,-69.4409
1.493333333e+08,-81.1097
1.497066667e+08,-50.9651
1.500800000e+08,-48.2415
1.504533333e+08,-65.3432
1.508266667e+08,-66.714
1.512000000e+08,-71.1537
1.515733333e+08,-67.8792
1.519466667e+08,-74.7131
1.523200000e+08,-59.3568
1.526933333e+08,-51.3243
1.530666667e+08,-60.7846
1.534400000e+08,-70.7984
1.538133333e+08,-68.3238
1.541866667e+08,-67.9395
1.545600000e+08,-70.3489
1.549333333e+08,-62.9193
1.553066667e+08,-48.3245
1.556800000e+08,-51.9883
1.560533333e+08,-49.8125
1.564266667e+08,-63.897
1.568000000e+08,-61.1721
1.571733333e+08,-61.6948
1.575466667e+08,-61.7263
1.579200000e+08,-52.3138
1.582933333e+08,-52.9081
1.586666667e+08,-60.7408
1.590400000e+08,-70.5442
1.594133333e+08,-67.4182
1.597866667e+08,-66.3113
1.601600000e+08,-59.4859
1.605333333e+08,-51.1992
1.609066667e+08,-49.8457
1.612800000e+08,-52.9593
1.616533333e+08,-60.8664
1.620266667e+08,-60.7106
1.624000000e+08,-62.4671
1.627733333e+08,-65.074
1.631466667e+08,-55.3578
1.635200000e+08,-52.4742
1.638933333e+08,-56.7683
1.642666667e+08,-62.7922
1.646400000e+08,-63.5709
1.650133333e+08,-62.8416
1.653866667e+08,-66.1906
1.657600000e+08,-57.6735
1.661333333e+08,-52.5159
1.665066667e+08,-50.42
1.668800000e+08,-54.88
1.672533333e+08,-62.154
1.676266667e+08,-59.709
1.680000000e+08,-58.663
1.683733333e+08,-60.4666
1.687466667e+08,-58.2108
1.691200000e+08,-52.2066
1.694933333e+08,-54.5336
1.698666667e+08,-68.5786
1.702400000e+08,-65.7502
1.706133333e+08,-65.3004
1.709866667e+08,-61.4985
1.713600000e+08,-55.7299
1.717333333e+08,-48.1628
1.721066667e+08,-48.1182
1.724800000e+08,-58.7404
1.728533333e+08,-65.2462
1.732266667e+08,-63.5349
1.736000000e+08,-65.1598
1.739733333e+08,-61.5845
1.743466667e+08,-53.8027
1.747200000e+08,-51.3388
1.750933333e+08,-69.0715
1.754666667e+08,-69.5173
1.758400000e+08,-63.6192
1.762133333e+08,-66.0531
1.765866667e+08,-66.9973
1.769600000e+08,-53.2894
1.773333333e+08,-46.9651
1.777066667e+08,-58.4053
1.780800000e+08,-67.6813
1.784533333e+08,-66.5798
1.788266667e+08,-66.175
1.792000000e+08,-69.5702
1.795733333e+08,-52.5423
1.799466667e+08,-39.3742
1.803200000e+08,-44.135
1.806933333e+08,-69.3476
1.810666667e+08,-62.7002
1.814400000e+08,-64.582
1.818133333e+08,-66.872
1.821866667e+08,-61.9105
1.825600000e+08,-46.1291
1.829333333e+08,-47.5493
1.833066667e+08,-72.1252
1.836800000e+08,-63.4153
1.840533333e+08,-65.5599
1.844266667e+08,-67.8321
1.848000000e+08,-65.7487
1.851733333e+08,-52.2767
1.855466667e+08,-51.8038
1.859200000e+08,-63.8171
1.862933333e+08,-69.1974
1.866666667e+08,-70.1388
1.870400000e+08,-66.3423
1.874133333e+08,-65.2217
1.877866667e+08,-51.147
1.881600000e+08,-48.1211
1.885333333e+08,-55.9185
1.889066667e+08,-59.9585
1.892800000e+08,-60.6555
1.896533333e+08,-71.7134
1.900266667e+08,-68.4625
1.904000000e+08,-58.1094
1.907733333e+08,-51.259
1.911466667e+08,-59.6271
1.915200000e+08,-62.5124
1.918933333e+08,-54.3366
1.922666667e+08,-53.6444
1.926400000e+08,-60.1649
1.930133333e+08,-56.7622
1.933866667e+08,-49.2521
1.937600000e+08,-50.2503
1.941333333e+08,-53.0958
1.945066667e+08,-58.4098
1.948800000e+08,-62.1153
1.952533333e+08,-62.1443
1.956266667e+08,-60.9921
1.960000000e+08,-54.7896
1.963733333e+08,-55.5128
1.967466667e+08,-55.7666
1.971200000e+08,-64.9185
1.974933333e+08,-65.2234
1.978666667e+08,-62.7829
1.982400000e+08,-60.4283
1.986133333e+08,-54.8236
1.989866667e+08,-50.9886
1.993600000e+08,-49.0565
1.997333333e+08,-58.6325
2.001066667e+08,-61.8879
2.004800000e+08,-60.6224
2.008533333e+08,-60.5695
2.012266667e+08,-61.7898
2.016000000e+08,-56.4338
2.019733333e+08,-52.5179
2.023466667e+08,-59.0419
2.027200000e+08,-65.6394
2.030933333e+08,-68.5088
2.034666667e+08,-65.5349
2.038400000e+08,-49.0127
2.042133333e+08,-49.0178
2.045866667e+08,-46.7789
2.049600000e+08,-52.4011
2.053333333e+08,-59.9414
2.057066667e+08,-60.7184
2.060800000e+08,-73.1824
2.064533333e+08,-67.4779
2.068266667e+08,-68.3539
2.072000000e+08,-54.4462
2.075733333e+08,-57.1639
2.079466667e+08,-65.0977
2.083200000e+08,-63.2719
2.086933333e+08,-69.5844
2.090666667e+08,-67.7959
2.094400000e+08,-70.0615
2.098133333e+08,-46.5143
2.101866667e+08,-46.7637
2.105600000e+08,-64.6716
2.109333333e+08,-64.7303
2.113066667e+08,-66.4722
2.116800000e+08,-66.4973
2.120533333e+08,-69.0386
2.124266667e+08,-52.4469
2.128000000e+08,-51.1332
2.131733333e+08,-64.6168
2.135466667e+08,-63.6135
2.139200000e+08,-69.9554
2.142933333e+08,-65.3387
2.146666667e+08,-66.9356
2.150400000e+08,-52.744
2.154133333e+08,-47.2028
2.157866667e+08,-56.916
2.161600000e+08,-56.667
2.165333333e+08,-67.9871
2.169066667e+08,-61.6665
2.172800000e+08,-65.6977
2.176533333e+08,-58.2393
2.180266667e+08,-54.3251
2.184000000e+08,-59.0645
2.187733333e+08,-59.5368
2.191466667e+08,-74.5349
2.195200000e+08,-68.5277
2.198933333e+08,-62.1291
2.202666667e+08,-54.994
2.206400000e+08,-48.0866
2.210133333e+08,-49.7478
2.213866667e+08,-52.6366
2.217600000e+08,-60.8911
2.221333333e+08,-61.9544
2.225066667e+08,-66.7014
2.228800000e+08,-68.3744
2.232533333e+08,-55.7457
2.236266667e+08,-55.1014
2.240000000e+08,-60.1083
2.243733333e+08,-62.9865
2.247466667e+08,-61.7158
2.251200000e+08,-66.329
2.254933333e+08,-66.8861
2.258666667e+08,-53.2758
2.262400000e+08,-51.1959
2.266133333e+08,-49.1832
2.269866667e+08,-58.9339
2.273600000e+08,-62.8015
2.277333333e+08,-49.0236
2.281066667e+08,-47.3596
2.284800000e+08,-62.5294
2.288533333e+08,-58.9986
2.292266667e+08,-53.8054
2.296000000e+08,-61.2258
2.299733333e+08,-71.7852
2.303466667e+08,-65.7451
2.307200000e+08,-65.1012
2.310933333e+08,-60.9149
2.314666667e+08,-55.7822
2.318400000e+08,-47.6434
2.322133333e+08,-50.4638
2.325866667e+08,-64.3959
2.329600000e+08,-64.9538
2.333333333e+08,-71.4734
2.337066667e+08,-67.0822
2.340800000e+08,-64.8832
2.344533333e+08,-53.7513
2.348266667e+08,-54.3945
2.352000000e+08,-68.3462
2.355733333e+08,-68.9271
2.359466667e+08,-67.9034
2.363200000e+08,-67.6387
2.366933333e+08,-66.4532
2.370666667e+08,-47.6266
2.374400000e+08,-46.1551
2.378133333e+08,-64.4223
2.381866667e+08,-71.0671
2.385600000e+08,-74.3487
2.389333333e+08,-75.5429
2.393066667e+08,-73.573
2.396800000e+08,-52.4239
2.400533333e+08,-46.2197
2.404266667e+08,-50.0742
2.408000000e+08,-68.2305
2.411733333e+08,-69.7927
2.415466667e+08,-71.5984
2.419200000e+08,-70.0635
2.422933333e+08,-55.5089
2.426666667e+08,-46.1978
2.430400000e+08,-53.1529
2.434133333e+08,-70.5984
2.437866667e+08,-68.9783
2.441600000e+08,-67.2505
2.445333333e+08,-72.5499
2.449066667e+08,-65.9595
2.452800000e+08,-53.9009
2.456533333e+08,-56.5719
2.460266667e+08,-71.3396
2.464000000e+08,-66.6418
2.467733333e+08,-65.6063
2.471466667e+08,-68.9342
2.475200000e+08,-62.1092
2.478933333e+08,-48.0339
2.482666667e+08,-48.018
2.486400000e+08,-55.1102
2.490133333e+08,-63.809
2.493866667e+08,-64.2627
2.497600000e+08,-65.4171
2.501333333e+08,-66.8182
2.505066667e+08,-56.5697
2.508800000e+08,-54.14
2.512533333e+08,-59.0554
2.516266667e+08,-55.3212
2.520000000e+08,-46.2693
2.523733333e+08,-52.2808
2.527466667e+08,-62.339
2.531200000e+08,-54.5519
2.534933333e+08,-49.9216
2.538666667e+08,-50.6845
2.542400000e+08,-57.1257
2.546133333e+08,-64.8022
2.549866667e+08,-62.233
2.553600000e+08,-64.3939
2.557333333e+08,-62.5073
2.561066667e+08,-56.0904
2.564800000e+08,-55.311
2.568533333e+08,-60.6694
2.572266667e+08,-63.0274
2.576000000e+08,-63.2257
2.579733333e+08,-64.2644
2.583466667e+08,-59.3706
2.587200000e+08,-52.9623
2.590933333e+08,-48.4526
2.594666667e+08,-49.9232
2.598400000e+08,-61.0415
2.602133333e+08,-65.878
2.605866667e+08,-66.5914
2.609600000e+08,-67.2187
2.613333333e+08,-60.3767
2.617066667e+08,-54.1569
2.620800000e+08,-53.5746
2.624533333e+08,-64.428
2.628266667e+08,-65.1102
2.632000000e+08,-68.4194
2.635733333e+08,-65.4487
2.639466667e+08,-51.0942
2.643200000e+08,-50.659
2.646933333e+08,-47.2251
2.650666667e+08,-62.4004
2.654400000e+08,-63.8935
2.658133333e+08,-64.6453
2.661866667e+08,-71.9997
2.665600000e+08,-76.3277
2.669333333e+08,-61.8132
2.673066667e+08,-53.4058
2.676800000e+08,-62.4635
2.680533333e+08,-64.1866
2.684266667e+08,-68.776
2.688000000e+08,-70.865
2.691733333e+08,-72.1519
2.695466667e+08,-64.1727
2.699200000e+08,-50.365
2.702933333e+08,-53.7071
2.706666667e+08,-69.6296
2.710400000e+08,-72.1396
2.714133333e+08,-68.8071
2.717866667e+08,-68.1083
2.721600000e+08,-70.0255
2.725333333e+08,-52.8056
2.729066667e+08,-53.7639
2.732800000e+08,-69.2517
2.736533333e+08,-71.3574
2.740266667e+08,-64.0361
2.744000000e+08,-64.6203
2.747733333e+08,-66.6474
2.751466667e+08,-48.746
2.755200000e+08,-47.4141
2.758933333e+08,-47.8309
2.762666667e+08,-50.1334
2.766400000e+08,-65.8449
2.770133333e+08,-64.0136
2.773866667e+08,-67.9245
2.777600000e+08,-58.7685
2.781333333e+08,-54.6636
2.785066667e+08,-64.8091
2.788800000e+08,-67.3779
2.792533333e+08,-63.7978
2.796266667e+08,-63.1613
2.800000000e+08,-70.5766

