4/tek0044NRM.csv

Model,MDO3104
Firmware Version,1.30

Waveform Type,RF_FD
Point Format,Y
Horizontal Units,Hz
Horizontal Scale,2.8e+07
,
Sample Interval,373333
Record Length,751
Gating,0.133155792277% to 100.0%
Probe Attenuation,1
Vertical Units,dBm
Vertical Offset,0
Vertical Scale,10
Vertical Position,0
Center Frequency,1.4e+08
Span,2.8e+08
Reference Level,-15
Label,
FREQUENCY,FD NORM
0.000000000e+00,-64.2605
3.733333333e+05,-71.757
7.466666667e+05,-78.5554
1.120000000e+06,-80.2258
1.493333333e+06,-70.9084
1.866666667e+06,-67.5077
2.240000000e+06,-68.1016
2.613333333e+06,-64.0392
2.986666667e+06,-68.2933
3.360000000e+06,-60.1666
3.733333333e+06,-60.9708
4.106666667e+06,-63.3735
4.480000000e+06,-62.6583
4.853333333e+06,-69.7518
5.226666667e+06,-64.375
5.600000000e+06,-69.4403
5.973333333e+06,-60.9623
6.346666667e+06,-62.9974
6.720000000e+06,-70.2846
7.093333333e+06,-78.6253
7.466666667e+06,-71.8989
7.840000000e+06,-67.0662
8.213333333e+06,-66.6024
8.586666667e+06,-68.3758
8.960000000e+06,-71.0034
9.333333333e+06,-79.8133
9.706666667e+06,-70.4558
1.008000000e+07,-73.3039
1.045333333e+07,-67.7415
1.082666667e+07,-69.3041
1.120000000e+07,-70.4231
1.157333333e+07,-65.2254
1.194666667e+07,-57.8926
1.232000000e+07,-67.8036
1.269333333e+07,-75.2389
1.306666667e+07,-69.2563
1.344000000e+07,-69.7916
1.381333333e+07,-69.3447
1.418666667e+07,-70.5373
1.456000000e+07,-69.3081
1.493333333e+07,-68.0316
1.530666667e+07,-71.8056
1.568000000e+07,-67.8757
1.605333333e+07,-64.5245
1.642666667e+07,-67.4638
1.680000000e+07,-70.8922
1.717333333e+07,-64.1602
1.754666667e+07,-63.2826
1.792000000e+07,-54.2111
1.829333333e+07,-58.8434
1.866666667e+07,-75.6216
1.904000000e+07,-67.3185
1.941333333e+07,-67.2666
1.978666667e+07,-71.1086
2.016000000e+07,-75.4197
2.053333333e+07,-70.2515
2.090666667e+07,-68.8681
2.128000000e+07,-67.012
2.165333333e+07,-66.2295
2.202666667e+07,-68.8291
2.240000000e+07,-68.9093
2.277333333e+07,-68.6252
2.314666667e+07,-75.855
2.352000000e+07,-68.4413
2.389333333e+07,-74.9657
2.426666667e+07,-65.9727
2.464000000e+07,-56.7693
2.501333333e+07,-52.3599
2.538666667e+07,-58.0308
2.576000000e+07,-66.7504
2.613333333e+07,-69.3972
2.650666667e+07,-72.853
2.688000000e+07,-65.6928
2.725333333e+07,-60.0767
2.762666667e+07,-64.7382
2.800000000e+07,-68.7417
2.837333333e+07,-74.075
2.874666667e+07,-71.9263
2.912000000e+07,-73.5526
2.949333333e+07,-67.3026
2.986666667e+07,-49.7462
3.024000000e+07,-51.1779
3.061333333e+07,-72.7131
3.098666667e+07,-70.2666
3.136000000e+07,-71.6187
3.173333333e+07,-71.9441
3.210666667e+07,-71.2159
3.248000000e+07,-61.7321
3.285333333e+07,-61.0327
3.322666667e+07,-74.3631
3.360000000e+07,-72.3952
3.397333333e+07,-70.2999
3.434666667e+07,-73.1375
3.472000000e+07,-75.2891
3.509333333e+07,-62.4338
3.546666667e+07,-60.3316
3.584000000e+07,-51.4743
3.621333333e+07,-52.3245
3.658666667e+07,-70.8345
3.696000000e+07,-68.7875
3.733333333e+07,-74.3285
3.770666667e+07,-66.0217
3.808000000e+07,-60.2992
3.845333333e+07,-67.5474
3.882666667e+07,-73.798
3.920000000e+07,-76.4132
3.957333333e+07,-77.5071
3.994666667e+07,-68.8995
4.032000000e+07,-68.0738
4.069333333e+07,-59.0341
4.106666667e+07,-62.4621
4.144000000e+07,-65.2104
4.181333333e+07,-53.2129
4.218666667e+07,-53.0191
4.256000000e+07,-68.8503
4.293333333e+07,-68.2324
4.330666667e+07,-61.6343
4.368000000e+07,-62.6031
4.405333333e+07,-62.8343
4.442666667e+07,-70.5004
4.480000000e+07,-71.5034
4.517333333e+07,-71.7943
4.554666667e+07,-69.0527
4.592000000e+07,-61.0923
4.629333333e+07,-58.7279
4.666666667e+07,-56.4971
4.704000000e+07,-66.0195
4.741333333e+07,-67.6612
4.778666667e+07,-38.556
4.816000000e+07,-37.8493
4.853333333e+07,-61.5738
4.890666667e+07,-61.9539
4.928000000e+07,-58.9219
4.965333333e+07,-67.9064
5.002666667e+07,-75.1037
5.040000000e+07,-78.8946
5.077333333e+07,-70.7434
5.114666667e+07,-68.9793
5.152000000e+07,-66.593
5.189333333e+07,-55.2097
5.226666667e+07,-60.9975
5.264000000e+07,-72.6377
5.301333333e+07,-71.258
5.338666667e+07,-71.8899
5.376000000e+07,-51.2206
5.413333333e+07,-49.5922
5.450666667e+07,-56.4507
5.488000000e+07,-58.7637
5.525333333e+07,-73.8392
5.562666667e+07,-70.8778
5.600000000e+07,-77.1966
5.637333333e+07,-83.5891
5.674666667e+07,-73.5976
5.712000000e+07,-52.6642
5.749333333e+07,-52.33
5.786666667e+07,-72.0232
5.824000000e+07,-72.9301
5.861333333e+07,-68.5351
5.898666667e+07,-67.5257
5.936000000e+07,-76.9512
5.973333333e+07,-47.7634
6.010666667e+07,-45.5372
6.048000000e+07,-61.5893
6.085333333e+07,-70.8565
6.122666667e+07,-72.1438
6.160000000e+07,-70.4619
6.197333333e+07,-70.7304
6.234666667e+07,-57.2956
6.272000000e+07,-51.818
6.309333333e+07,-63.3714
6.346666667e+07,-73.7011
6.384000000e+07,-71.6179
6.421333333e+07,-75.5061
6.458666667e+07,-69.6297
6.496000000e+07,-64.2369
6.533333333e+07,-55.0281
6.570666667e+07,-49.0708
6.608000000e+07,-46.0066
6.645333333e+07,-60.1753
6.682666667e+07,-69.1051
6.720000000e+07,-68.6156
6.757333333e+07,-65.065
6.794666667e+07,-56.129
6.832000000e+07,-58.4412
6.869333333e+07,-65.0475
6.906666667e+07,-65.7827
6.944000000e+07,-66.7553
6.981333333e+07,-68.3731
7.018666667e+07,-64.8983
7.056000000e+07,-56.6037
7.093333333e+07,-56.4606
7.130666667e+07,-60.7603
7.168000000e+07,-47.059
7.205333333e+07,-41.6454
7.242666667e+07,-53.6377
7.280000000e+07,-62.8136
7.317333333e+07,-58.2358
7.354666667e+07,-57.3199
7.392000000e+07,-59.9753
7.429333333e+07,-65.1446
7.466666667e+07,-67.8782
7.504000000e+07,-63.9383
7.541333333e+07,-63.4155
7.578666667e+07,-60.9254
7.616000000e+07,-57.4093
7.653333333e+07,-57.4123
7.690666667e+07,-62.6344
7.728000000e+07,-65.056
7.765333333e+07,-54.9384
7.802666667e+07,-48.3548
7.840000000e+07,-56.7035
7.877333333e+07,-61.05
7.914666667e+07,-54.7484
7.952000000e+07,-56.3309
7.989333333e+07,-64.2061
8.026666667e+07,-66.3422
8.064000000e+07,-70.6477
8.101333333e+07,-65.3598
8.138666667e+07,-62.044
8.176000000e+07,-55.7877
8.213333333e+07,-56.1154
8.250666667e+07,-72.4384
8.288000000e+07,-72.129
8.325333333e+07,-71.096
8.362666667e+07,-51.9277
8.400000000e+07,-44.0417
8.437333333e+07,-51.2965
8.474666667e+07,-53.3076
8.512000000e+07,-66.8998
8.549333333e+07,-67.2595
8.586666667e+07,-66.2273
8.624000000e+07,-69.1175
8.661333333e+07,-68.5422
8.698666667e+07,-59.2098
8.736000000e+07,-52.8901
8.773333333e+07,-61.1085
8.810666667e+07,-69.4167
8.848000000e+07,-70.7233
8.885333333e+07,-69.2717
8.922666667e+07,-76.8829
8.960000000e+07,-69.2264
8.997333333e+07,-58.2099
9.034666667e+07,-64.461
9.072000000e+07,-67.6637
9.109333333e+07,-66.8451
9.146666667e+07,-78.1164
9.184000000e+07,-73.148
9.221333333e+07,-72.3017
9.258666667e+07,-53.0625
9.296000000e+07,-55.5515
9.333333333e+07,-73.0871
9.370666667e+07,-73.1093
9.408000000e+07,-73.8191
9.445333333e+07,-71.0456
9.482666667e+07,-71.2099
9.520000000e+07,-52.1265
9.557333333e+07,-52.1851
9.594666667e+07,-42.9235
9.632000000e+07,-46.8331
9.669333333e+07,-71.3911
9.706666667e+07,-67.5783
9.744000000e+07,-63.8029
9.781333333e+07,-55.4253
9.818666667e+07,-54.1828
9.856000000e+07,-60.0449
9.893333333e+07,-65.9837
9.930666667e+07,-68.2899
9.968000000e+07,-72.2172
1.000533333e+08,-69.5284
1.004266667e+08,-57.9078
1.008000000e+08,-53.6535
1.011733333e+08,-56.7205
1.015466667e+08,-60.5644
1.019200000e+08,-53.9571
1.022933333e+08,-56.3564
1.026666667e+08,-63.3626
1.030400000e+08,-59.5965
1.034133333e+08,-54.5708
1.037866667e+08,-58.3457
1.041600000e+08,-60.4284
1.045333333e+08,-72.1244
1.049066667e+08,-72.1126
1.052800000e+08,-67.9366
1.056533333e+08,-61.6747
1.060266667e+08,-55.6787
1.064000000e+08,-53.2425
1.067733333e+08,-54.0464
1.071466667e+08,-59.9046
1.075200000e+08,-61.9077
1.078933333e+08,-42.7843
1.082666667e+08,-44.7746
1.086400000e+08,-58.7704
1.090133333e+08,-56.247
1.093866667e+08,-54.7177
1.097600000e+08,-65.459
1.101333333e+08,-67.3389
1.105066667e+08,-67.8689
1.108800000e+08,-64.65
1.112533333e+08,-62.3468
1.116266667e+08,-56.7413
1.120000000e+08,-50.9278
1.123733333e+08,-57.6345
1.127466667e+08,-61.9014
1.131200000e+08,-64.9952
1.134933333e+08,-67.1783
1.138666667e+08,-57.9278
1.142400000e+08,-58.0418
1.146133333e+08,-54.2897
1.149866667e+08,-62.1168
1.153600000e+08,-73.8716
1.157333333e+08,-71.3388
1.161066667e+08,-72.6299
1.164800000e+08,-72.466
1.168533333e+08,-63.4052
1.172266667e+08,-49.4033
1.176000000e+08,-52.505
1.179733333e+08,-70.0187
1.183466667e+08,-71.688
1.187200000e+08,-71.208
1.190933333e+08,-69.9769
1.194666667e+08,-62.9126
1.198400000e+08,-38.1819
1.202133333e+08,-38.899
1.205866667e+08,-70.3398
1.209600000e+08,-70.1289
1.213333333e+08,-68.5787
1.217066667e+08,-68.8488
1.220800000e+08,-67.6908
1.224533333e+08,-50.1832
1.228266667e+08,-49.0605
1.232000000e+08,-69.1642
1.235733333e+08,-69.2171
1.239466667e+08,-69.0744
1.243200000e+08,-69.1361
1.246933333e+08,-64.9532
1.250666667e+08,-55.9509
1.254400000e+08,-50.2795
1.258133333e+08,-53.7698
1.261866667e+08,-53.5605
1.265600000e+08,-66.2298
1.269333333e+08,-66.2545
1.273066667e+08,-64.7676
1.276800000e+08,-57.0616
1.280533333e+08,-49.7538
1.284266667e+08,-58.7777
1.288000000e+08,-61.3611
1.291733333e+08,-65.9625
1.295466667e+08,-64.4186
1.299200000e+08,-64.3097
1.302933333e+08,-59.2438
1.306666667e+08,-51.5279
1.310400000e+08,-55.0777
1.314133333e+08,-60.6015
1.317866667e+08,-43.8547
1.321600000e+08,-43.2117
1.325333333e+08,-63.3373
1.329066667e+08,-60.5552
1.332800000e+08,-51.7067
1.336533333e+08,-52.8006
1.340266667e+08,-53.9318
1.344000000e+08,-64.4683
1.347733333e+08,-64.279
1.351466667e+08,-64.1408
1.355200000e+08,-62.5318
1.358933333e+08,-55.6145
1.362666667e+08,-54.3797
1.366400000e+08,-55.3893
1.370133333e+08,-62.8082
1.373866667e+08,-68.4597
1.377600000e+08,-60.6818
1.381333333e+08,-60.4012
1.385066667e+08,-56.9465
1.388800000e+08,-55.6459
1.392533333e+08,-50.8114
1.396266667e+08,-57.8323
1.400000000e+08,-64.9412
1.403733333e+08,-65.2381
1.407466667e+08,-65.1019
1.411200000e+08,-61.1021
1.414933333e+08,-58.6768
1.418666667e+08,-53.1355
1.422400000e+08,-57.4569
1.426133333e+08,-71.5495
1.429866667e+08,-69.5185
1.433600000e+08,-68.6678
1.437333333e+08,-46.5533
1.441066667e+08,-44.1368
1.444800000e+08,-49.1595
1.448533333e+08,-50.6769
1.452266667e+08,-65.4095
1.456000000e+08,-66.5377
1.459733333e+08,-68.8443
1.463466667e+08,-66.7436
1.467200000e+08,-66.7025
1.470933333e+08,-52.0497
1.474666667e+08,-51.238
1.478400000e+08,-71.5022
1.482133333e+08,-70.2971
1.485866667e+08,-87.2416
1.489600000e+08,-71.6284
1.493333333e+08,-72.5125
1.497066667e+08,-54.8717
1.500800000e+08,-50.7215
1.504533333e+08,-66.7072
1.508266667e+08,-67.0525
1.512000000e+08,-76.6829
1.515733333e+08,-72.7789
1.519466667e+08,-67.2628
1.523200000e+08,-60.5288
1.526933333e+08,-52.5064
1.530666667e+08,-63.6464
1.534400000e+08,-66.2366
1.538133333e+08,-66.4937
1.541866667e+08,-69.5688
1.545600000e+08,-69.5595
1.549333333e+08,-60.8548
1.553066667e+08,-48.3693
1.556800000e+08,-51.749
1.560533333e+08,-47.8857
1.564266667e+08,-61.4026
1.568000000e+08,-63.5397
1.571733333e+08,-63.7088
1.575466667e+08,-61.5361
1.579200000e+08,-52.3145
1.582933333e+08,-53.5063
1.586666667e+08,-59.6936
1.590400000e+08,-66.9805
1.594133333e+08,-67.4002
1.597866667e+08,-64.8112
1.601600000e+08,-63.1182
1.605333333e+08,-50.4045
1.609066667e+08,-49.2961
1.612800000e+08,-53.6613
1.616533333e+08,-57.9645
1.620266667e+08,-56.1148
1.624000000e+08,-59.8838
1.627733333e+08,-62.7699
1.631466667e+08,-55.4062
1.635200000e+08,-52.9999
1.638933333e+08,-55.3413
1.642666667e+08,-62.1332
1.646400000e+08,-62.2959
1.650133333e+08,-64.4623
1.653866667e+08,-63.3034
1.657600000e+08,-57.328
1.661333333e+08,-52.2711
1.665066667e+08,-50.1486
1.668800000e+08,-54.6859
1.672533333e+08,-59.4591
1.676266667e+08,-53.339
1.680000000e+08,-46.4552
1.683733333e+08,-54.1327
1.687466667e+08,-58.7844
1.691200000e+08,-52.9202
1.694933333e+08,-55.1237
1.698666667e+08,-63.1068
1.702400000e+08,-65.6627
1.706133333e+08,-67.4792
1.709866667e+08,-62.4573
1.713600000e+08,-56.9968
1.717333333e+08,-48.5929
1.721066667e+08,-48.1955
1.724800000e+08,-58.7111
1.728533333e+08,-62.0923
1.732266667e+08,-66.1986
1.736000000e+08,-59.7617
1.739733333e+08,-58.9734
1.743466667e+08,-54.892
1.747200000e+08,-51.9069
1.750933333e+08,-59.7166
1.754666667e+08,-68.8638
1.758400000e+08,-65.8636
1.762133333e+08,-65.1334
1.765866667e+08,-72.1699
1.769600000e+08,-53.9727
1.773333333e+08,-47.0102
1.777066667e+08,-55.5979
1.780800000e+08,-67.0382
1.784533333e+08,-64.6327
1.788266667e+08,-63.882
1.792000000e+08,-71.1897
1.795733333e+08,-69.3948
1.799466667e+08,-57.9292
1.803200000e+08,-64.2097
1.806933333e+08,-70.6308
1.810666667e+08,-75.712
1.814400000e+08,-74.2634
1.818133333e+08,-68.8287
1.821866667e+08,-64.5903
1.825600000e+08,-47.3252
1.829333333e+08,-48.9147
1.833066667e+08,-69.5269
1.836800000e+08,-76.7371
1.840533333e+08,-72.5444
1.844266667e+08,-69.5788
1.848000000e+08,-63.3834
1.851733333e+08,-51.4141
1.855466667e+08,-51.1322
1.859200000e+08,-65.7386
1.862933333e+08,-74.4451
1.866666667e+08,-72.8364
1.870400000e+08,-64.4948
1.874133333e+08,-62.2726
1.877866667e+08,-50.5178
1.881600000e+08,-47.6906
1.885333333e+08,-56.3299
1.889066667e+08,-63.1262
1.892800000e+08,-62.368
1.896533333e+08,-63.0849
1.900266667e+08,-63.2113
1.904000000e+08,-57.573
1.907733333e+08,-52.8138
1.911466667e+08,-58.8811
1.915200000e+08,-62.0909
1.918933333e+08,-54.0345
1.922666667e+08,-58.716
1.926400000e+08,-64.6167
1.930133333e+08,-56.5852
1.933866667e+08,-49.0719
1.937600000e+08,-50.0535
1.941333333e+08,-51.2867
1.945066667e+08,-60.9458
1.948800000e+08,-62.5341
1.952533333e+08,-67.2892
1.956266667e+08,-61.0708
1.960000000e+08,-55.8025
1.963733333e+08,-56.211
1.967466667e+08,-56.4135
1.971200000e+08,-69.4414
1.974933333e+08,-63.8458
1.978666667e+08,-63.8158
1.982400000e+08,-61.7551
1.986133333e+08,-53.9832
1.989866667e+08,-50.4731
1.993600000e+08,-48.4127
1.997333333e+08,-59.5039
2.001066667e+08,-61.438
2.004800000e+08,-66.2314
2.008533333e+08,-61.9144
2.012266667e+08,-62.0396
2.016000000e+08,-60.7419
2.019733333e+08,-54.5442
2.023466667e+08,-65.2054
2.027200000e+08,-65.8544
2.030933333e+08,-72.5479
2.034666667e+08,-65.7151
2.038400000e+08,-42.8496
2.042133333e+08,-43.6378
2.045866667e+08,-46.5398
2.049600000e+08,-52.5109
2.053333333e+08,-60.9828
2.057066667e+08,-66.2113
2.060800000e+08,-75.0357
2.064533333e+08,-62.4183
2.068266667e+08,-62.697
2.072000000e+08,-54.317
2.075733333e+08,-56.9143
2.079466667e+08,-66.9184
2.083200000e+08,-66.3212
2.086933333e+08,-76.116
2.090666667e+08,-66.4126
2.094400000e+08,-67.9276
2.098133333e+08,-47.7504
2.101866667e+08,-47.6774
2.105600000e+08,-69.7152
2.109333333e+08,-74.1068
2.113066667e+08,-61.6647
2.116800000e+08,-61.427
2.120533333e+08,-61.2273
2.124266667e+08,-53.7976
2.128000000e+08,-52.133
2.131733333e+08,-65.4799
2.135466667e+08,-65.8354
2.139200000e+08,-65.9302
2.142933333e+08,-69.5541
2.146666667e+08,-63.3841
2.150400000e+08,-53.5438
2.154133333e+08,-47.6048
2.157866667e+08,-53.9429
2.161600000e+08,-53.4127
2.165333333e+08,-67.5237
2.169066667e+08,-64.5094
2.172800000e+08,-67.5079
2.176533333e+08,-57.711
2.180266667e+08,-53.4713
2.184000000e+08,-58.6231
2.187733333e+08,-62.7343
2.191466667e+08,-64.6779
2.195200000e+08,-64.0397
2.198933333e+08,-59.7085
2.202666667e+08,-56.0912
2.206400000e+08,-48.1978
2.210133333e+08,-50.6342
2.213866667e+08,-52.6681
2.217600000e+08,-58.7726
2.221333333e+08,-58.6945
2.225066667e+08,-62.9803
2.228800000e+08,-60.7622
2.232533333e+08,-56.2748
2.236266667e+08,-55.666
2.240000000e+08,-56.1759
2.243733333e+08,-62.2446
2.247466667e+08,-61.7433
2.251200000e+08,-62.5763
2.254933333e+08,-60.3727
2.258666667e+08,-52.9792
2.262400000e+08,-50.9738
2.266133333e+08,-49.3974
2.269866667e+08,-55.3037
2.273600000e+08,-59.0477
2.277333333e+08,-50.0223
2.281066667e+08,-47.3109
2.284800000e+08,-60.3045
2.288533333e+08,-57.2809
2.292266667e+08,-55.4822
2.296000000e+08,-60.6792
2.299733333e+08,-64.8664
2.303466667e+08,-63.7463
2.307200000e+08,-60.6216
2.310933333e+08,-58.4865
2.314666667e+08,-55.0991
2.318400000e+08,-47.4427
2.322133333e+08,-49.9972
2.325866667e+08,-61.044
2.329600000e+08,-62.409
2.333333333e+08,-63.5801
2.337066667e+08,-63.6559
2.340800000e+08,-62.3572
2.344533333e+08,-53.4445
2.348266667e+08,-54.2097
2.352000000e+08,-74.0923
2.355733333e+08,-74.2181
2.359466667e+08,-65.7951
2.363200000e+08,-67.3507
2.366933333e+08,-65.6868
2.370666667e+08,-47.8419
2.374400000e+08,-46.3478
2.378133333e+08,-65.6935
2.381866667e+08,-68.8706
2.385600000e+08,-68.849
2.389333333e+08,-72.4419
2.393066667e+08,-73.3045
2.396800000e+08,-54.5514
2.400533333e+08,-52.6804
2.404266667e+08,-56.0612
2.408000000e+08,-68.3662
2.411733333e+08,-69.8126
2.415466667e+08,-76.7246
2.419200000e+08,-71.7768
2.422933333e+08,-55.4974
2.426666667e+08,-46.257
2.430400000e+08,-53.5062
2.434133333e+08,-68.8255
2.437866667e+08,-67.1248
2.441600000e+08,-68.839
2.445333333e+08,-68.9821
2.449066667e+08,-63.6147
2.452800000e+08,-53.286
2.456533333e+08,-56.1515
2.460266667e+08,-73.475
2.464000000e+08,-71.918
2.467733333e+08,-69.4966
2.471466667e+08,-67.563
2.475200000e+08,-60.5563
2.478933333e+08,-48.3732
2.482666667e+08,-48.6774
2.486400000e+08,-55.805
2.490133333e+08,-62.1818
2.493866667e+08,-63.55
2.497600000e+08,-63.4029
2.501333333e+08,-62.7139
2.505066667e+08,-56.7901
2.508800000e+08,-55.064
2.512533333e+08,-58.0668
2.516266667e+08,-61.6768
2.520000000e+08,-58.1691
2.523733333e+08,-60.9309
2.527466667e+08,-60.4727
2.531200000e+08,-53.6954
2.534933333e+08,-50.1792
2.538666667e+08,-51.633
2.542400000e+08,-56.0357
2.546133333e+08,-62.309
2.549866667e+08,-67.9665
2.553600000e+08,-67.9387
2.557333333e+08,-60.6337
2.561066667e+08,-57.4725
2.564800000e+08,-55.6616
2.568533333e+08,-59.6828
2.572266667e+08,-66.3445
2.576000000e+08,-65.9869
2.579733333e+08,-69.9956
2.583466667e+08,-62.0909
2.587200000e+08,-53.9988
2.590933333e+08,-48.8225
2.594666667e+08,-49.3447
2.598400000e+08,-57.8161
2.602133333e+08,-60.9715
2.605866667e+08,-66.2233
2.609600000e+08,-68.0383
2.613333333e+08,-60.274
2.617066667e+08,-54.7554
2.620800000e+08,-53.5149
2.624533333e+08,-65.2736
2.628266667e+08,-67.236
2.632000000e+08,-68.2984
2.635733333e+08,-63.4526
2.639466667e+08,-47.8491
2.643200000e+08,-51.4225
2.646933333e+08,-47.4163
2.650666667e+08,-58.6316
2.654400000e+08,-66.4794
2.658133333e+08,-65.3756
2.661866667e+08,-67.3183
2.665600000e+08,-69.2027
2.669333333e+08,-61.5273
2.673066667e+08,-53.7409
2.676800000e+08,-63.207
2.680533333e+08,-68.5238
2.684266667e+08,-76.1361
2.688000000e+08,-68.688
2.691733333e+08,-69.3822
2.695466667e+08,-60.5136
2.699200000e+08,-46.7197
2.702933333e+08,-50.3405
2.706666667e+08,-69.7382
2.710400000e+08,-68.589
2.714133333e+08,-73.01
2.717866667e+08,-68.9485
2.721600000e+08,-69.2692
2.725333333e+08,-53.2857
2.729066667e+08,-54.4516
2.732800000e+08,-67.2488
2.736533333e+08,-65.4996
2.740266667e+08,-70.2312
2.744000000e+08,-68.362
2.747733333e+08,-61.35
2.751466667e+08,-48.6393
2.755200000e+08,-47.8231
2.758933333e+08,-42.3216
2.762666667e+08,-44.172
2.766400000e+08,-64.7957
2.770133333e+08,-68.3127
2.773866667e+08,-67.0439
2.777600000e+08,-58.2405
2.781333333e+08,-53.7852
2.785066667e+08,-62.9598
2.788800000e+08,-66.2258
2.792533333e+08,-67.4978
2.796266667e+08,-67.1043
2.800000000e+08,-62.4862

