4/tek0094NRM.csv

Model,MDO3104
Firmware Version,1.30

Waveform Type,RF_FD
Point Format,Y
Horizontal Units,Hz
Horizontal Scale,2.8e+07
,
Sample Interval,373333
Record Length,751
Gating,0.133155792277% to 100.0%
Probe Attenuation,1
Vertical Units,dBm
Vertical Offset,0
Vertical Scale,10
Vertical Position,0
Center Frequency,1.4e+08
Span,2.8e+08
Reference Level,-15
Label,
FREQUENCY,FD NORM
0.000000000e+00,-68.1628
3.733333333e+05,-75.3568
7.466666667e+05,-79.9202
1.120000000e+06,-80.6544
1.493333333e+06,-72.6951
1.866666667e+06,-69.6973
2.240000000e+06,-66.9244
2.613333333e+06,-64.6107
2.986666667e+06,-70.0547
3.360000000e+06,-60.2565
3.733333333e+06,-61.0363
4.106666667e+06,-67.5078
4.480000000e+06,-67.4941
4.853333333e+06,-69.1014
5.226666667e+06,-65.7637
5.600000000e+06,-68.8535
5.973333333e+06,-68.3311
6.346666667e+06,-67.3677
6.720000000e+06,-68.7727
7.093333333e+06,-67.709
7.466666667e+06,-72.5243
7.840000000e+06,-66.5555
8.213333333e+06,-65.446
8.586666667e+06,-76.5264
8.960000000e+06,-74.2753
9.333333333e+06,-69.9425
9.706666667e+06,-74.3048
1.008000000e+07,-68.7645
1.045333333e+07,-65.4215
1.082666667e+07,-72.207
1.120000000e+07,-66.8387
1.157333333e+07,-68.316
1.194666667e+07,-64.3878
1.232000000e+07,-67.7872
1.269333333e+07,-69.4799
1.306666667e+07,-68.8882
1.344000000e+07,-67.2659
1.381333333e+07,-61.6945
1.418666667e+07,-69.3119
1.456000000e+07,-75.9204
1.493333333e+07,-74.8384
1.530666667e+07,-73.0883
1.568000000e+07,-70.4682
1.605333333e+07,-65.2168
1.642666667e+07,-63.1894
1.680000000e+07,-68.9325
1.717333333e+07,-66.6393
1.754666667e+07,-66.2035
1.792000000e+07,-68.6122
1.829333333e+07,-67.7324
1.866666667e+07,-67.4181
1.904000000e+07,-64.343
1.941333333e+07,-67.5034
1.978666667e+07,-66.3257
2.016000000e+07,-65.1899
2.053333333e+07,-76.2476
2.090666667e+07,-74.4152
2.128000000e+07,-70.6004
2.165333333e+07,-71.1606
2.202666667e+07,-67.3386
2.240000000e+07,-65.908
2.277333333e+07,-66.4024
2.314666667e+07,-66.136
2.352000000e+07,-65.9766
2.389333333e+07,-70.0886
2.426666667e+07,-64.6102
2.464000000e+07,-59.5865
2.501333333e+07,-53.6089
2.538666667e+07,-59.0594
2.576000000e+07,-68.5703
2.613333333e+07,-65.8922
2.650666667e+07,-71.7504
2.688000000e+07,-67.7702
2.725333333e+07,-58.6164
2.762666667e+07,-61.8858
2.800000000e+07,-67.9672
2.837333333e+07,-76.6298
2.874666667e+07,-71.5368
2.912000000e+07,-71.452
2.949333333e+07,-74.6552
2.986666667e+07,-58.869
3.024000000e+07,-60.109
3.061333333e+07,-67.4385
3.098666667e+07,-71.8708
3.136000000e+07,-70.9734
3.173333333e+07,-78.3093
3.210666667e+07,-75.2077
3.248000000e+07,-62.1748
3.285333333e+07,-60.5474
3.322666667e+07,-72.3397
3.360000000e+07,-76.5127
3.397333333e+07,-75.1434
3.434666667e+07,-73.6014
3.472000000e+07,-74.2616
3.509333333e+07,-63.4303
3.546666667e+07,-57.9598
3.584000000e+07,-60.7988
3.621333333e+07,-61.3645
3.658666667e+07,-72.0693
3.696000000e+07,-73.5767
3.733333333e+07,-77.0014
3.770666667e+07,-73.0333
3.808000000e+07,-57.6766
3.845333333e+07,-61.674
3.882666667e+07,-73.7655
3.920000000e+07,-72.931
3.957333333e+07,-77.3203
3.994666667e+07,-76.4629
4.032000000e+07,-74.413
4.069333333e+07,-57.5661
4.106666667e+07,-58.6053
4.144000000e+07,-72.8539
4.181333333e+07,-73.4035
4.218666667e+07,-72.3805
4.256000000e+07,-79.2167
4.293333333e+07,-71.0191
4.330666667e+07,-59.7307
4.368000000e+07,-58.5707
4.405333333e+07,-64.2116
4.442666667e+07,-69.4411
4.480000000e+07,-78.0856
4.517333333e+07,-71.5009
4.554666667e+07,-77.3954
4.592000000e+07,-63.0849
4.629333333e+07,-57.9314
4.666666667e+07,-58.7761
4.704000000e+07,-68.0133
4.741333333e+07,-69.0272
4.778666667e+07,-61.4747
4.816000000e+07,-61.9819
4.853333333e+07,-74.0699
4.890666667e+07,-60.2307
4.928000000e+07,-59.2235
4.965333333e+07,-73.7523
5.002666667e+07,-75.1316
5.040000000e+07,-75.3752
5.077333333e+07,-73.804
5.114666667e+07,-71.8381
5.152000000e+07,-58.8666
5.189333333e+07,-54.623
5.226666667e+07,-66.2559
5.264000000e+07,-72.8859
5.301333333e+07,-71.4323
5.338666667e+07,-81.4138
5.376000000e+07,-71.8608
5.413333333e+07,-64.174
5.450666667e+07,-56.8018
5.488000000e+07,-60.1123
5.525333333e+07,-72.2864
5.562666667e+07,-73.0715
5.600000000e+07,-69.5495
5.637333333e+07,-75.2477
5.674666667e+07,-73.4372
5.712000000e+07,-53.6498
5.749333333e+07,-53.8158
5.786666667e+07,-72.8846
5.824000000e+07,-74.6285
5.861333333e+07,-74.449
5.898666667e+07,-72.0181
5.936000000e+07,-74.2248
5.973333333e+07,-36.1406
6.010666667e+07,-33.8578
6.048000000e+07,-52.5293
6.085333333e+07,-73.5213
6.122666667e+07,-72.9022
6.160000000e+07,-75.7582
6.197333333e+07,-74.0626
6.234666667e+07,-61.656
6.272000000e+07,-53.579
6.309333333e+07,-60.8548
6.346666667e+07,-70.246
6.384000000e+07,-73.4547
6.421333333e+07,-72.0144
6.458666667e+07,-73.6533
6.496000000e+07,-72.1895
6.533333333e+07,-55.5078
6.570666667e+07,-59.5085
6.608000000e+07,-68.4839
6.645333333e+07,-69.7206
6.682666667e+07,-68.8151
6.720000000e+07,-81.8446
6.757333333e+07,-69.2244
6.794666667e+07,-55.6768
6.832000000e+07,-55.795
6.869333333e+07,-68.0584
6.906666667e+07,-68.0203
6.944000000e+07,-73.4722
6.981333333e+07,-69.5206
7.018666667e+07,-63.4817
7.056000000e+07,-57.7526
7.093333333e+07,-55.466
7.130666667e+07,-60.4948
7.168000000e+07,-67.6831
7.205333333e+07,-67.7955
7.242666667e+07,-77.201
7.280000000e+07,-72.3267
7.317333333e+07,-67.4644
7.354666667e+07,-58.7094
7.392000000e+07,-59.4828
7.429333333e+07,-66.5212
7.466666667e+07,-72.5089
7.504000000e+07,-68.5816
7.541333333e+07,-70.1241
7.578666667e+07,-72.7818
7.616000000e+07,-55.2685
7.653333333e+07,-55.6227
7.690666667e+07,-70.2052
7.728000000e+07,-71.5097
7.765333333e+07,-69.7492
7.802666667e+07,-70.1881
7.840000000e+07,-71.0304
7.877333333e+07,-58.0314
7.914666667e+07,-54.8427
7.952000000e+07,-63.7283
7.989333333e+07,-72.3292
8.026666667e+07,-70.9854
8.064000000e+07,-67.0844
8.101333333e+07,-66.4846
8.138666667e+07,-63.5031
8.176000000e+07,-54.8431
8.213333333e+07,-55.9285
8.250666667e+07,-65.6991
8.288000000e+07,-65.1945
8.325333333e+07,-75.6354
8.362666667e+07,-61.579
8.400000000e+07,-52.7702
8.437333333e+07,-53.6316
8.474666667e+07,-52.798
8.512000000e+07,-70.4919
8.549333333e+07,-69.9352
8.586666667e+07,-71.3549
8.624000000e+07,-69.1898
8.661333333e+07,-72.3762
8.698666667e+07,-56.2861
8.736000000e+07,-52.9574
8.773333333e+07,-66.5604
8.810666667e+07,-73.3215
8.848000000e+07,-69.8746
8.885333333e+07,-69.6344
8.922666667e+07,-66.7826
8.960000000e+07,-57.9033
8.997333333e+07,-49.1633
9.034666667e+07,-55.2404
9.072000000e+07,-75.677
9.109333333e+07,-72.9536
9.146666667e+07,-73.5488
9.184000000e+07,-71.6235
9.221333333e+07,-82.4965
9.258666667e+07,-53.4924
9.296000000e+07,-55.2238
9.333333333e+07,-69.9944
9.370666667e+07,-70.5426
9.408000000e+07,-73.6093
9.445333333e+07,-72.1188
9.482666667e+07,-68.7933
9.520000000e+07,-53.1114
9.557333333e+07,-51.883
9.594666667e+07,-50.9887
9.632000000e+07,-64.2272
9.669333333e+07,-73.4235
9.706666667e+07,-71.9213
9.744000000e+07,-65.5756
9.781333333e+07,-59.8651
9.818666667e+07,-54.6379
9.856000000e+07,-61.6925
9.893333333e+07,-71.9327
9.930666667e+07,-75.4713
9.968000000e+07,-73.8494
1.000533333e+08,-66.9371
1.004266667e+08,-65.7445
1.008000000e+08,-52.9299
1.011733333e+08,-55.1664
1.015466667e+08,-71.0921
1.019200000e+08,-67.6345
1.022933333e+08,-66.3726
1.026666667e+08,-68.1304
1.030400000e+08,-66.5396
1.034133333e+08,-54.0569
1.037866667e+08,-54.5636
1.041600000e+08,-63.9484
1.045333333e+08,-70.3228
1.049066667e+08,-66.6743
1.052800000e+08,-67.073
1.056533333e+08,-66.6672
1.060266667e+08,-55.2154
1.064000000e+08,-53.3908
1.067733333e+08,-58.3652
1.071466667e+08,-64.788
1.075200000e+08,-68.8944
1.078933333e+08,-53.3086
1.082666667e+08,-54.3557
1.086400000e+08,-60.6202
1.090133333e+08,-54.0426
1.093866667e+08,-54.7788
1.097600000e+08,-69.5907
1.101333333e+08,-69.1958
1.105066667e+08,-66.2212
1.108800000e+08,-73.107
1.112533333e+08,-67.7095
1.116266667e+08,-53.4925
1.120000000e+08,-51.718
1.123733333e+08,-64.8694
1.127466667e+08,-65.6494
1.131200000e+08,-68.6868
1.134933333e+08,-65.2141
1.138666667e+08,-66.3516
1.142400000e+08,-57.0321
1.146133333e+08,-52.2897
1.149866667e+08,-63.2215
1.153600000e+08,-74.4242
1.157333333e+08,-76.7238
1.161066667e+08,-76.6737
1.164800000e+08,-76.1467
1.168533333e+08,-59.9669
1.172266667e+08,-49.6932
1.176000000e+08,-54.4323
1.179733333e+08,-71.6542
1.183466667e+08,-74.4575
1.187200000e+08,-74.5025
1.190933333e+08,-73.6879
1.194666667e+08,-60.174
1.198400000e+08,-35.8234
1.202133333e+08,-36.6606
1.205866667e+08,-65.3864
1.209600000e+08,-73.0525
1.213333333e+08,-73.4646
1.217066667e+08,-77.177
1.220800000e+08,-67.383
1.224533333e+08,-50.7832
1.228266667e+08,-49.0242
1.232000000e+08,-64.4059
1.235733333e+08,-68.9385
1.239466667e+08,-72.1275
1.243200000e+08,-71.6878
1.246933333e+08,-70.7075
1.250666667e+08,-58.5344
1.254400000e+08,-51.1375
1.258133333e+08,-58.9496
1.261866667e+08,-68.426
1.265600000e+08,-67.7556
1.269333333e+08,-68.2984
1.273066667e+08,-69.9231
1.276800000e+08,-67.7715
1.280533333e+08,-49.2706
1.284266667e+08,-51.2084
1.288000000e+08,-66.3843
1.291733333e+08,-65.3186
1.295466667e+08,-63.8667
1.299200000e+08,-64.0014
1.302933333e+08,-65.2083
1.306666667e+08,-52.5353
1.310400000e+08,-53.4965
1.314133333e+08,-66.296
1.317866667e+08,-51.825
1.321600000e+08,-51.4039
1.325333333e+08,-71.3104
1.329066667e+08,-69.9899
1.332800000e+08,-52.442
1.336533333e+08,-50.9645
1.340266667e+08,-53.3666
1.344000000e+08,-65.4853
1.347733333e+08,-65.1845
1.351466667e+08,-66.9175
1.355200000e+08,-67.5758
1.358933333e+08,-58.4659
1.362666667e+08,-52.1599
1.366400000e+08,-53.2302
1.370133333e+08,-69.0639
1.373866667e+08,-73.1887
1.377600000e+08,-76.6335
1.381333333e+08,-63.4677
1.385066667e+08,-66.1011
1.388800000e+08,-50.3573
1.392533333e+08,-49.155
1.396266667e+08,-67.9105
1.400000000e+08,-69.0538
1.403733333e+08,-65.8161
1.407466667e+08,-67.2467
1.411200000e+08,-67.68
1.414933333e+08,-55.2111
1.418666667e+08,-50.9159
1.422400000e+08,-57.4822
1.426133333e+08,-69.0957
1.429866667e+08,-78.8518
1.433600000e+08,-69.4192
1.437333333e+08,-56.5176
1.441066667e+08,-59.2797
1.444800000e+08,-48.5792
1.448533333e+08,-50.5638
1.452266667e+08,-63.8585
1.456000000e+08,-66.4282
1.459733333e+08,-66.7589
1.463466667e+08,-64.4336
1.467200000e+08,-65.6963
1.470933333e+08,-51.2863
1.474666667e+08,-50.9143
1.478400000e+08,-69.4963
1.482133333e+08,-70.9284
1.485866667e+08,-71.7564
1.489600000e+08,-74.9657
1.493333333e+08,-72.8489
1.497066667e+08,-51.5066
1.500800000e+08,-47.9268
1.504533333e+08,-62.1275
1.508266667e+08,-67.7427
1.512000000e+08,-75.6257
1.515733333e+08,-69.037
1.519466667e+08,-66.1458
1.523200000e+08,-64.3692
1.526933333e+08,-51.3003
1.530666667e+08,-56.4764
1.534400000e+08,-67.1785
1.538133333e+08,-70.2591
1.541866667e+08,-72.5269
1.545600000e+08,-66.4182
1.549333333e+08,-67.2272
1.553066667e+08,-47.9424
1.556800000e+08,-49.9154
1.560533333e+08,-50.0281
1.564266667e+08,-67.5275
1.568000000e+08,-74.0148
1.571733333e+08,-69.738
1.575466667e+08,-65.0835
1.579200000e+08,-51.8692
1.582933333e+08,-51.5353
1.586666667e+08,-64.9346
1.590400000e+08,-63.772
1.594133333e+08,-66.4086
1.597866667e+08,-65.1304
1.601600000e+08,-64.0281
1.605333333e+08,-52.4203
1.609066667e+08,-48.5679
1.612800000e+08,-53.2797
1.616533333e+08,-62.7866
1.620266667e+08,-63.5713
1.624000000e+08,-68.554
1.627733333e+08,-62.9915
1.631466667e+08,-65.3165
1.635200000e+08,-54.6889
1.638933333e+08,-55.437
1.642666667e+08,-66.5678
1.646400000e+08,-67.2292
1.650133333e+08,-65.6026
1.653866667e+08,-66.0727
1.657600000e+08,-61.5758
1.661333333e+08,-50.1549
1.665066667e+08,-49.3398
1.668800000e+08,-64.5631
1.672533333e+08,-65.1682
1.676266667e+08,-62.6757
1.680000000e+08,-60.8618
1.683733333e+08,-62.6146
1.687466667e+08,-56.4864
1.691200000e+08,-53.7212
1.694933333e+08,-61.2971
1.698666667e+08,-64.6098
1.702400000e+08,-68.4382
1.706133333e+08,-65.7508
1.709866667e+08,-64.3252
1.713600000e+08,-57.2935
1.717333333e+08,-47.1582
1.721066667e+08,-48.401
1.724800000e+08,-68.0463
1.728533333e+08,-67.7965
1.732266667e+08,-73.8437
1.736000000e+08,-65.4791
1.739733333e+08,-64.6669
1.743466667e+08,-54.0089
1.747200000e+08,-53.0914
1.750933333e+08,-69.6083
1.754666667e+08,-65.7855
1.758400000e+08,-68.1264
1.762133333e+08,-70.6159
1.765866667e+08,-70.9132
1.769600000e+08,-52.9957
1.773333333e+08,-47.9193
1.777066667e+08,-62.3906
1.780800000e+08,-71.7565
1.784533333e+08,-70.4689
1.788266667e+08,-72.4095
1.792000000e+08,-71.737
1.795733333e+08,-52.5839
1.799466667e+08,-40.9185
1.803200000e+08,-45.8187
1.806933333e+08,-70.5655
1.810666667e+08,-74.2334
1.814400000e+08,-78.3535
1.818133333e+08,-67.0566
1.821866667e+08,-67.5388
1.825600000e+08,-46.5165
1.829333333e+08,-47.4466
1.833066667e+08,-65.9256
1.836800000e+08,-67.7776
1.840533333e+08,-77.8808
1.844266667e+08,-70.1841
1.848000000e+08,-76.0035
1.851733333e+08,-53.153
1.855466667e+08,-51.7554
1.859200000e+08,-62.5336
1.862933333e+08,-62.9751
1.866666667e+08,-64.1466
1.870400000e+08,-65.6798
1.874133333e+08,-70.3074
1.877866667e+08,-53.0353
1.881600000e+08,-47.144
1.885333333e+08,-52.7514
1.889066667e+08,-64.7257
1.892800000e+08,-68.4491
1.896533333e+08,-70.4141
1.900266667e+08,-69.4194
1.904000000e+08,-69.572
1.907733333e+08,-52.7888
1.911466667e+08,-54.5335
1.915200000e+08,-53.8678
1.918933333e+08,-54.657
1.922666667e+08,-64.5811
1.926400000e+08,-63.7681
1.930133333e+08,-66.6299
1.933866667e+08,-48.9358
1.937600000e+08,-48.7267
1.941333333e+08,-55.8729
1.945066667e+08,-68.8294
1.948800000e+08,-67.65
1.952533333e+08,-63.1346
1.956266667e+08,-65.6978
1.960000000e+08,-58.2766
1.963733333e+08,-52.9917
1.967466667e+08,-55.9207
1.971200000e+08,-65.8337
1.974933333e+08,-70.7518
1.978666667e+08,-64.7891
1.982400000e+08,-70.118
1.986133333e+08,-56.062
1.989866667e+08,-46.8946
1.993600000e+08,-47.1902
1.997333333e+08,-62.0531
2.001066667e+08,-63.4659
2.004800000e+08,-64.4942
2.008533333e+08,-74.0371
2.012266667e+08,-71.971
2.016000000e+08,-56.2117
2.019733333e+08,-53.8693
2.023466667e+08,-68.4568
2.027200000e+08,-62.5635
2.030933333e+08,-63.0297
2.034666667e+08,-71.0964
2.038400000e+08,-49.0214
2.042133333e+08,-49.0038
2.045866667e+08,-47.3779
2.049600000e+08,-56.9567
2.053333333e+08,-71.2908
2.057066667e+08,-68.4425
2.060800000e+08,-62.302
2.064533333e+08,-70.8276
2.068266667e+08,-63.0011
2.072000000e+08,-52.7858
2.075733333e+08,-56.0634
2.079466667e+08,-62.6061
2.083200000e+08,-67.2579
2.086933333e+08,-66.683
2.090666667e+08,-66.0573
2.094400000e+08,-66.0908
2.098133333e+08,-46.697
2.101866667e+08,-46.6544
2.105600000e+08,-63.0868
2.109333333e+08,-67.5126
2.113066667e+08,-69.0949
2.116800000e+08,-67.9127
2.120533333e+08,-64.4781
2.124266667e+08,-56.8591
2.128000000e+08,-53.0685
2.131733333e+08,-66.1075
2.135466667e+08,-65.2345
2.139200000e+08,-64.1959
2.142933333e+08,-68.9905
2.146666667e+08,-66.614
2.150400000e+08,-56.1369
2.154133333e+08,-46.7696
2.157866667e+08,-51.7896
2.161600000e+08,-59.8512
2.165333333e+08,-63.7829
2.169066667e+08,-64.7593
2.172800000e+08,-68.3103
2.176533333e+08,-63.1972
2.180266667e+08,-51.8957
2.184000000e+08,-54.6953
2.187733333e+08,-66.4108
2.191466667e+08,-68.7352
2.195200000e+08,-65.0123
2.198933333e+08,-63.1563
2.202666667e+08,-63.7784
2.206400000e+08,-47.9956
2.210133333e+08,-47.822
2.213866667e+08,-57.8244
2.217600000e+08,-66.8385
2.221333333e+08,-65.0722
2.225066667e+08,-65.3713
2.228800000e+08,-64.9368
2.232533333e+08,-59.0734
2.236266667e+08,-55.5389
2.240000000e+08,-56.1215
2.243733333e+08,-65.3098
2.247466667e+08,-63.888
2.251200000e+08,-68.7839
2.254933333e+08,-68.6608
2.258666667e+08,-58.4738
2.262400000e+08,-48.0475
2.266133333e+08,-47.9099
2.269866667e+08,-59.4419
2.273600000e+08,-62.0258
2.277333333e+08,-51.5583
2.281066667e+08,-48.797
2.284800000e+08,-63.6816
2.288533333e+08,-55.0618
2.292266667e+08,-53.0453
2.296000000e+08,-65.8859
2.299733333e+08,-69.7824
2.303466667e+08,-66.8797
2.307200000e+08,-70.9037
2.310933333e+08,-68.0034
2.314666667e+08,-52.7661
2.318400000e+08,-46.8938
2.322133333e+08,-53.3509
2.325866667e+08,-64.4338
2.329600000e+08,-65.2029
2.333333333e+08,-66.657
2.337066667e+08,-64.0916
2.340800000e+08,-60.3452
2.344533333e+08,-52.7817
2.348266667e+08,-54.7927
2.352000000e+08,-72.3162
2.355733333e+08,-70.2673
2.359466667e+08,-73.2803
2.363200000e+08,-70.4246
2.366933333e+08,-63.8771
2.370666667e+08,-47.0401
2.374400000e+08,-46.0816
2.378133333e+08,-70.9264
2.381866667e+08,-70.1576
2.385600000e+08,-69.9889
2.389333333e+08,-68.9125
2.393066667e+08,-55.1571
2.396800000e+08,-49.21
2.400533333e+08,-48.4145
2.404266667e+08,-60.7123
2.408000000e+08,-68.1962
2.411733333e+08,-68.6363
2.415466667e+08,-73.9822
2.419200000e+08,-74.3836
2.422933333e+08,-60.0369
2.426666667e+08,-46.2097
2.430400000e+08,-51.4848
2.434133333e+08,-69.9723
2.437866667e+08,-67.1393
2.441600000e+08,-73.4761
2.445333333e+08,-76.232
2.449066667e+08,-75.7337
2.452800000e+08,-52.8127
2.456533333e+08,-54.7872
2.460266667e+08,-72.8928
2.464000000e+08,-80.6346
2.467733333e+08,-72.2878
2.471466667e+08,-69.9076
2.475200000e+08,-64.9445
2.478933333e+08,-48.174
2.482666667e+08,-47.064
2.486400000e+08,-56.381
2.490133333e+08,-67.5124
2.493866667e+08,-73.9822
2.497600000e+08,-67.0885
2.501333333e+08,-64.4296
2.505066667e+08,-60.8112
2.508800000e+08,-54.3677
2.512533333e+08,-58.2404
2.516266667e+08,-54.1137
2.520000000e+08,-47.856
2.523733333e+08,-57.3548
2.527466667e+08,-66.8118
2.531200000e+08,-62.4127
2.534933333e+08,-48.5177
2.538666667e+08,-49.0886
2.542400000e+08,-60.8019
2.546133333e+08,-65.1838
2.549866667e+08,-69.1545
2.553600000e+08,-64.8001
2.557333333e+08,-65.4226
2.561066667e+08,-55.3645
2.564800000e+08,-54.5567
2.568533333e+08,-65.4278
2.572266667e+08,-75.4684
2.576000000e+08,-71.1492
2.579733333e+08,-66.5113
2.583466667e+08,-63.5414
2.587200000e+08,-52.2198
2.590933333e+08,-48.035
2.594666667e+08,-51.5705
2.598400000e+08,-67.6449
2.602133333e+08,-66.0306
2.605866667e+08,-66.736
2.609600000e+08,-70.9713
2.613333333e+08,-60.946
2.617066667e+08,-54.5909
2.620800000e+08,-54.6737
2.624533333e+08,-67.6036
2.628266667e+08,-73.724
2.632000000e+08,-69.4297
2.635733333e+08,-55.412
2.639466667e+08,-58.7818
2.643200000e+08,-50.1204
2.646933333e+08,-48.0331
2.650666667e+08,-65.8865
2.654400000e+08,-73.7379
2.658133333e+08,-71.435
2.661866667e+08,-69.6008
2.665600000e+08,-70.4579
2.669333333e+08,-58.6469
2.673066667e+08,-52.8298
2.676800000e+08,-63.7166
2.680533333e+08,-74.5475
2.684266667e+08,-68.8916
2.688000000e+08,-69.4935
2.691733333e+08,-66.6845
2.695466667e+08,-63.6136
2.699200000e+08,-48.8766
2.702933333e+08,-52.6978
2.706666667e+08,-75.1501
2.710400000e+08,-74.6856
2.714133333e+08,-68.0695
2.717866667e+08,-69.2025
2.721600000e+08,-71.2437
2.725333333e+08,-53.3902
2.729066667e+08,-53.7338
2.732800000e+08,-70.783
2.736533333e+08,-71.5837
2.740266667e+08,-77.9471
2.744000000e+08,-70.8322
2.747733333e+08,-70.1518
2.751466667e+08,-51.0014
2.755200000e+08,-48.7222
2.758933333e+08,-46.0992
2.762666667e+08,-48.4238
2.766400000e+08,-68.7823
2.770133333e+08,-71.1469
2.773866667e+08,-78.9133
2.777600000e+08,-64.1274
2.781333333e+08,-54.3073
2.785066667e+08,-59.6879
2.788800000e+08,-65.5796
2.792533333e+08,-67.8621
2.796266667e+08,-74.8597
2.800000000e+08,-66.3726

