4/tek0077NRM.csv

Model,MDO3104
Firmware Version,1.30

Waveform Type,RF_FD
Point Format,Y
Horizontal Units,Hz
Horizontal Scale,2.8e+07
,
Sample Interval,373333
Record Length,751
Gating,0.133155792277% to 100.0%
Probe Attenuation,1
Vertical Units,dBm
Vertical Offset,0
Vertical Scale,10
Vertical Position,0
Center Frequency,1.4e+08
Span,2.8e+08
Reference Level,-15
Label,
FREQUENCY,FD NORM
0.000000000e+00,-75.9077
3.733333333e+05,-78.2515
7.466666667e+05,-81.531
1.120000000e+06,-77.6906
1.493333333e+06,-71.4651
1.866666667e+06,-69.5831
2.240000000e+06,-70.234
2.613333333e+06,-66.5208
2.986666667e+06,-62.9771
3.360000000e+06,-60.9486
3.733333333e+06,-63.1634
4.106666667e+06,-63.1012
4.480000000e+06,-62.4988
4.853333333e+06,-68.415
5.226666667e+06,-66.9693
5.600000000e+06,-63.7893
5.973333333e+06,-59.1428
6.346666667e+06,-66.4559
6.720000000e+06,-67.2571
7.093333333e+06,-69.1437
7.466666667e+06,-69.5984
7.840000000e+06,-69.8973
8.213333333e+06,-67.9129
8.586666667e+06,-73.8276
8.960000000e+06,-76.3392
9.333333333e+06,-72.025
9.706666667e+06,-70.0093
1.008000000e+07,-69.8027
1.045333333e+07,-73.5204
1.082666667e+07,-71.9442
1.120000000e+07,-68.9007
1.157333333e+07,-68.6884
1.194666667e+07,-57.691
1.232000000e+07,-59.7186
1.269333333e+07,-67.8484
1.306666667e+07,-64.3444
1.344000000e+07,-67.1275
1.381333333e+07,-66.7783
1.418666667e+07,-73.8189
1.456000000e+07,-73.4374
1.493333333e+07,-71.0034
1.530666667e+07,-66.088
1.568000000e+07,-69.1365
1.605333333e+07,-65.2995
1.642666667e+07,-62.2392
1.680000000e+07,-64.7436
1.717333333e+07,-75.8532
1.754666667e+07,-69.6992
1.792000000e+07,-54.5442
1.829333333e+07,-58.7625
1.866666667e+07,-68.6203
1.904000000e+07,-63.446
1.941333333e+07,-66.5707
1.978666667e+07,-66.1069
2.016000000e+07,-66.5541
2.053333333e+07,-69.6397
2.090666667e+07,-69.9444
2.128000000e+07,-72.2979
2.165333333e+07,-69.0087
2.202666667e+07,-67.2992
2.240000000e+07,-66.1054
2.277333333e+07,-64.2642
2.314666667e+07,-65.9888
2.352000000e+07,-67.3733
2.389333333e+07,-77.3862
2.426666667e+07,-62.3922
2.464000000e+07,-60.4314
2.501333333e+07,-55.9151
2.538666667e+07,-63.6933
2.576000000e+07,-67.2244
2.613333333e+07,-65.6934
2.650666667e+07,-68.5818
2.688000000e+07,-69.3871
2.725333333e+07,-62.05
2.762666667e+07,-63.9159
2.800000000e+07,-70.3691
2.837333333e+07,-73.9762
2.874666667e+07,-74.2892
2.912000000e+07,-73.5134
2.949333333e+07,-72.8019
2.986666667e+07,-49.5409
3.024000000e+07,-51.1101
3.061333333e+07,-73.0213
3.098666667e+07,-73.9325
3.136000000e+07,-66.7182
3.173333333e+07,-68.9316
3.210666667e+07,-78.7965
3.248000000e+07,-60.6407
3.285333333e+07,-59.8026
3.322666667e+07,-78.7482
3.360000000e+07,-72.7353
3.397333333e+07,-73.2059
3.434666667e+07,-80.2075
3.472000000e+07,-74.0509
3.509333333e+07,-64.3786
3.546666667e+07,-59.9639
3.584000000e+07,-49.5868
3.621333333e+07,-50.4375
3.658666667e+07,-70.4295
3.696000000e+07,-69.7558
3.733333333e+07,-81.5458
3.770666667e+07,-67.1935
3.808000000e+07,-59.1473
3.845333333e+07,-65.598
3.882666667e+07,-72.9517
3.920000000e+07,-69.4165
3.957333333e+07,-69.5058
3.994666667e+07,-74.0063
4.032000000e+07,-71.6501
4.069333333e+07,-58.6054
4.106666667e+07,-59.9254
4.144000000e+07,-67.4422
4.181333333e+07,-54.1906
4.218666667e+07,-54.7917
4.256000000e+07,-72.6298
4.293333333e+07,-71.0654
4.330666667e+07,-58.8045
4.368000000e+07,-58.9202
4.405333333e+07,-62.4322
4.442666667e+07,-67.4393
4.480000000e+07,-70.9005
4.517333333e+07,-74.9524
4.554666667e+07,-69.8387
4.592000000e+07,-61.7203
4.629333333e+07,-58.9599
4.666666667e+07,-58.7309
4.704000000e+07,-66.6789
4.741333333e+07,-74.6551
4.778666667e+07,-37.9501
4.816000000e+07,-37.1774
4.853333333e+07,-62.7599
4.890666667e+07,-62.241
4.928000000e+07,-58.5204
4.965333333e+07,-69.1983
5.002666667e+07,-74.0505
5.040000000e+07,-69.2145
5.077333333e+07,-68.4256
5.114666667e+07,-69.8946
5.152000000e+07,-60.8645
5.189333333e+07,-54.5638
5.226666667e+07,-62.0798
5.264000000e+07,-74.3602
5.301333333e+07,-71.9896
5.338666667e+07,-70.2376
5.376000000e+07,-50.5673
5.413333333e+07,-49.1597
5.450666667e+07,-56.0173
5.488000000e+07,-59.516
5.525333333e+07,-71.5606
5.562666667e+07,-74.9751
5.600000000e+07,-76.7954
5.637333333e+07,-72.2642
5.674666667e+07,-72.6705
5.712000000e+07,-53.0269
5.749333333e+07,-53.1886
5.786666667e+07,-78.0087
5.824000000e+07,-72.2702
5.861333333e+07,-73.6305
5.898666667e+07,-73.9161
5.936000000e+07,-75.7428
5.973333333e+07,-35.2124
6.010666667e+07,-32.9502
6.048000000e+07,-52.2608
6.085333333e+07,-72.084
6.122666667e+07,-72.8646
6.160000000e+07,-78.9562
6.197333333e+07,-72.4201
6.234666667e+07,-58.3256
6.272000000e+07,-52.7326
6.309333333e+07,-62.4746
6.346666667e+07,-76.5248
6.384000000e+07,-70.585
6.421333333e+07,-73.8633
6.458666667e+07,-69.6838
6.496000000e+07,-64.4501
6.533333333e+07,-53.4328
6.570666667e+07,-49.7119
6.608000000e+07,-45.9535
6.645333333e+07,-58.4964
6.682666667e+07,-71.9086
6.720000000e+07,-73.5232
6.757333333e+07,-65.5442
6.794666667e+07,-55.7618
6.832000000e+07,-56.9613
6.869333333e+07,-67.5445
6.906666667e+07,-68.5963
6.944000000e+07,-71.8792
6.981333333e+07,-65.5807
7.018666667e+07,-66.1188
7.056000000e+07,-56.2816
7.093333333e+07,-55.2086
7.130666667e+07,-62.9266
7.168000000e+07,-46.1948
7.205333333e+07,-41.9766
7.242666667e+07,-56.4952
7.280000000e+07,-68.3008
7.317333333e+07,-61.2641
7.354666667e+07,-56.46
7.392000000e+07,-57.2765
7.429333333e+07,-64.3998
7.466666667e+07,-65.9158
7.504000000e+07,-68.3396
7.541333333e+07,-70.0982
7.578666667e+07,-64.0037
7.616000000e+07,-57.6169
7.653333333e+07,-55.4307
7.690666667e+07,-61.9148
7.728000000e+07,-67.9345
7.765333333e+07,-56.6316
7.802666667e+07,-49.185
7.840000000e+07,-59.7728
7.877333333e+07,-61.3261
7.914666667e+07,-55.0057
7.952000000e+07,-59.1767
7.989333333e+07,-70.4619
8.026666667e+07,-68.3034
8.064000000e+07,-67.1339
8.101333333e+07,-67.146
8.138666667e+07,-61.3656
8.176000000e+07,-55.0683
8.213333333e+07,-56.5012
8.250666667e+07,-69.7482
8.288000000e+07,-73.5544
8.325333333e+07,-73.8703
8.362666667e+07,-49.5062
8.400000000e+07,-41.6062
8.437333333e+07,-50.0736
8.474666667e+07,-53.9034
8.512000000e+07,-67.0358
8.549333333e+07,-74.0855
8.586666667e+07,-74.7999
8.624000000e+07,-72.3026
8.661333333e+07,-69.9709
8.698666667e+07,-59.0071
8.736000000e+07,-53.46
8.773333333e+07,-69.8186
8.810666667e+07,-70.0966
8.848000000e+07,-74.9985
8.885333333e+07,-71.0751
8.922666667e+07,-73.2874
8.960000000e+07,-62.3304
8.997333333e+07,-49.73
9.034666667e+07,-55.9815
9.072000000e+07,-70.6604
9.109333333e+07,-75.272
9.146666667e+07,-80.9688
9.184000000e+07,-69.6298
9.221333333e+07,-69.3757
9.258666667e+07,-52.4038
9.296000000e+07,-54.4746
9.333333333e+07,-72.4444
9.370666667e+07,-72.6435
9.408000000e+07,-71.7041
9.445333333e+07,-70.0041
9.482666667e+07,-68.6167
9.520000000e+07,-53.4597
9.557333333e+07,-53.1423
9.594666667e+07,-44.4379
9.632000000e+07,-48.7606
9.669333333e+07,-66.427
9.706666667e+07,-66.9862
9.744000000e+07,-72.9545
9.781333333e+07,-58.0061
9.818666667e+07,-54.6118
9.856000000e+07,-61.6223
9.893333333e+07,-68.0569
9.930666667e+07,-68.4881
9.968000000e+07,-71.186
1.000533333e+08,-69.2617
1.004266667e+08,-60.6664
1.008000000e+08,-52.8953
1.011733333e+08,-57.7791
1.015466667e+08,-65.9116
1.019200000e+08,-55.0843
1.022933333e+08,-57.7802
1.026666667e+08,-64.9932
1.030400000e+08,-65.3803
1.034133333e+08,-55.1953
1.037866667e+08,-56.606
1.041600000e+08,-63.9093
1.045333333e+08,-65.0132
1.049066667e+08,-68.8382
1.052800000e+08,-68.4742
1.056533333e+08,-63.4958
1.060266667e+08,-55.7382
1.064000000e+08,-53.2666
1.067733333e+08,-55.4459
1.071466667e+08,-62.0228
1.075200000e+08,-64.9569
1.078933333e+08,-49.6727
1.082666667e+08,-51.7979
1.086400000e+08,-58.713
1.090133333e+08,-54.5275
1.093866667e+08,-54.5207
1.097600000e+08,-65.388
1.101333333e+08,-65.6434
1.105066667e+08,-67.453
1.108800000e+08,-74.9066
1.112533333e+08,-67.5984
1.116266667e+08,-53.784
1.120000000e+08,-51.1669
1.123733333e+08,-61.8583
1.127466667e+08,-66.6491
1.131200000e+08,-67.9117
1.134933333e+08,-70.1134
1.138666667e+08,-59.1051
1.142400000e+08,-58.887
1.146133333e+08,-52.5652
1.149866667e+08,-60.792
1.153600000e+08,-68.4505
1.157333333e+08,-71.5785
1.161066667e+08,-71.0271
1.164800000e+08,-70.3169
1.168533333e+08,-60.4455
1.172266667e+08,-49.5269
1.176000000e+08,-52.9901
1.179733333e+08,-74.1055
1.183466667e+08,-66.8079
1.187200000e+08,-66.8505
1.190933333e+08,-69.6122
1.194666667e+08,-57.5656
1.198400000e+08,-33.9948
1.202133333e+08,-34.8454
1.205866667e+08,-75.5649
1.209600000e+08,-74.3536
1.213333333e+08,-68.2161
1.217066667e+08,-68.5052
1.220800000e+08,-72.1638
1.224533333e+08,-50.6217
1.228266667e+08,-49.023
1.232000000e+08,-63.9305
1.235733333e+08,-70.571
1.239466667e+08,-71.7444
1.243200000e+08,-70.7616
1.246933333e+08,-66.2027
1.250666667e+08,-56.3203
1.254400000e+08,-50.9004
1.258133333e+08,-55.1777
1.261866667e+08,-55.627
1.265600000e+08,-67.4094
1.269333333e+08,-67.3026
1.273066667e+08,-68.9932
1.276800000e+08,-61.2735
1.280533333e+08,-50.2109
1.284266667e+08,-54.1555
1.288000000e+08,-61.8731
1.291733333e+08,-66.0527
1.295466667e+08,-64.737
1.299200000e+08,-61.9787
1.302933333e+08,-62.0726
1.306666667e+08,-51.401
1.310400000e+08,-53.1515
1.314133333e+08,-60.3614
1.317866667e+08,-54.7514
1.321600000e+08,-53.3524
1.325333333e+08,-65.502
1.329066667e+08,-64.43
1.332800000e+08,-53.5014
1.336533333e+08,-52.8744
1.340266667e+08,-55.0559
1.344000000e+08,-64.53
1.347733333e+08,-66.362
1.351466667e+08,-63.2081
1.355200000e+08,-63.7977
1.358933333e+08,-57.4919
1.362666667e+08,-54.6343
1.366400000e+08,-55.0004
1.370133333e+08,-63.9495
1.373866667e+08,-65.3182
1.377600000e+08,-63.1967
1.381333333e+08,-63.111
1.385066667e+08,-59.0394
1.388800000e+08,-52.6851
1.392533333e+08,-49.8654
1.396266667e+08,-61.5772
1.400000000e+08,-62.5713
1.403733333e+08,-63.6714
1.407466667e+08,-65.7043
1.411200000e+08,-66.7162
1.414933333e+08,-57.6271
1.418666667e+08,-51.5891
1.422400000e+08,-56.4015
1.426133333e+08,-68.0799
1.429866667e+08,-73.3734
1.433600000e+08,-66.4121
1.437333333e+08,-47.6804
1.441066667e+08,-44.5257
1.444800000e+08,-48.3186
1.448533333e+08,-49.9806
1.452266667e+08,-62.617
1.456000000e+08,-67.4242
1.459733333e+08,-70.4532
1.463466667e+08,-75.4874
1.467200000e+08,-68.8935
1.470933333e+08,-51.7684
1.474666667e+08,-51.0135
1.478400000e+08,-67.0807
1.482133333e+08,-67.7588
1.485866667e+08,-70.1052
1.489600000e+08,-69.6828
1.493333333e+08,-71.139
1.497066667e+08,-49.983
1.500800000e+08,-46.6652
1.504533333e+08,-60.326
1.508266667e+08,-67.6284
1.512000000e+08,-74.4077
1.515733333e+08,-68.6812
1.519466667e+08,-71.068
1.523200000e+08,-61.4839
1.526933333e+08,-51.8595
1.530666667e+08,-59.6296
1.534400000e+08,-68.6791
1.538133333e+08,-67.2872
1.541866667e+08,-69.0298
1.545600000e+08,-72.667
1.549333333e+08,-60.9982
1.553066667e+08,-48.123
1.556800000e+08,-47.1869
1.560533333e+08,-42.3302
1.564266667e+08,-55.1678
1.568000000e+08,-68.806
1.571733333e+08,-67.8172
1.575466667e+08,-68.2378
1.579200000e+08,-50.9599
1.582933333e+08,-51.0887
1.586666667e+08,-63.9887
1.590400000e+08,-64.188
1.594133333e+08,-65.0901
1.597866667e+08,-64.4486
1.601600000e+08,-62.3829
1.605333333e+08,-52.0264
1.609066667e+08,-49.7774
1.612800000e+08,-53.1225
1.616533333e+08,-60.3151
1.620266667e+08,-60.6214
1.624000000e+08,-67.4442
1.627733333e+08,-65.3474
1.631466667e+08,-57.5685
1.635200000e+08,-53.0791
1.638933333e+08,-55.9678
1.642666667e+08,-64.186
1.646400000e+08,-65.6754
1.650133333e+08,-66.5121
1.653866667e+08,-62.7024
1.657600000e+08,-61.3696
1.661333333e+08,-51.4583
1.665066667e+08,-50.3926
1.668800000e+08,-58.4686
1.672533333e+08,-63.5034
1.676266667e+08,-56.9953
1.680000000e+08,-48.9055
1.683733333e+08,-59.6888
1.687466667e+08,-56.8689
1.691200000e+08,-53.3331
1.694933333e+08,-56.1676
1.698666667e+08,-65.1588
1.702400000e+08,-71.5333
1.706133333e+08,-67.0887
1.709866667e+08,-62.1093
1.713600000e+08,-56.8246
1.717333333e+08,-48.5576
1.721066667e+08,-48.9972
1.724800000e+08,-60.4147
1.728533333e+08,-65.5072
1.732266667e+08,-65.5218
1.736000000e+08,-65.7762
1.739733333e+08,-69.2528
1.743466667e+08,-53.7063
1.747200000e+08,-51.9338
1.750933333e+08,-63.9937
1.754666667e+08,-64.8958
1.758400000e+08,-65.5165
1.762133333e+08,-62.6786
1.765866667e+08,-62.0241
1.769600000e+08,-51.7557
1.773333333e+08,-46.6929
1.777066667e+08,-58.3583
1.780800000e+08,-66.0977
1.784533333e+08,-73.041
1.788266667e+08,-66.4022
1.792000000e+08,-71.996
1.795733333e+08,-66.1738
1.799466667e+08,-49.7876
1.803200000e+08,-54.8916
1.806933333e+08,-66.9135
1.810666667e+08,-65.8297
1.814400000e+08,-69.0704
1.818133333e+08,-65.1917
1.821866667e+08,-68.6647
1.825600000e+08,-46.906
1.829333333e+08,-48.3475
1.833066667e+08,-64.6381
1.836800000e+08,-64.5351
1.840533333e+08,-67.5508
1.844266667e+08,-72.097
1.848000000e+08,-66.7956
1.851733333e+08,-52.1851
1.855466667e+08,-51.5852
1.859200000e+08,-61.3876
1.862933333e+08,-68.1711
1.866666667e+08,-68.3034
1.870400000e+08,-65.1733
1.874133333e+08,-62.9331
1.877866667e+08,-52.3926
1.881600000e+08,-47.9764
1.885333333e+08,-53.6196
1.889066667e+08,-60.7351
1.892800000e+08,-61.6691
1.896533333e+08,-70.4425
1.900266667e+08,-75.1343
1.904000000e+08,-59.9528
1.907733333e+08,-53.0286
1.911466667e+08,-58.0738
1.915200000e+08,-65.1941
1.918933333e+08,-46.5537
1.922666667e+08,-47.9722
1.926400000e+08,-63.4373
1.930133333e+08,-61.7025
1.933866667e+08,-49.6779
1.937600000e+08,-50.7667
1.941333333e+08,-55.2463
1.945066667e+08,-63.3206
1.948800000e+08,-64.5581
1.952533333e+08,-64.0778
1.956266667e+08,-63.1929
1.960000000e+08,-53.6886
1.963733333e+08,-52.8507
1.967466667e+08,-54.7051
1.971200000e+08,-66.2974
1.974933333e+08,-65.9128
1.978666667e+08,-65.9045
1.982400000e+08,-63.1076
1.986133333e+08,-57.672
1.989866667e+08,-49.6473
1.993600000e+08,-48.8164
1.997333333e+08,-62.1096
2.001066667e+08,-63.7148
2.004800000e+08,-62.903
2.008533333e+08,-64.2467
2.012266667e+08,-66.5456
2.016000000e+08,-56.1103
2.019733333e+08,-52.5325
2.023466667e+08,-64.3457
2.027200000e+08,-67.0765
2.030933333e+08,-66.8661
2.034666667e+08,-59.6604
2.038400000e+08,-43.5167
2.042133333e+08,-44.9679
2.045866667e+08,-46.8915
2.049600000e+08,-54.1869
2.053333333e+08,-65.5979
2.057066667e+08,-62.4221
2.060800000e+08,-61.6888
2.064533333e+08,-67.144
2.068266667e+08,-60.7877
2.072000000e+08,-52.1615
2.075733333e+08,-54.6527
2.079466667e+08,-65.2037
2.083200000e+08,-67.605
2.086933333e+08,-71.6588
2.090666667e+08,-71.2528
2.094400000e+08,-71.1432
2.098133333e+08,-47.7877
2.101866667e+08,-47.9796
2.105600000e+08,-67.1556
2.109333333e+08,-70.9159
2.113066667e+08,-63.4403
2.116800000e+08,-60.9875
2.120533333e+08,-63.3577
2.124266667e+08,-53.7694
2.128000000e+08,-52.0003
2.131733333e+08,-66.3543
2.135466667e+08,-66.0892
2.139200000e+08,-66.3793
2.142933333e+08,-73.6335
2.146666667e+08,-63.5316
2.150400000e+08,-52.84
2.154133333e+08,-45.7773
2.157866667e+08,-48.7248
2.161600000e+08,-47.1921
2.165333333e+08,-65.209
2.169066667e+08,-63.0716
2.172800000e+08,-65.718
2.176533333e+08,-67.3899
2.180266667e+08,-53.4265
2.184000000e+08,-56.5048
2.187733333e+08,-66.6323
2.191466667e+08,-69.4163
2.195200000e+08,-64.7224
2.198933333e+08,-62.1991
2.202666667e+08,-60.8393
2.206400000e+08,-47.2714
2.210133333e+08,-48.27
2.213866667e+08,-52.8221
2.217600000e+08,-61.7231
2.221333333e+08,-65.8825
2.225066667e+08,-69.193
2.228800000e+08,-69.5467
2.232533333e+08,-56.579
2.236266667e+08,-54.7496
2.240000000e+08,-58.4764
2.243733333e+08,-65.2149
2.247466667e+08,-63.9341
2.251200000e+08,-60.3335
2.254933333e+08,-62.5686
2.258666667e+08,-54.1242
2.262400000e+08,-50.164
2.266133333e+08,-48.9471
2.269866667e+08,-56.3552
2.273600000e+08,-66.5884
2.277333333e+08,-55.397
2.281066667e+08,-54.2226
2.284800000e+08,-62.861
2.288533333e+08,-55.7489
2.292266667e+08,-54.6914
2.296000000e+08,-63.2468
2.299733333e+08,-64.3254
2.303466667e+08,-63.0966
2.307200000e+08,-68.0449
2.310933333e+08,-63.2912
2.314666667e+08,-54.3226
2.318400000e+08,-46.745
2.322133333e+08,-51.1694
2.325866667e+08,-62.645
2.329600000e+08,-69.1196
2.333333333e+08,-65.9122
2.337066667e+08,-68.0347
2.340800000e+08,-63.7878
2.344533333e+08,-53.1175
2.348266667e+08,-53.8829
2.352000000e+08,-70.5769
2.355733333e+08,-72.6406
2.359466667e+08,-80.1215
2.363200000e+08,-75.0697
2.366933333e+08,-62.7359
2.370666667e+08,-47.4041
2.374400000e+08,-46.2159
2.378133333e+08,-63.5901
2.381866667e+08,-67.8573
2.385600000e+08,-67.8749
2.389333333e+08,-75.2135
2.393066667e+08,-72.6277
2.396800000e+08,-51.5596
2.400533333e+08,-43.3976
2.404266667e+08,-49.1074
2.408000000e+08,-73.7823
2.411733333e+08,-76.9585
2.415466667e+08,-71.2414
2.419200000e+08,-75.7198
2.422933333e+08,-56.3194
2.426666667e+08,-46.1838
2.430400000e+08,-52.6239
2.434133333e+08,-75.7267
2.437866667e+08,-73.4938
2.441600000e+08,-74.5583
2.445333333e+08,-70.8764
2.449066667e+08,-67.9543
2.452800000e+08,-52.8995
2.456533333e+08,-54.3868
2.460266667e+08,-63.8365
2.464000000e+08,-66.1065
2.467733333e+08,-71.0147
2.471466667e+08,-68.196
2.475200000e+08,-61.3636
2.478933333e+08,-47.7752
2.482666667e+08,-47.4887
2.486400000e+08,-55.4821
2.490133333e+08,-65.1304
2.493866667e+08,-62.3827
2.497600000e+08,-63.9372
2.501333333e+08,-64.7944
2.505066667e+08,-58.6725
2.508800000e+08,-55.0237
2.512533333e+08,-58.8686
2.516266667e+08,-61.5242
2.520000000e+08,-53.7546
2.523733333e+08,-62.5544
2.527466667e+08,-64.2665
2.531200000e+08,-56.9962
2.534933333e+08,-49.2842
2.538666667e+08,-51.1262
2.542400000e+08,-58.9135
2.546133333e+08,-66.0228
2.549866667e+08,-66.2679
2.553600000e+08,-63.4896
2.557333333e+08,-62.4172
2.561066667e+08,-55.3729
2.564800000e+08,-55.192
2.568533333e+08,-63.6669
2.572266667e+08,-69.5318
2.576000000e+08,-64.0828
2.579733333e+08,-59.4098
2.583466667e+08,-62.033
2.587200000e+08,-52.9321
2.590933333e+08,-49.1071
2.594666667e+08,-51.3579
2.598400000e+08,-62.3035
2.602133333e+08,-65.1536
2.605866667e+08,-70.0909
2.609600000e+08,-66.4155
2.613333333e+08,-62.9647
2.617066667e+08,-54.2109
2.620800000e+08,-54.1247
2.624533333e+08,-63.2713
2.628266667e+08,-70.7078
2.632000000e+08,-74.2937
2.635733333e+08,-59.0525
2.639466667e+08,-47.9968
2.643200000e+08,-49.8662
2.646933333e+08,-47.5611
2.650666667e+08,-61.7238
2.654400000e+08,-72.0175
2.658133333e+08,-65.4916
2.661866667e+08,-67.2623
2.665600000e+08,-70.0454
2.669333333e+08,-62.5855
2.673066667e+08,-52.6796
2.676800000e+08,-60.9053
2.680533333e+08,-81.1137
2.684266667e+08,-73.5846
2.688000000e+08,-74.3045
2.691733333e+08,-72.404
2.695466667e+08,-64.8699
2.699200000e+08,-48.9692
2.702933333e+08,-52.7558
2.706666667e+08,-69.0843
2.710400000e+08,-69.6077
2.714133333e+08,-71.5588
2.717866667e+08,-71.6994
2.721600000e+08,-70.8988
2.725333333e+08,-54.5217
2.729066667e+08,-55.401
2.732800000e+08,-75.4539
2.736533333e+08,-72.9439
2.740266667e+08,-72.5948
2.744000000e+08,-82.2446
2.747733333e+08,-61.6206
2.751466667e+08,-50.2287
2.755200000e+08,-48.4886
2.758933333e+08,-43.5618
2.762666667e+08,-46.2443
2.766400000e+08,-70.9083
2.770133333e+08,-68.9411
2.773866667e+08,-66.0588
2.777600000e+08,-58.7669
2.781333333e+08,-53.1923
2.785066667e+08,-58.9626
2.788800000e+08,-67.1095
2.792533333e+08,-68.6978
2.796266667e+08,-68.8456
2.800000000e+08,-65.6747

