21pt29/tek0043NRM.csv

Model,MDO3104
Firmware Version,1.30

Waveform Type,RF_FD
Point Format,Y
Horizontal Units,Hz
Horizontal Scale,2.8e+07
,
Sample Interval,373333
Record Length,751
Gating,0.133155792277% to 100.0%
Probe Attenuation,1
Vertical Units,dBm
Vertical Offset,0
Vertical Scale,10
Vertical Position,0
Center Frequency,1.4e+08
Span,2.8e+08
Reference Level,-15
Label,
FREQUENCY,FD NORM
0.000000000e+00,-65.7313
3.733333333e+05,-74.5141
7.466666667e+05,-84.1348
1.120000000e+06,-80.5348
1.493333333e+06,-71.5812
1.866666667e+06,-69.3303
2.240000000e+06,-70.0762
2.613333333e+06,-64.3576
2.986666667e+06,-64.045
3.360000000e+06,-61.1744
3.733333333e+06,-62.2064
4.106666667e+06,-69.7834
4.480000000e+06,-67.1628
4.853333333e+06,-69.379
5.226666667e+06,-66.8309
5.600000000e+06,-69.7195
5.973333333e+06,-60.2611
6.346666667e+06,-67.3163
6.720000000e+06,-68.4428
7.093333333e+06,-75.9241
7.466666667e+06,-75.3846
7.840000000e+06,-69.7212
8.213333333e+06,-68.4614
8.586666667e+06,-64.1718
8.960000000e+06,-69.7794
9.333333333e+06,-70.708
9.706666667e+06,-70.0373
1.008000000e+07,-71.467
1.045333333e+07,-64.7128
1.082666667e+07,-69.6992
1.120000000e+07,-66.3932
1.157333333e+07,-69.2533
1.194666667e+07,-58.9027
1.232000000e+07,-65.0605
1.269333333e+07,-72.7668
1.306666667e+07,-71.1702
1.344000000e+07,-66.5908
1.381333333e+07,-65.4844
1.418666667e+07,-66.6755
1.456000000e+07,-68.4325
1.493333333e+07,-78.6282
1.530666667e+07,-67.7092
1.568000000e+07,-72.1868
1.605333333e+07,-65.9008
1.642666667e+07,-64.546
1.680000000e+07,-69.4064
1.717333333e+07,-72.9007
1.754666667e+07,-71.8515
1.792000000e+07,-56.9959
1.829333333e+07,-59.9363
1.866666667e+07,-67.5579
1.904000000e+07,-66.0198
1.941333333e+07,-66.5553
1.978666667e+07,-69.3553
2.016000000e+07,-72.8196
2.053333333e+07,-70.6593
2.090666667e+07,-71.1884
2.128000000e+07,-70.3844
2.165333333e+07,-63.1277
2.202666667e+07,-65.0846
2.240000000e+07,-65.0076
2.277333333e+07,-64.3141
2.314666667e+07,-70.6253
2.352000000e+07,-66.5031
2.389333333e+07,-63.8029
2.426666667e+07,-63.6876
2.464000000e+07,-58.8518
2.501333333e+07,-53.604
2.538666667e+07,-63.8198
2.576000000e+07,-70.6376
2.613333333e+07,-68.3927
2.650666667e+07,-69.1322
2.688000000e+07,-70.3193
2.725333333e+07,-62.5605
2.762666667e+07,-67.287
2.800000000e+07,-70.358
2.837333333e+07,-71.5179
2.874666667e+07,-69.3171
2.912000000e+07,-70.3777
2.949333333e+07,-68.0951
2.986666667e+07,-52.5718
3.024000000e+07,-54.3275
3.061333333e+07,-74.4263
3.098666667e+07,-81.4898
3.136000000e+07,-72.7171
3.173333333e+07,-70.1384
3.210666667e+07,-66.1084
3.248000000e+07,-63.5782
3.285333333e+07,-61.9943
3.322666667e+07,-79.165
3.360000000e+07,-74.3976
3.397333333e+07,-72.2067
3.434666667e+07,-76.0906
3.472000000e+07,-68.9647
3.509333333e+07,-65.7362
3.546666667e+07,-59.9449
3.584000000e+07,-48.5752
3.621333333e+07,-49.4147
3.658666667e+07,-75.9356
3.696000000e+07,-74.5705
3.733333333e+07,-74.9458
3.770666667e+07,-66.6008
3.808000000e+07,-59.7515
3.845333333e+07,-68.6721
3.882666667e+07,-74.0152
3.920000000e+07,-73.0993
3.957333333e+07,-75.2154
3.994666667e+07,-69.789
4.032000000e+07,-65.0359
4.069333333e+07,-59.9094
4.106666667e+07,-61.936
4.144000000e+07,-67.505
4.181333333e+07,-53.2566
4.218666667e+07,-53.5372
4.256000000e+07,-77.8954
4.293333333e+07,-69.7258
4.330666667e+07,-60.82
4.368000000e+07,-61.4162
4.405333333e+07,-63.8047
4.442666667e+07,-78.8518
4.480000000e+07,-80.1944
4.517333333e+07,-68.9383
4.554666667e+07,-67.8042
4.592000000e+07,-63.3776
4.629333333e+07,-59.5226
4.666666667e+07,-58.4913
4.704000000e+07,-68.3079
4.741333333e+07,-72.7539
4.778666667e+07,-36.8095
4.816000000e+07,-36.0217
4.853333333e+07,-62.827
4.890666667e+07,-61.0849
4.928000000e+07,-61.011
4.965333333e+07,-72.5418
5.002666667e+07,-74.5124
5.040000000e+07,-69.4638
5.077333333e+07,-72.9516
5.114666667e+07,-69.7719
5.152000000e+07,-62.7681
5.189333333e+07,-56.4592
5.226666667e+07,-64.2257
5.264000000e+07,-73.1324
5.301333333e+07,-75.8224
5.338666667e+07,-70.7596
5.376000000e+07,-49.5429
5.413333333e+07,-47.8924
5.450666667e+07,-56.3831
5.488000000e+07,-58.5445
5.525333333e+07,-78.5594
5.562666667e+07,-69.835
5.600000000e+07,-71.4284
5.637333333e+07,-77.8779
5.674666667e+07,-68.4838
5.712000000e+07,-53.3342
5.749333333e+07,-53.5174
5.786666667e+07,-76.5637
5.824000000e+07,-76.3921
5.861333333e+07,-82.821
5.898666667e+07,-80.174
5.936000000e+07,-76.5508
5.973333333e+07,-39.7898
6.010666667e+07,-37.5032
6.048000000e+07,-55.7638
6.085333333e+07,-72.5197
6.122666667e+07,-72.494
6.160000000e+07,-75.2212
6.197333333e+07,-68.3293
6.234666667e+07,-60.1077
6.272000000e+07,-53.2913
6.309333333e+07,-62.1589
6.346666667e+07,-67.359
6.384000000e+07,-68.4743
6.421333333e+07,-78.1576
6.458666667e+07,-72.7594
6.496000000e+07,-64.4148
6.533333333e+07,-54.8579
6.570666667e+07,-49.1349
6.608000000e+07,-45.9643
6.645333333e+07,-63.4812
6.682666667e+07,-68.7943
6.720000000e+07,-67.4482
6.757333333e+07,-65.298
6.794666667e+07,-56.3453
6.832000000e+07,-58.16
6.869333333e+07,-63.3555
6.906666667e+07,-63.582
6.944000000e+07,-65.8657
6.981333333e+07,-64.4214
7.018666667e+07,-67.9714
7.056000000e+07,-58.683
7.093333333e+07,-57.3193
7.130666667e+07,-60.745
7.168000000e+07,-46.1544
7.205333333e+07,-40.5989
7.242666667e+07,-51.8059
7.280000000e+07,-72.066
7.317333333e+07,-60.2361
7.354666667e+07,-56.341
7.392000000e+07,-59.2355
7.429333333e+07,-65.5518
7.466666667e+07,-73.2313
7.504000000e+07,-65.7067
7.541333333e+07,-64.9457
7.578666667e+07,-64.647
7.616000000e+07,-57.3271
7.653333333e+07,-56.8539
7.690666667e+07,-68.0819
7.728000000e+07,-67.785
7.765333333e+07,-54.8704
7.802666667e+07,-48.4731
7.840000000e+07,-61.0311
7.877333333e+07,-59.739
7.914666667e+07,-55.7024
7.952000000e+07,-59.4688
7.989333333e+07,-70.4103
8.026666667e+07,-62.8212
8.064000000e+07,-63.1476
8.101333333e+07,-68.4857
8.138666667e+07,-62.2868
8.176000000e+07,-57.3034
8.213333333e+07,-59.0129
8.250666667e+07,-65.7122
8.288000000e+07,-67.8503
8.325333333e+07,-68.8836
8.362666667e+07,-53.155
8.400000000e+07,-44.6482
8.437333333e+07,-51.8195
8.474666667e+07,-52.5502
8.512000000e+07,-70.9839
8.549333333e+07,-67.3103
8.586666667e+07,-67.6987
8.624000000e+07,-76.0315
8.661333333e+07,-70.677
8.698666667e+07,-58.461
8.736000000e+07,-54.6499
8.773333333e+07,-72.6243
8.810666667e+07,-73.8413
8.848000000e+07,-68.5346
8.885333333e+07,-73.2531
8.922666667e+07,-72.1281
8.960000000e+07,-73.3251
8.997333333e+07,-59.3859
9.034666667e+07,-65.4268
9.072000000e+07,-67.145
9.109333333e+07,-76.8415
9.146666667e+07,-80.2126
9.184000000e+07,-76.1177
9.221333333e+07,-70.5441
9.258666667e+07,-54.4075
9.296000000e+07,-56.1075
9.333333333e+07,-75.2044
9.370666667e+07,-68.4402
9.408000000e+07,-73.0196
9.445333333e+07,-68.2795
9.482666667e+07,-66.4088
9.520000000e+07,-52.7637
9.557333333e+07,-52.5452
9.594666667e+07,-42.4707
9.632000000e+07,-45.6833
9.669333333e+07,-65.81
9.706666667e+07,-68.3436
9.744000000e+07,-68.333
9.781333333e+07,-57.8386
9.818666667e+07,-54.5718
9.856000000e+07,-63.2534
9.893333333e+07,-68.3853
9.930666667e+07,-72.4958
9.968000000e+07,-62.3262
1.000533333e+08,-63.2952
1.004266667e+08,-59.3517
1.008000000e+08,-52.7017
1.011733333e+08,-58.4356
1.015466667e+08,-62.2901
1.019200000e+08,-54.3221
1.022933333e+08,-59.4406
1.026666667e+08,-65.6078
1.030400000e+08,-64.1669
1.034133333e+08,-55.2299
1.037866667e+08,-58.2517
1.041600000e+08,-62.5103
1.045333333e+08,-71.5391
1.049066667e+08,-67.1547
1.052800000e+08,-63.7626
1.056533333e+08,-64.1369
1.060266667e+08,-55.2747
1.064000000e+08,-52.376
1.067733333e+08,-53.9039
1.071466667e+08,-65.7652
1.075200000e+08,-72.939
1.078933333e+08,-49.6598
1.082666667e+08,-51.4335
1.086400000e+08,-60.5788
1.090133333e+08,-55.7852
1.093866667e+08,-55.3838
1.097600000e+08,-67.5386
1.101333333e+08,-68.5742
1.105066667e+08,-67.9366
1.108800000e+08,-72.1678
1.112533333e+08,-63.6148
1.116266667e+08,-53.2158
1.120000000e+08,-50.8006
1.123733333e+08,-60.3451
1.127466667e+08,-66.2318
1.131200000e+08,-66.1013
1.134933333e+08,-66.1575
1.138666667e+08,-58.4493
1.142400000e+08,-60.9593
1.146133333e+08,-53.1118
1.149866667e+08,-63.1351
1.153600000e+08,-65.433
1.157333333e+08,-67.3219
1.161066667e+08,-73.1559
1.164800000e+08,-72.2569
1.168533333e+08,-62.9046
1.172266667e+08,-50.0206
1.176000000e+08,-53.0183
1.179733333e+08,-69.438
1.183466667e+08,-68.7784
1.187200000e+08,-68.2193
1.190933333e+08,-71.6964
1.194666667e+08,-62.8605
1.198400000e+08,-37.3682
1.202133333e+08,-38.1895
1.205866667e+08,-70.9838
1.209600000e+08,-69.7215
1.213333333e+08,-69.6372
1.217066667e+08,-74.9447
1.220800000e+08,-65.8785
1.224533333e+08,-50.5146
1.228266667e+08,-49.012
1.232000000e+08,-62.4042
1.235733333e+08,-67.3323
1.239466667e+08,-71.2813
1.243200000e+08,-66.5088
1.246933333e+08,-65.1655
1.250666667e+08,-57.2898
1.254400000e+08,-52.1011
1.258133333e+08,-52.681
1.261866667e+08,-53.2465
1.265600000e+08,-68.4395
1.269333333e+08,-70.5486
1.273066667e+08,-68.4979
1.276800000e+08,-60.5279
1.280533333e+08,-49.9288
1.284266667e+08,-54.5986
1.288000000e+08,-62.4664
1.291733333e+08,-64.1165
1.295466667e+08,-62.7269
1.299200000e+08,-62.343
1.302933333e+08,-67.5918
1.306666667e+08,-52.2828
1.310400000e+08,-53.7605
1.314133333e+08,-61.8878
1.317866667e+08,-50.6352
1.321600000e+08,-49.4296
1.325333333e+08,-65.6278
1.329066667e+08,-64.451
1.332800000e+08,-52.7427
1.336533333e+08,-52.2655
1.340266667e+08,-54.5336
1.344000000e+08,-63.3334
1.347733333e+08,-66.9115
1.351466667e+08,-65.0009
1.355200000e+08,-65.5342
1.358933333e+08,-58.8125
1.362666667e+08,-54.9626
1.366400000e+08,-54.4609
1.370133333e+08,-62.2727
1.373866667e+08,-69.9374
1.377600000e+08,-62.3035
1.381333333e+08,-62.1048
1.385066667e+08,-61.9588
1.388800000e+08,-54.6624
1.392533333e+08,-50.4245
1.396266667e+08,-60.0158
1.400000000e+08,-63.7435
1.403733333e+08,-62.5626
1.407466667e+08,-63.3366
1.411200000e+08,-68.0942
1.414933333e+08,-56.8683
1.418666667e+08,-52.8959
1.422400000e+08,-58.1148
1.426133333e+08,-72.0224
1.429866667e+08,-71.8722
1.433600000e+08,-67.6421
1.437333333e+08,-47.0548
1.441066667e+08,-45.4161
1.444800000e+08,-49.458
1.448533333e+08,-50.9798
1.452266667e+08,-62.9039
1.456000000e+08,-70.0734
1.459733333e+08,-69.6973
1.463466667e+08,-74.413
1.467200000e+08,-67.3419
1.470933333e+08,-53.0636
1.474666667e+08,-52.0833
1.478400000e+08,-69.7422
1.482133333e+08,-70.6747
1.485866667e+08,-75.6934
1.489600000e+08,-70.0776
1.493333333e+08,-66.7739
1.497066667e+08,-50.5676
1.500800000e+08,-46.8548
1.504533333e+08,-60.6298
1.508266667e+08,-68.0717
1.512000000e+08,-74.4206
1.515733333e+08,-73.591
1.519466667e+08,-75.3679
1.523200000e+08,-65.4677
1.526933333e+08,-52.0441
1.530666667e+08,-58.7317
1.534400000e+08,-75.3187
1.538133333e+08,-74.053
1.541866667e+08,-70.6146
1.545600000e+08,-67.3581
1.549333333e+08,-62.9305
1.553066667e+08,-48.1783
1.556800000e+08,-46.9668
1.560533333e+08,-42.3726
1.564266667e+08,-54.8438
1.568000000e+08,-66.6449
1.571733333e+08,-65.2345
1.575466667e+08,-63.5497
1.579200000e+08,-51.8824
1.582933333e+08,-52.4554
1.586666667e+08,-65.3402
1.590400000e+08,-66.2547
1.594133333e+08,-66.8909
1.597866667e+08,-64.2926
1.601600000e+08,-62.4004
1.605333333e+08,-51.0839
1.609066667e+08,-49.5021
1.612800000e+08,-53.1427
1.616533333e+08,-59.4723
1.620266667e+08,-60.6099
1.624000000e+08,-65.7569
1.627733333e+08,-62.0971
1.631466667e+08,-59.145
1.635200000e+08,-54.1607
1.638933333e+08,-58.5098
1.642666667e+08,-67.9195
1.646400000e+08,-66.3338
1.650133333e+08,-65.1919
1.653866667e+08,-61.3172
1.657600000e+08,-59.4938
1.661333333e+08,-51.4849
1.665066667e+08,-49.8462
1.668800000e+08,-55.7256
1.672533333e+08,-65.7484
1.676266667e+08,-52.9138
1.680000000e+08,-45.2081
1.683733333e+08,-52.1612
1.687466667e+08,-57.7995
1.691200000e+08,-54.6288
1.694933333e+08,-57.0855
1.698666667e+08,-63.2629
1.702400000e+08,-69.7182
1.706133333e+08,-63.0057
1.709866667e+08,-63.3012
1.713600000e+08,-58.2731
1.717333333e+08,-47.6591
1.721066667e+08,-47.803
1.724800000e+08,-62.8878
1.728533333e+08,-67.6468
1.732266667e+08,-67.1694
1.736000000e+08,-68.9628
1.739733333e+08,-73.4785
1.743466667e+08,-55.1294
1.747200000e+08,-52.6077
1.750933333e+08,-64.9166
1.754666667e+08,-71.4673
1.758400000e+08,-69.5575
1.762133333e+08,-67.7015
1.765866667e+08,-70.6574
1.769600000e+08,-53.0797
1.773333333e+08,-46.7744
1.777066667e+08,-57.2985
1.780800000e+08,-70.8578
1.784533333e+08,-68.8148
1.788266667e+08,-68.2936
1.792000000e+08,-70.8745
1.795733333e+08,-53.9068
1.799466667e+08,-40.8881
1.803200000e+08,-45.9551
1.806933333e+08,-78.1807
1.810666667e+08,-66.6749
1.814400000e+08,-71.7146
1.818133333e+08,-72.8927
1.821866667e+08,-69.1514
1.825600000e+08,-47.3069
1.829333333e+08,-48.7747
1.833066667e+08,-66.4218
1.836800000e+08,-67.2827
1.840533333e+08,-69.5751
1.844266667e+08,-64.7407
1.848000000e+08,-63.9641
1.851733333e+08,-52.7175
1.855466667e+08,-51.9783
1.859200000e+08,-65.0392
1.862933333e+08,-67.9048
1.866666667e+08,-65.3321
1.870400000e+08,-67.5422
1.874133333e+08,-62.6057
1.877866667e+08,-52.6671
1.881600000e+08,-48.7592
1.885333333e+08,-55.9027
1.889066667e+08,-63.5248
1.892800000e+08,-66.442
1.896533333e+08,-67.3166
1.900266667e+08,-68.1781
1.904000000e+08,-64.2017
1.907733333e+08,-53.8185
1.911466667e+08,-56.0948
1.915200000e+08,-59.9338
1.918933333e+08,-47.3197
1.922666667e+08,-49.7499
1.926400000e+08,-63.4008
1.930133333e+08,-60.9901
1.933866667e+08,-50.1836
1.937600000e+08,-51.9838
1.941333333e+08,-61.2233
1.945066667e+08,-64.6308
1.948800000e+08,-71.9701
1.952533333e+08,-63.2938
1.956266667e+08,-62.2142
1.960000000e+08,-57.6041
1.963733333e+08,-56.8795
1.967466667e+08,-59.5404
1.971200000e+08,-65.5016
1.974933333e+08,-72.3087
1.978666667e+08,-75.5218
1.982400000e+08,-63.1456
1.986133333e+08,-55.6238
1.989866667e+08,-49.7321
1.993600000e+08,-48.7932
1.997333333e+08,-59.7609
2.001066667e+08,-65.8483
2.004800000e+08,-65.1339
2.008533333e+08,-64.1637
2.012266667e+08,-67.233
2.016000000e+08,-58.7225
2.019733333e+08,-55.5812
2.023466667e+08,-64.3805
2.027200000e+08,-73.7707
2.030933333e+08,-68.6877
2.034666667e+08,-63.215
2.038400000e+08,-42.3627
2.042133333e+08,-43.7698
2.045866667e+08,-47.8634
2.049600000e+08,-53.8383
2.053333333e+08,-65.0581
2.057066667e+08,-67.022
2.060800000e+08,-68.4604
2.064533333e+08,-69.0764
2.068266667e+08,-70.9157
2.072000000e+08,-53.7876
2.075733333e+08,-56.0077
2.079466667e+08,-70.7788
2.083200000e+08,-70.7073
2.086933333e+08,-67.6546
2.090666667e+08,-66.7746
2.094400000e+08,-74.876
2.098133333e+08,-46.5872
2.101866667e+08,-46.2815
2.105600000e+08,-65.1593
2.109333333e+08,-67.2511
2.113066667e+08,-67.8088
2.116800000e+08,-66.1646
2.120533333e+08,-60.2837
2.124266667e+08,-55.6176
2.128000000e+08,-52.7813
2.131733333e+08,-68.3894
2.135466667e+08,-64.366
2.139200000e+08,-67.007
2.142933333e+08,-67.1406
2.146666667e+08,-64.4391
2.150400000e+08,-54.3591
2.154133333e+08,-47.2277
2.157866667e+08,-46.2427
2.161600000e+08,-46.2739
2.165333333e+08,-66.9981
2.169066667e+08,-65.621
2.172800000e+08,-69.2649
2.176533333e+08,-64.949
2.180266667e+08,-55.1044
2.184000000e+08,-59.1223
2.187733333e+08,-63.0708
2.191466667e+08,-63.7781
2.195200000e+08,-67.2292
2.198933333e+08,-66.3992
2.202666667e+08,-58.3355
2.206400000e+08,-48.2117
2.210133333e+08,-49.5398
2.213866667e+08,-54.2913
2.217600000e+08,-59.3432
2.221333333e+08,-66.069
2.225066667e+08,-65.3945
2.228800000e+08,-61.7582
2.232533333e+08,-56.9084
2.236266667e+08,-55.3418
2.240000000e+08,-58.2234
2.243733333e+08,-63.3358
2.247466667e+08,-65.4118
2.251200000e+08,-66.1917
2.254933333e+08,-60.4289
2.258666667e+08,-55.2338
2.262400000e+08,-50.8892
2.266133333e+08,-49.3457
2.269866667e+08,-58.4505
2.273600000e+08,-59.3614
2.277333333e+08,-46.4895
2.281066667e+08,-44.2162
2.284800000e+08,-64.5437
2.288533333e+08,-57.9764
2.292266667e+08,-54.9559
2.296000000e+08,-67.2841
2.299733333e+08,-65.9922
2.303466667e+08,-68.5561
2.307200000e+08,-62.9787
2.310933333e+08,-62.9381
2.314666667e+08,-55.715
2.318400000e+08,-47.1688
2.322133333e+08,-51.0454
2.325866667e+08,-65.6015
2.329600000e+08,-73.2371
2.333333333e+08,-72.281
2.337066667e+08,-67.2766
2.340800000e+08,-62.8312
2.344533333e+08,-53.5464
2.348266667e+08,-54.9678
2.352000000e+08,-71.1024
2.355733333e+08,-72.2166
2.359466667e+08,-70.0341
2.363200000e+08,-67.7665
2.366933333e+08,-66.6631
2.370666667e+08,-48.2397
2.374400000e+08,-46.7694
2.378133333e+08,-70.7575
2.381866667e+08,-79.7818
2.385600000e+08,-68.6085
2.389333333e+08,-67.82
2.393066667e+08,-74.847
2.396800000e+08,-64.7029
2.400533333e+08,-48.4873
2.404266667e+08,-49.6646
2.408000000e+08,-67.7839
2.411733333e+08,-68.9763
2.415466667e+08,-71.6616
2.419200000e+08,-79.7556
2.422933333e+08,-57.7996
2.426666667e+08,-46.7344
2.430400000e+08,-53.3723
2.434133333e+08,-77.3868
2.437866667e+08,-70.5783
2.441600000e+08,-70.8059
2.445333333e+08,-70.0847
2.449066667e+08,-65.7151
2.452800000e+08,-53.4714
2.456533333e+08,-55.1946
2.460266667e+08,-64.2208
2.464000000e+08,-68.0874
2.467733333e+08,-67.2609
2.471466667e+08,-66.0661
2.475200000e+08,-61.3489
2.478933333e+08,-48.2123
2.482666667e+08,-48.0622
2.486400000e+08,-55.5027
2.490133333e+08,-64.9792
2.493866667e+08,-70.1883
2.497600000e+08,-65.5467
2.501333333e+08,-68.4822
2.505066667e+08,-56.1326
2.508800000e+08,-54.2431
2.512533333e+08,-60.6844
2.516266667e+08,-56.4153
2.520000000e+08,-46.5706
2.523733333e+08,-55.3515
2.527466667e+08,-65.2595
2.531200000e+08,-58.6277
2.534933333e+08,-51.4251
2.538666667e+08,-51.2758
2.542400000e+08,-57.6627
2.546133333e+08,-63.1487
2.549866667e+08,-66.2976
2.553600000e+08,-62.2783
2.557333333e+08,-61.177
2.561066667e+08,-55.9995
2.564800000e+08,-56.7684
2.568533333e+08,-64.9822
2.572266667e+08,-62.5237
2.576000000e+08,-65.7846
2.579733333e+08,-60.7383
2.583466667e+08,-59.0585
2.587200000e+08,-54.4734
2.590933333e+08,-49.2488
2.594666667e+08,-51.225
2.598400000e+08,-62.6324
2.602133333e+08,-65.1857
2.605866667e+08,-65.9933
2.609600000e+08,-69.6529
2.613333333e+08,-62.5934
2.617066667e+08,-56.2397
2.620800000e+08,-55.3308
2.624533333e+08,-69.5184
2.628266667e+08,-66.3529
2.632000000e+08,-69.3415
2.635733333e+08,-64.0652
2.639466667e+08,-49.7341
2.643200000e+08,-50.9033
2.646933333e+08,-47.3215
2.650666667e+08,-58.4703
2.654400000e+08,-68.549
2.658133333e+08,-66.8563
2.661866667e+08,-69.1169
2.665600000e+08,-70.2622
2.669333333e+08,-61.2831
2.673066667e+08,-54.3473
2.676800000e+08,-63.8114
2.680533333e+08,-71.9049
2.684266667e+08,-69.4675
2.688000000e+08,-69.6055
2.691733333e+08,-70.9403
2.695466667e+08,-63.8984
2.699200000e+08,-47.7263
2.702933333e+08,-51.2525
2.706666667e+08,-66.4552
2.710400000e+08,-67.0725
2.714133333e+08,-72.0282
2.717866667e+08,-79.7254
2.721600000e+08,-69.9495
2.725333333e+08,-54.0182
2.729066667e+08,-54.2346
2.732800000e+08,-68.2785
2.736533333e+08,-76.686
2.740266667e+08,-76.1701
2.744000000e+08,-71.0029
2.747733333e+08,-66.2231
2.751466667e+08,-50.9446
2.755200000e+08,-48.9593
2.758933333e+08,-50.5907
2.762666667e+08,-51.6924
2.766400000e+08,-68.2572
2.770133333e+08,-64.5943
2.773866667e+08,-68.0081
2.777600000e+08,-59.9439
2.781333333e+08,-55.852
2.785066667e+08,-60.0536
2.788800000e+08,-68.039
2.792533333e+08,-66.2537
2.796266667e+08,-65.4283
2.800000000e+08,-61.8235

