21pt29/tek0139NRM.csv

Model,MDO3104
Firmware Version,1.30

Waveform Type,RF_FD
Point Format,Y
Horizontal Units,Hz
Horizontal Scale,2.8e+07
,
Sample Interval,373333
Record Length,751
Gating,0.133155792277% to 100.0%
Probe Attenuation,1
Vertical Units,dBm
Vertical Offset,0
Vertical Scale,10
Vertical Position,0
Center Frequency,1.4e+08
Span,2.8e+08
Reference Level,-15
Label,
FREQUENCY,FD NORM
0.000000000e+00,-63.8389
3.733333333e+05,-73.1177
7.466666667e+05,-74.1417
1.120000000e+06,-75.3669
1.493333333e+06,-75.6327
1.866666667e+06,-73.2601
2.240000000e+06,-74.3529
2.613333333e+06,-72.7041
2.986666667e+06,-71.8494
3.360000000e+06,-60.4
3.733333333e+06,-61.2783
4.106666667e+06,-67.5032
4.480000000e+06,-71.5265
4.853333333e+06,-68.6182
5.226666667e+06,-65.3434
5.600000000e+06,-67.8868
5.973333333e+06,-81.5112
6.346666667e+06,-78.9147
6.720000000e+06,-67.2368
7.093333333e+06,-67.9325
7.466666667e+06,-68.0847
7.840000000e+06,-71.9633
8.213333333e+06,-70.5646
8.586666667e+06,-71.7326
8.960000000e+06,-70.6972
9.333333333e+06,-72.4328
9.706666667e+06,-70.4646
1.008000000e+07,-71.7054
1.045333333e+07,-70.2738
1.082666667e+07,-75.3432
1.120000000e+07,-77.7525
1.157333333e+07,-67.5272
1.194666667e+07,-64.9265
1.232000000e+07,-69.5381
1.269333333e+07,-66.7229
1.306666667e+07,-64.5611
1.344000000e+07,-69.9858
1.381333333e+07,-72.4899
1.418666667e+07,-80.348
1.456000000e+07,-75.5014
1.493333333e+07,-75.4269
1.530666667e+07,-71.8636
1.568000000e+07,-66.4848
1.605333333e+07,-71.3417
1.642666667e+07,-71.5197
1.680000000e+07,-67.4331
1.717333333e+07,-68.9796
1.754666667e+07,-67.562
1.792000000e+07,-79.2506
1.829333333e+07,-69.4353
1.866666667e+07,-72.3921
1.904000000e+07,-72.4722
1.941333333e+07,-73.2525
1.978666667e+07,-69.5211
2.016000000e+07,-70.0007
2.053333333e+07,-73.0096
2.090666667e+07,-72.3106
2.128000000e+07,-69.7445
2.165333333e+07,-67.1779
2.202666667e+07,-72.1204
2.240000000e+07,-68.1199
2.277333333e+07,-66.6688
2.314666667e+07,-69.4239
2.352000000e+07,-65.6516
2.389333333e+07,-69.0608
2.426666667e+07,-67.4812
2.464000000e+07,-59.4184
2.501333333e+07,-53.4979
2.538666667e+07,-65.3732
2.576000000e+07,-66.3101
2.613333333e+07,-67.7132
2.650666667e+07,-69.3029
2.688000000e+07,-67.8416
2.725333333e+07,-68.1642
2.762666667e+07,-67.5567
2.800000000e+07,-73.7063
2.837333333e+07,-71.9007
2.874666667e+07,-67.1839
2.912000000e+07,-72.3366
2.949333333e+07,-70.6349
2.986666667e+07,-74.4502
3.024000000e+07,-69.3461
3.061333333e+07,-68.1274
3.098666667e+07,-76.514
3.136000000e+07,-73.2174
3.173333333e+07,-77.5041
3.210666667e+07,-81.0209
3.248000000e+07,-81.629
3.285333333e+07,-83.0179
3.322666667e+07,-78.9143
3.360000000e+07,-78.1383
3.397333333e+07,-72.6156
3.434666667e+07,-74.0505
3.472000000e+07,-85.4125
3.509333333e+07,-73.6439
3.546666667e+07,-70.0914
3.584000000e+07,-60.0056
3.621333333e+07,-60.6865
3.658666667e+07,-77.0726
3.696000000e+07,-76.5353
3.733333333e+07,-82.2919
3.770666667e+07,-78.0949
3.808000000e+07,-74.9894
3.845333333e+07,-75.0941
3.882666667e+07,-77.757
3.920000000e+07,-75.1622
3.957333333e+07,-68.9506
3.994666667e+07,-69.3287
4.032000000e+07,-84.3898
4.069333333e+07,-72.9963
4.106666667e+07,-72.63
4.144000000e+07,-75.712
4.181333333e+07,-77.1659
4.218666667e+07,-77.9576
4.256000000e+07,-75.335
4.293333333e+07,-78.8246
4.330666667e+07,-76.0421
4.368000000e+07,-76.9662
4.405333333e+07,-72.8938
4.442666667e+07,-75.0212
4.480000000e+07,-79.8737
4.517333333e+07,-76.8367
4.554666667e+07,-77.098
4.592000000e+07,-82.7073
4.629333333e+07,-73.6103
4.666666667e+07,-77.0059
4.704000000e+07,-77.306
4.741333333e+07,-84.2159
4.778666667e+07,-69.5098
4.816000000e+07,-65.2607
4.853333333e+07,-71.1945
4.890666667e+07,-80.1923
4.928000000e+07,-78.5697
4.965333333e+07,-74.1989
5.002666667e+07,-77.2701
5.040000000e+07,-86.9441
5.077333333e+07,-89.3983
5.114666667e+07,-71.2992
5.152000000e+07,-69.7611
5.189333333e+07,-76.3652
5.226666667e+07,-75.9511
5.264000000e+07,-74.9492
5.301333333e+07,-74.2377
5.338666667e+07,-73.8586
5.376000000e+07,-77.8532
5.413333333e+07,-77.9869
5.450666667e+07,-70.2102
5.488000000e+07,-69.9924
5.525333333e+07,-72.823
5.562666667e+07,-76.5426
5.600000000e+07,-76.0879
5.637333333e+07,-75.2118
5.674666667e+07,-80.3702
5.712000000e+07,-77.9914
5.749333333e+07,-77.5825
5.786666667e+07,-75.1095
5.824000000e+07,-73.2124
5.861333333e+07,-74.2212
5.898666667e+07,-72.7951
5.936000000e+07,-79.3428
5.973333333e+07,-37.5081
6.010666667e+07,-35.194
6.048000000e+07,-53.0012
6.085333333e+07,-79.8034
6.122666667e+07,-74.2923
6.160000000e+07,-74.034
6.197333333e+07,-74.1741
6.234666667e+07,-75.6597
6.272000000e+07,-72.0821
6.309333333e+07,-70.5462
6.346666667e+07,-70.0608
6.384000000e+07,-74.8455
6.421333333e+07,-84.4728
6.458666667e+07,-73.0125
6.496000000e+07,-67.496
6.533333333e+07,-71.652
6.570666667e+07,-69.5743
6.608000000e+07,-72.632
6.645333333e+07,-69.0107
6.682666667e+07,-70.0538
6.720000000e+07,-71.3432
6.757333333e+07,-66.6097
6.794666667e+07,-69.3836
6.832000000e+07,-75.5809
6.869333333e+07,-76.1271
6.906666667e+07,-72.7689
6.944000000e+07,-73.0018
6.981333333e+07,-72.7034
7.018666667e+07,-68.834
7.056000000e+07,-68.6133
7.093333333e+07,-70.6935
7.130666667e+07,-70.2661
7.168000000e+07,-73.01
7.205333333e+07,-66.0134
7.242666667e+07,-72.7609
7.280000000e+07,-67.8114
7.317333333e+07,-71.2341
7.354666667e+07,-69.0468
7.392000000e+07,-70.9633
7.429333333e+07,-71.4714
7.466666667e+07,-74.2297
7.504000000e+07,-72.9139
7.541333333e+07,-76.375
7.578666667e+07,-77.4892
7.616000000e+07,-79.1224
7.653333333e+07,-72.7017
7.690666667e+07,-66.1471
7.728000000e+07,-66.0114
7.765333333e+07,-69.4898
7.802666667e+07,-76.3606
7.840000000e+07,-71.324
7.877333333e+07,-75.681
7.914666667e+07,-68.4672
7.952000000e+07,-66.4729
7.989333333e+07,-78.043
8.026666667e+07,-73.5021
8.064000000e+07,-70.656
8.101333333e+07,-72.6658
8.138666667e+07,-76.4449
8.176000000e+07,-76.049
8.213333333e+07,-74.3872
8.250666667e+07,-78.5906
8.288000000e+07,-78.7222
8.325333333e+07,-72.4688
8.362666667e+07,-63.437
8.400000000e+07,-52.5571
8.437333333e+07,-58.2291
8.474666667e+07,-79.1681
8.512000000e+07,-73.7551
8.549333333e+07,-73.1682
8.586666667e+07,-68.6051
8.624000000e+07,-71.589
8.661333333e+07,-79.6667
8.698666667e+07,-72.4929
8.736000000e+07,-73.7139
8.773333333e+07,-70.0585
8.810666667e+07,-69.6648
8.848000000e+07,-65.6014
8.885333333e+07,-68.5037
8.922666667e+07,-69.7513
8.960000000e+07,-67.1352
8.997333333e+07,-54.0806
9.034666667e+07,-59.2202
9.072000000e+07,-73.695
9.109333333e+07,-72.5182
9.146666667e+07,-71.2652
9.184000000e+07,-70.4206
9.221333333e+07,-76.6244
9.258666667e+07,-69.6566
9.296000000e+07,-69.5706
9.333333333e+07,-72.5569
9.370666667e+07,-74.205
9.408000000e+07,-67.4823
9.445333333e+07,-68.1043
9.482666667e+07,-74.6087
9.520000000e+07,-72.1771
9.557333333e+07,-72.0102
9.594666667e+07,-52.5678
9.632000000e+07,-53.4561
9.669333333e+07,-76.0574
9.706666667e+07,-70.6977
9.744000000e+07,-69.5101
9.781333333e+07,-70.3897
9.818666667e+07,-69.3435
9.856000000e+07,-72.7352
9.893333333e+07,-69.3024
9.930666667e+07,-68.1653
9.968000000e+07,-72.8385
1.000533333e+08,-70.3532
1.004266667e+08,-70.7128
1.008000000e+08,-80.7405
1.011733333e+08,-81.9954
1.015466667e+08,-74.5249
1.019200000e+08,-73.2384
1.022933333e+08,-74.179
1.026666667e+08,-71.4199
1.030400000e+08,-72.4858
1.034133333e+08,-71.9448
1.037866667e+08,-73.3048
1.041600000e+08,-76.6702
1.045333333e+08,-74.2275
1.049066667e+08,-71.1191
1.052800000e+08,-64.7071
1.056533333e+08,-65.4721
1.060266667e+08,-67.666
1.064000000e+08,-68.3229
1.067733333e+08,-77.3375
1.071466667e+08,-71.5371
1.075200000e+08,-69.0555
1.078933333e+08,-51.2225
1.082666667e+08,-53.6101
1.086400000e+08,-75.3511
1.090133333e+08,-70.4521
1.093866667e+08,-70.0526
1.097600000e+08,-70.963
1.101333333e+08,-71.4897
1.105066667e+08,-73.124
1.108800000e+08,-72.8187
1.112533333e+08,-63.8801
1.116266667e+08,-62.8838
1.120000000e+08,-71.2301
1.123733333e+08,-66.2793
1.127466667e+08,-71.5837
1.131200000e+08,-68.0695
1.134933333e+08,-68.8304
1.138666667e+08,-75.4733
1.142400000e+08,-79.3291
1.146133333e+08,-80.4142
1.149866667e+08,-71.2666
1.153600000e+08,-70.8929
1.157333333e+08,-71.3686
1.161066667e+08,-71.67
1.164800000e+08,-70.9886
1.168533333e+08,-70.9302
1.172266667e+08,-68.7877
1.176000000e+08,-79.6241
1.179733333e+08,-73.9857
1.183466667e+08,-67.9932
1.187200000e+08,-67.1905
1.190933333e+08,-69.2001
1.194666667e+08,-60.2333
1.198400000e+08,-37.7114
1.202133333e+08,-38.5294
1.205866667e+08,-69.2706
1.209600000e+08,-76.9616
1.213333333e+08,-74.6901
1.217066667e+08,-71.6855
1.220800000e+08,-73.6296
1.224533333e+08,-72.7203
1.228266667e+08,-72.5435
1.232000000e+08,-74.6739
1.235733333e+08,-68.4856
1.239466667e+08,-72.5731
1.243200000e+08,-73.2896
1.246933333e+08,-71.3249
1.250666667e+08,-68.9211
1.254400000e+08,-68.4762
1.258133333e+08,-75.8759
1.261866667e+08,-74.2536
1.265600000e+08,-79.0272
1.269333333e+08,-82.0548
1.273066667e+08,-71.023
1.276800000e+08,-74.81
1.280533333e+08,-71.9589
1.284266667e+08,-70.7985
1.288000000e+08,-70.4762
1.291733333e+08,-70.3039
1.295466667e+08,-68.4683
1.299200000e+08,-66.9509
1.302933333e+08,-68.2114
1.306666667e+08,-68.426
1.310400000e+08,-70.4721
1.314133333e+08,-76.3974
1.317866667e+08,-50.6289
1.321600000e+08,-49.7211
1.325333333e+08,-70.286
1.329066667e+08,-75.5927
1.332800000e+08,-73.9228
1.336533333e+08,-74.67
1.340266667e+08,-73.2979
1.344000000e+08,-72.4677
1.347733333e+08,-71.014
1.351466667e+08,-72.0407
1.355200000e+08,-73.7588
1.358933333e+08,-67.183
1.362666667e+08,-74.0243
1.366400000e+08,-76.2601
1.370133333e+08,-77.797
1.373866667e+08,-70.8586
1.377600000e+08,-68.4038
1.381333333e+08,-70.9322
1.385066667e+08,-68.0551
1.388800000e+08,-73.3755
1.392533333e+08,-72.098
1.396266667e+08,-72.4226
1.400000000e+08,-67.9301
1.403733333e+08,-66.5605
1.407466667e+08,-74.207
1.411200000e+08,-69.7473
1.414933333e+08,-74.6637
1.418666667e+08,-79.2263
1.422400000e+08,-75.3403
1.426133333e+08,-71.1964
1.429866667e+08,-69.4464
1.433600000e+08,-72.3574
1.437333333e+08,-68.1339
1.441066667e+08,-59.1686
1.444800000e+08,-62.6739
1.448533333e+08,-69.2958
1.452266667e+08,-71.8766
1.456000000e+08,-69.0283
1.459733333e+08,-72.203
1.463466667e+08,-68.0908
1.467200000e+08,-73.8507
1.470933333e+08,-73.5704
1.474666667e+08,-69.32
1.478400000e+08,-68.9238
1.482133333e+08,-69.9298
1.485866667e+08,-66.4825
1.489600000e+08,-67.8657
1.493333333e+08,-79.169
1.497066667e+08,-71.9283
1.500800000e+08,-72.91
1.504533333e+08,-69.417
1.508266667e+08,-68.0779
1.512000000e+08,-78.9982
1.515733333e+08,-67.9481
1.519466667e+08,-71.862
1.523200000e+08,-73.532
1.526933333e+08,-73.2254
1.530666667e+08,-72.4021
1.534400000e+08,-74.0465
1.538133333e+08,-76.7611
1.541866667e+08,-76.598
1.545600000e+08,-68.7154
1.549333333e+08,-65.5968
1.553066667e+08,-68.7497
1.556800000e+08,-54.0672
1.560533333e+08,-49.111
1.564266667e+08,-62.8295
1.568000000e+08,-68.1943
1.571733333e+08,-70.419
1.575466667e+08,-69.6614
1.579200000e+08,-69.5959
1.582933333e+08,-72.6939
1.586666667e+08,-71.459
1.590400000e+08,-71.7694
1.594133333e+08,-78.6497
1.597866667e+08,-71.6466
1.601600000e+08,-71.8975
1.605333333e+08,-74.3157
1.609066667e+08,-72.5008
1.612800000e+08,-71.6831
1.616533333e+08,-71.6363
1.620266667e+08,-75.397
1.624000000e+08,-78.5471
1.627733333e+08,-65.8973
1.631466667e+08,-66.3162
1.635200000e+08,-72.3538
1.638933333e+08,-70.1142
1.642666667e+08,-79.1185
1.646400000e+08,-70.1254
1.650133333e+08,-73.0202
1.653866667e+08,-83.9846
1.657600000e+08,-76.712
1.661333333e+08,-76.4417
1.665066667e+08,-74.459
1.668800000e+08,-74.3683
1.672533333e+08,-73.1242
1.676266667e+08,-66.3255
1.680000000e+08,-64.242
1.683733333e+08,-73.8356
1.687466667e+08,-71.6277
1.691200000e+08,-69.525
1.694933333e+08,-63.622
1.698666667e+08,-63.4322
1.702400000e+08,-68.6214
1.706133333e+08,-69.3275
1.709866667e+08,-73.4603
1.713600000e+08,-71.6804
1.717333333e+08,-69.4535
1.721066667e+08,-71.8823
1.724800000e+08,-71.5668
1.728533333e+08,-74.5103
1.732266667e+08,-68.0438
1.736000000e+08,-68.9347
1.739733333e+08,-69.0782
1.743466667e+08,-67.0742
1.747200000e+08,-73.314
1.750933333e+08,-70.4866
1.754666667e+08,-67.9871
1.758400000e+08,-66.026
1.762133333e+08,-71.0111
1.765866667e+08,-68.7782
1.769600000e+08,-67.6434
1.773333333e+08,-68.8685
1.777066667e+08,-69.1377
1.780800000e+08,-75.9682
1.784533333e+08,-74.0554
1.788266667e+08,-70.2976
1.792000000e+08,-73.5461
1.795733333e+08,-57.0367
1.799466667e+08,-42.8674
1.803200000e+08,-47.7746
1.806933333e+08,-69.5474
1.810666667e+08,-68.3844
1.814400000e+08,-70.1071
1.818133333e+08,-72.9751
1.821866667e+08,-69.4895
1.825600000e+08,-73.9147
1.829333333e+08,-71.7552
1.833066667e+08,-74.0833
1.836800000e+08,-77.7522
1.840533333e+08,-75.7494
1.844266667e+08,-75.1855
1.848000000e+08,-73.0742
1.851733333e+08,-74.1685
1.855466667e+08,-69.1791
1.859200000e+08,-70.7406
1.862933333e+08,-68.0326
1.866666667e+08,-72.4085
1.870400000e+08,-80.8422
1.874133333e+08,-70.9258
1.877866667e+08,-78.5323
1.881600000e+08,-74.0523
1.885333333e+08,-76.2525
1.889066667e+08,-71.1754
1.892800000e+08,-72.1786
1.896533333e+08,-74.293
1.900266667e+08,-76.1735
1.904000000e+08,-73.1623
1.907733333e+08,-69.8839
1.911466667e+08,-67.5648
1.915200000e+08,-73.1776
1.918933333e+08,-57.4384
1.922666667e+08,-54.6563
1.926400000e+08,-66.8083
1.930133333e+08,-76.4291
1.933866667e+08,-78.1992
1.937600000e+08,-62.3404
1.941333333e+08,-62.3694
1.945066667e+08,-67.4733
1.948800000e+08,-72.5011
1.952533333e+08,-71.8537
1.956266667e+08,-65.9199
1.960000000e+08,-64.0771
1.963733333e+08,-71.4791
1.967466667e+08,-73.5023
1.971200000e+08,-73.5502
1.974933333e+08,-71.2974
1.978666667e+08,-73.5909
1.982400000e+08,-72.6498
1.986133333e+08,-68.6155
1.989866667e+08,-77.1401
1.993600000e+08,-78.9398
1.997333333e+08,-70.3176
2.001066667e+08,-68.4448
2.004800000e+08,-71.0831
2.008533333e+08,-80.7648
2.012266667e+08,-68.7692
2.016000000e+08,-67.9075
2.019733333e+08,-73.2296
2.023466667e+08,-72.7301
2.027200000e+08,-66.4158
2.030933333e+08,-64.4792
2.034666667e+08,-66.3605
2.038400000e+08,-49.415
2.042133333e+08,-49.9271
2.045866667e+08,-72.9627
2.049600000e+08,-72.1239
2.053333333e+08,-63.9466
2.057066667e+08,-64.1796
2.060800000e+08,-73.4124
2.064533333e+08,-70.05
2.068266667e+08,-67.2318
2.072000000e+08,-66.6053
2.075733333e+08,-67.9335
2.079466667e+08,-69.676
2.083200000e+08,-66.0503
2.086933333e+08,-70.4678
2.090666667e+08,-65.005
2.094400000e+08,-64.2436
2.098133333e+08,-70.8916
2.101866667e+08,-71.4349
2.105600000e+08,-68.2918
2.109333333e+08,-63.7776
2.113066667e+08,-71.3961
2.116800000e+08,-74.2463
2.120533333e+08,-67.1185
2.124266667e+08,-64.997
2.128000000e+08,-65.6528
2.131733333e+08,-64.3027
2.135466667e+08,-63.0267
2.139200000e+08,-70.0874
2.142933333e+08,-71.4311
2.146666667e+08,-65.2421
2.150400000e+08,-63.0675
2.154133333e+08,-69.2176
2.157866667e+08,-70.0016
2.161600000e+08,-59.9107
2.165333333e+08,-63.6138
2.169066667e+08,-65.9743
2.172800000e+08,-67.1063
2.176533333e+08,-67.034
2.180266667e+08,-67.5904
2.184000000e+08,-65.0248
2.187733333e+08,-64.7402
2.191466667e+08,-68.0007
2.195200000e+08,-64.919
2.198933333e+08,-69.7704
2.202666667e+08,-67.7322
2.206400000e+08,-67.5269
2.210133333e+08,-70.8068
2.213866667e+08,-72.1999
2.217600000e+08,-68.3752
2.221333333e+08,-67.8172
2.225066667e+08,-70.1775
2.228800000e+08,-69.572
2.232533333e+08,-72.509
2.236266667e+08,-74.508
2.240000000e+08,-70.9689
2.243733333e+08,-74.5943
2.247466667e+08,-73.3766
2.251200000e+08,-66.4485
2.254933333e+08,-66.2991
2.258666667e+08,-67.5104
2.262400000e+08,-73.2347
2.266133333e+08,-70.3109
2.269866667e+08,-74.9741
2.273600000e+08,-75.8801
2.277333333e+08,-51.9488
2.281066667e+08,-49.1993
2.284800000e+08,-67.5975
2.288533333e+08,-73.6708
2.292266667e+08,-79.1613
2.296000000e+08,-71.2822
2.299733333e+08,-71.1859
2.303466667e+08,-70.3878
2.307200000e+08,-72.759
2.310933333e+08,-73.7409
2.314666667e+08,-72.3159
2.318400000e+08,-73.0384
2.322133333e+08,-67.9194
2.325866667e+08,-70.6918
2.329600000e+08,-68.1121
2.333333333e+08,-69.1183
2.337066667e+08,-72.242
2.340800000e+08,-72.2099
2.344533333e+08,-73.1732
2.348266667e+08,-71.0416
2.352000000e+08,-70.2443
2.355733333e+08,-76.5415
2.359466667e+08,-75.319
2.363200000e+08,-69.0991
2.366933333e+08,-70.5837
2.370666667e+08,-78.2341
2.374400000e+08,-75.8511
2.378133333e+08,-73.6859
2.381866667e+08,-73.6489
2.385600000e+08,-81.0132
2.389333333e+08,-76.4581
2.393066667e+08,-73.7974
2.396800000e+08,-49.867
2.400533333e+08,-44.5733
2.404266667e+08,-48.8206
2.408000000e+08,-69.1458
2.411733333e+08,-72.4716
2.415466667e+08,-73.4222
2.419200000e+08,-72.4501
2.422933333e+08,-71.3941
2.426666667e+08,-71.0102
2.430400000e+08,-68.089
2.434133333e+08,-70.0568
2.437866667e+08,-81.7649
2.441600000e+08,-72.2615
2.445333333e+08,-73.2419
2.449066667e+08,-72.9788
2.452800000e+08,-74.6004
2.456533333e+08,-75.0539
2.460266667e+08,-74.1275
2.464000000e+08,-72.1842
2.467733333e+08,-74.3344
2.471466667e+08,-73.4066
2.475200000e+08,-70.1878
2.478933333e+08,-72.8159
2.482666667e+08,-71.8366
2.486400000e+08,-74.6692
2.490133333e+08,-74.9473
2.493866667e+08,-73.4241
2.497600000e+08,-75.6717
2.501333333e+08,-72.0115
2.505066667e+08,-72.4508
2.508800000e+08,-78.7588
2.512533333e+08,-75.6178
2.516266667e+08,-55.673
2.520000000e+08,-47.7249
2.523733333e+08,-54.9963
2.527466667e+08,-72.9519
2.531200000e+08,-76.4432
2.534933333e+08,-74.5886
2.538666667e+08,-75.184
2.542400000e+08,-76.9648
2.546133333e+08,-75.9806
2.549866667e+08,-73.894
2.553600000e+08,-73.8122
2.557333333e+08,-73.1845
2.561066667e+08,-70.8211
2.564800000e+08,-70.8039
2.568533333e+08,-73.9989
2.572266667e+08,-74.0301
2.576000000e+08,-71.1903
2.579733333e+08,-70.1692
2.583466667e+08,-77.9121
2.587200000e+08,-78.2005
2.590933333e+08,-71.468
2.594666667e+08,-73.8678
2.598400000e+08,-73.1231
2.602133333e+08,-66.5533
2.605866667e+08,-71.7058
2.609600000e+08,-80.6132
2.613333333e+08,-73.7219
2.617066667e+08,-74.3493
2.620800000e+08,-71.2814
2.624533333e+08,-76.8412
2.628266667e+08,-73.9174
2.632000000e+08,-70.1727
2.635733333e+08,-75.2173
2.639466667e+08,-60.8933
2.643200000e+08,-55.5046
2.646933333e+08,-65.2533
2.650666667e+08,-70.3976
2.654400000e+08,-68.4697
2.658133333e+08,-72.5289
2.661866667e+08,-72.1721
2.665600000e+08,-67.3209
2.669333333e+08,-70.1235
2.673066667e+08,-70.6642
2.676800000e+08,-68.459
2.680533333e+08,-71.2291
2.684266667e+08,-73.5262
2.688000000e+08,-80.9776
2.691733333e+08,-67.7934
2.695466667e+08,-64.1446
2.699200000e+08,-55.8787
2.702933333e+08,-60.8173
2.706666667e+08,-72.6436
2.710400000e+08,-75.1646
2.714133333e+08,-65.7384
2.717866667e+08,-69.1054
2.721600000e+08,-72.8984
2.725333333e+08,-74.0559
2.729066667e+08,-74.5096
2.732800000e+08,-66.3865
2.736533333e+08,-67.9954
2.740266667e+08,-73.6223
2.744000000e+08,-71.1089
2.747733333e+08,-72.6934
2.751466667e+08,-67.1041
2.755200000e+08,-65.8799
2.758933333e+08,-46.5111
2.762666667e+08,-48.4249
2.766400000e+08,-76.5543
2.770133333e+08,-71.1735
2.773866667e+08,-69.8982
2.777600000e+08,-79.2464
2.781333333e+08,-73.1895
2.785066667e+08,-72.4441
2.788800000e+08,-67.3889
2.792533333e+08,-68.4126
2.796266667e+08,-69.9508
2.800000000e+08,-74.8912

