21pt29/tek0004NRM.csv

Model,MDO3104
Firmware Version,1.30

Waveform Type,RF_FD
Point Format,Y
Horizontal Units,Hz
Horizontal Scale,2.8e+07
,
Sample Interval,373333
Record Length,751
Gating,0.133155792277% to 100.0%
Probe Attenuation,1
Vertical Units,dBm
Vertical Offset,0
Vertical Scale,10
Vertical Position,0
Center Frequency,1.4e+08
Span,2.8e+08
Reference Level,-15
Label,
FREQUENCY,FD NORM
0.000000000e+00,-67.3647
3.733333333e+05,-76.4125
7.466666667e+05,-75.5276
1.120000000e+06,-75.4171
1.493333333e+06,-68.9839
1.866666667e+06,-67.6253
2.240000000e+06,-82.2207
2.613333333e+06,-69.0772
2.986666667e+06,-68.6502
3.360000000e+06,-63.885
3.733333333e+06,-66.0463
4.106666667e+06,-62.4347
4.480000000e+06,-62.0018
4.853333333e+06,-72.2739
5.226666667e+06,-68.9896
5.600000000e+06,-74.4393
5.973333333e+06,-66.4498
6.346666667e+06,-68.5994
6.720000000e+06,-68.4532
7.093333333e+06,-77.4671
7.466666667e+06,-73.1185
7.840000000e+06,-68.7483
8.213333333e+06,-66.6819
8.586666667e+06,-74.5588
8.960000000e+06,-71.71
9.333333333e+06,-67.8655
9.706666667e+06,-66.0274
1.008000000e+07,-68.6787
1.045333333e+07,-72.2787
1.082666667e+07,-73.1979
1.120000000e+07,-68.1118
1.157333333e+07,-68.4915
1.194666667e+07,-64.318
1.232000000e+07,-66.8106
1.269333333e+07,-69.4919
1.306666667e+07,-72.444
1.344000000e+07,-63.0341
1.381333333e+07,-65.0094
1.418666667e+07,-71.853
1.456000000e+07,-66.9773
1.493333333e+07,-68.667
1.530666667e+07,-70.5735
1.568000000e+07,-74.079
1.605333333e+07,-63.332
1.642666667e+07,-63.7201
1.680000000e+07,-70.0202
1.717333333e+07,-73.6453
1.754666667e+07,-70.9081
1.792000000e+07,-71.2392
1.829333333e+07,-68.9326
1.866666667e+07,-71.1265
1.904000000e+07,-62.8147
1.941333333e+07,-64.7783
1.978666667e+07,-68.3269
2.016000000e+07,-75.8503
2.053333333e+07,-73.9017
2.090666667e+07,-74.9874
2.128000000e+07,-65.991
2.165333333e+07,-72.9742
2.202666667e+07,-68.5063
2.240000000e+07,-68.8074
2.277333333e+07,-67.9787
2.314666667e+07,-69.6544
2.352000000e+07,-63.77
2.389333333e+07,-69.6458
2.426666667e+07,-61.5421
2.464000000e+07,-59.2186
2.501333333e+07,-52.7126
2.538666667e+07,-62.9198
2.576000000e+07,-71.5298
2.613333333e+07,-68.2913
2.650666667e+07,-75.7645
2.688000000e+07,-71.4791
2.725333333e+07,-66.2661
2.762666667e+07,-71.0245
2.800000000e+07,-70.0179
2.837333333e+07,-70.9565
2.874666667e+07,-65.3178
2.912000000e+07,-68.0762
2.949333333e+07,-68.2111
2.986666667e+07,-59.3007
3.024000000e+07,-60.5788
3.061333333e+07,-70.7352
3.098666667e+07,-77.8816
3.136000000e+07,-78.9692
3.173333333e+07,-76.121
3.210666667e+07,-74.1871
3.248000000e+07,-61.2378
3.285333333e+07,-60.5714
3.322666667e+07,-70.2205
3.360000000e+07,-69.4621
3.397333333e+07,-71.8328
3.434666667e+07,-68.8024
3.472000000e+07,-70.0912
3.509333333e+07,-62.0757
3.546666667e+07,-57.7205
3.584000000e+07,-59.5877
3.621333333e+07,-59.1171
3.658666667e+07,-75.9496
3.696000000e+07,-73.6094
3.733333333e+07,-71.2468
3.770666667e+07,-74.4517
3.808000000e+07,-58.9972
3.845333333e+07,-62.2225
3.882666667e+07,-74.8123
3.920000000e+07,-69.8939
3.957333333e+07,-70.8889
3.994666667e+07,-73.0246
4.032000000e+07,-73.1121
4.069333333e+07,-58.6356
4.106666667e+07,-58.7183
4.144000000e+07,-71.1893
4.181333333e+07,-70.45
4.218666667e+07,-71.8549
4.256000000e+07,-70.7564
4.293333333e+07,-71.3944
4.330666667e+07,-61.6099
4.368000000e+07,-60.6974
4.405333333e+07,-69.1045
4.442666667e+07,-75.4008
4.480000000e+07,-76.4046
4.517333333e+07,-75.2961
4.554666667e+07,-75.6216
4.592000000e+07,-62.3329
4.629333333e+07,-56.5393
4.666666667e+07,-57.4691
4.704000000e+07,-69.8934
4.741333333e+07,-71.221
4.778666667e+07,-67.8079
4.816000000e+07,-64.8722
4.853333333e+07,-69.3132
4.890666667e+07,-60.1589
4.928000000e+07,-58.5058
4.965333333e+07,-71.8186
5.002666667e+07,-78.9162
5.040000000e+07,-67.9223
5.077333333e+07,-68.2492
5.114666667e+07,-71.4583
5.152000000e+07,-59.8006
5.189333333e+07,-55.4131
5.226666667e+07,-67.4626
5.264000000e+07,-72.4338
5.301333333e+07,-74.8409
5.338666667e+07,-77.5728
5.376000000e+07,-69.9466
5.413333333e+07,-64.4838
5.450666667e+07,-56.8363
5.488000000e+07,-60.4655
5.525333333e+07,-72.4664
5.562666667e+07,-73.0682
5.600000000e+07,-75.7959
5.637333333e+07,-75.205
5.674666667e+07,-70.3572
5.712000000e+07,-53.3253
5.749333333e+07,-53.8358
5.786666667e+07,-73.2937
5.824000000e+07,-73.0396
5.861333333e+07,-77.135
5.898666667e+07,-76.314
5.936000000e+07,-77.4007
5.973333333e+07,-36.7735
6.010666667e+07,-34.4988
6.048000000e+07,-52.9083
6.085333333e+07,-72.1235
6.122666667e+07,-71.8565
6.160000000e+07,-73.0938
6.197333333e+07,-71.5872
6.234666667e+07,-57.5153
6.272000000e+07,-51.9526
6.309333333e+07,-59.8501
6.346666667e+07,-79.1208
6.384000000e+07,-73.9671
6.421333333e+07,-75.6557
6.458666667e+07,-73.3682
6.496000000e+07,-69.2424
6.533333333e+07,-54.1367
6.570666667e+07,-56.9149
6.608000000e+07,-73.7076
6.645333333e+07,-72.7
6.682666667e+07,-73.6893
6.720000000e+07,-69.5565
6.757333333e+07,-70.1338
6.794666667e+07,-57.957
6.832000000e+07,-57.812
6.869333333e+07,-67.9788
6.906666667e+07,-71.1523
6.944000000e+07,-77.8419
6.981333333e+07,-70.7155
7.018666667e+07,-69.7892
7.056000000e+07,-57.9323
7.093333333e+07,-55.7935
7.130666667e+07,-62.7786
7.168000000e+07,-67.0849
7.205333333e+07,-63.9109
7.242666667e+07,-69.2143
7.280000000e+07,-66.9705
7.317333333e+07,-62.1573
7.354666667e+07,-55.5946
7.392000000e+07,-58.3233
7.429333333e+07,-73.1195
7.466666667e+07,-67.2
7.504000000e+07,-68.5838
7.541333333e+07,-68.0903
7.578666667e+07,-69.4268
7.616000000e+07,-56.0467
7.653333333e+07,-55.9155
7.690666667e+07,-69.1677
7.728000000e+07,-71.2283
7.765333333e+07,-69.6549
7.802666667e+07,-70.4189
7.840000000e+07,-69.9528
7.877333333e+07,-59.0439
7.914666667e+07,-54.9777
7.952000000e+07,-63.7629
7.989333333e+07,-68.3515
8.026666667e+07,-73.5172
8.064000000e+07,-68.2995
8.101333333e+07,-67.6595
8.138666667e+07,-65.2729
8.176000000e+07,-55.6406
8.213333333e+07,-57.7718
8.250666667e+07,-71.033
8.288000000e+07,-74.0963
8.325333333e+07,-73.1715
8.362666667e+07,-63.3878
8.400000000e+07,-53.4671
8.437333333e+07,-55.4087
8.474666667e+07,-54.321
8.512000000e+07,-69.0723
8.549333333e+07,-69.1931
8.586666667e+07,-70.5599
8.624000000e+07,-76.6288
8.661333333e+07,-74.3234
8.698666667e+07,-58.9958
8.736000000e+07,-54.6314
8.773333333e+07,-69.8291
8.810666667e+07,-72.1917
8.848000000e+07,-76.226
8.885333333e+07,-74.6619
8.922666667e+07,-74.7052
8.960000000e+07,-58.6007
8.997333333e+07,-48.4503
9.034666667e+07,-53.9181
9.072000000e+07,-73.9568
9.109333333e+07,-77.9566
9.146666667e+07,-78.9525
9.184000000e+07,-77.0684
9.221333333e+07,-75.0525
9.258666667e+07,-55.1323
9.296000000e+07,-57.3598
9.333333333e+07,-69.324
9.370666667e+07,-68.4051
9.408000000e+07,-73.4693
9.445333333e+07,-72.1261
9.482666667e+07,-67.4746
9.520000000e+07,-53.7803
9.557333333e+07,-52.9368
9.594666667e+07,-53.9194
9.632000000e+07,-55.0731
9.669333333e+07,-68.7267
9.706666667e+07,-70.7807
9.744000000e+07,-67.6346
9.781333333e+07,-57.9923
9.818666667e+07,-53.0213
9.856000000e+07,-59.0759
9.893333333e+07,-66.8712
9.930666667e+07,-68.3838
9.968000000e+07,-69.3737
1.000533333e+08,-66.4973
1.004266667e+08,-66.0826
1.008000000e+08,-53.4478
1.011733333e+08,-55.6031
1.015466667e+08,-66.6519
1.019200000e+08,-63.4235
1.022933333e+08,-69.1414
1.026666667e+08,-69.5094
1.030400000e+08,-68.6753
1.034133333e+08,-55.5051
1.037866667e+08,-55.752
1.041600000e+08,-66.8336
1.045333333e+08,-66.3266
1.049066667e+08,-71.0776
1.052800000e+08,-71.9235
1.056533333e+08,-65.2296
1.060266667e+08,-56.2589
1.064000000e+08,-53.2258
1.067733333e+08,-57.2681
1.071466667e+08,-69.0136
1.075200000e+08,-68.5817
1.078933333e+08,-52.9884
1.082666667e+08,-55.3043
1.086400000e+08,-61.3965
1.090133333e+08,-55.0138
1.093866667e+08,-55.8959
1.097600000e+08,-70.151
1.101333333e+08,-74.3547
1.105066667e+08,-69.792
1.108800000e+08,-68.4857
1.112533333e+08,-69.2467
1.116266667e+08,-51.7065
1.120000000e+08,-50.5966
1.123733333e+08,-65.9745
1.127466667e+08,-67.0793
1.131200000e+08,-65.011
1.134933333e+08,-66.0542
1.138666667e+08,-69.2275
1.142400000e+08,-57.099
1.146133333e+08,-53.0678
1.149866667e+08,-66.9159
1.153600000e+08,-70.4398
1.157333333e+08,-64.4448
1.161066667e+08,-67.9742
1.164800000e+08,-67.1538
1.168533333e+08,-61.3336
1.172266667e+08,-50.1166
1.176000000e+08,-54.9775
1.179733333e+08,-68.56
1.183466667e+08,-71.2948
1.187200000e+08,-70.9452
1.190933333e+08,-72.6021
1.194666667e+08,-62.2454
1.198400000e+08,-36.426
1.202133333e+08,-37.2243
1.205866667e+08,-73.3442
1.209600000e+08,-74.5331
1.213333333e+08,-72.9152
1.217066667e+08,-69.9346
1.220800000e+08,-70.7757
1.224533333e+08,-51.8762
1.228266667e+08,-49.8453
1.232000000e+08,-65.0522
1.235733333e+08,-71.4498
1.239466667e+08,-72.085
1.243200000e+08,-68.1303
1.246933333e+08,-66.8556
1.250666667e+08,-58.4059
1.254400000e+08,-51.2257
1.258133333e+08,-57.0208
1.261866667e+08,-71.556
1.265600000e+08,-69.8063
1.269333333e+08,-74.6248
1.273066667e+08,-72.2949
1.276800000e+08,-68.8318
1.280533333e+08,-49.7935
1.284266667e+08,-52.2604
1.288000000e+08,-69.8015
1.291733333e+08,-63.3321
1.295466667e+08,-66.437
1.299200000e+08,-65.9028
1.302933333e+08,-66.9001
1.306666667e+08,-52.6878
1.310400000e+08,-53.2289
1.314133333e+08,-65.6218
1.317866667e+08,-50.6537
1.321600000e+08,-49.7559
1.325333333e+08,-65.4725
1.329066667e+08,-68.2914
1.332800000e+08,-52.4313
1.336533333e+08,-50.2598
1.340266667e+08,-54.5045
1.344000000e+08,-64.6072
1.347733333e+08,-62.9515
1.351466667e+08,-67.3524
1.355200000e+08,-66.0428
1.358933333e+08,-57.6931
1.362666667e+08,-52.493
1.366400000e+08,-53.0049
1.370133333e+08,-66.8331
1.373866667e+08,-68.0159
1.377600000e+08,-65.5653
1.381333333e+08,-69.1567
1.385066667e+08,-72.4713
1.388800000e+08,-51.2487
1.392533333e+08,-49.5014
1.396266667e+08,-66.3016
1.400000000e+08,-67.8917
1.403733333e+08,-69.5954
1.407466667e+08,-68.8055
1.411200000e+08,-61.7575
1.414933333e+08,-56.3045
1.418666667e+08,-52.769
1.422400000e+08,-65.0092
1.426133333e+08,-70.1196
1.429866667e+08,-66.846
1.433600000e+08,-82.1367
1.437333333e+08,-70.3315
1.441066667e+08,-62.8313
1.444800000e+08,-49.103
1.448533333e+08,-51.09
1.452266667e+08,-69.2862
1.456000000e+08,-64.8053
1.459733333e+08,-69.5784
1.463466667e+08,-77.4093
1.467200000e+08,-72.5118
1.470933333e+08,-51.1091
1.474666667e+08,-50.6145
1.478400000e+08,-70.1623
1.482133333e+08,-67.0854
1.485866667e+08,-70.163
1.489600000e+08,-70.0614
1.493333333e+08,-68.4821
1.497066667e+08,-51.9937
1.500800000e+08,-49.0524
1.504533333e+08,-64.4863
1.508266667e+08,-70.0084
1.512000000e+08,-71.6534
1.515733333e+08,-67.8254
1.519466667e+08,-71.3996
1.523200000e+08,-60.8924
1.526933333e+08,-51.3731
1.530666667e+08,-57.6825
1.534400000e+08,-66.2044
1.538133333e+08,-72.3542
1.541866667e+08,-71.9528
1.545600000e+08,-73.5496
1.549333333e+08,-67.1961
1.553066667e+08,-48.4401
1.556800000e+08,-50.7873
1.560533333e+08,-50.0038
1.564266667e+08,-63.8188
1.568000000e+08,-70.3628
1.571733333e+08,-68.6992
1.575466667e+08,-63.7163
1.579200000e+08,-53.5616
1.582933333e+08,-53.0641
1.586666667e+08,-65.39
1.590400000e+08,-71.6569
1.594133333e+08,-66.3052
1.597866667e+08,-66.8563
1.601600000e+08,-63.8903
1.605333333e+08,-52.7602
1.609066667e+08,-48.8527
1.612800000e+08,-53.3291
1.616533333e+08,-60.9085
1.620266667e+08,-64.0771
1.624000000e+08,-69.0284
1.627733333e+08,-70.0606
1.631466667e+08,-63.6938
1.635200000e+08,-52.229
1.638933333e+08,-53.4931
1.642666667e+08,-68.8284
1.646400000e+08,-65.5831
1.650133333e+08,-63.5421
1.653866667e+08,-66.6583
1.657600000e+08,-62.0207
1.661333333e+08,-51.2614
1.665066667e+08,-50.1172
1.668800000e+08,-63.0162
1.672533333e+08,-64.5591
1.676266667e+08,-67.1909
1.680000000e+08,-68.2526
1.683733333e+08,-66.9607
1.687466667e+08,-56.3495
1.691200000e+08,-55.4458
1.694933333e+08,-61.3364
1.698666667e+08,-72.4039
1.702400000e+08,-66.4024
1.706133333e+08,-67.1757
1.709866667e+08,-65.2509
1.713600000e+08,-56.9279
1.717333333e+08,-47.8964
1.721066667e+08,-48.6764
1.724800000e+08,-63.2455
1.728533333e+08,-67.7814
1.732266667e+08,-66.6984
1.736000000e+08,-70.9472
1.739733333e+08,-68.3997
1.743466667e+08,-53.0614
1.747200000e+08,-52.1598
1.750933333e+08,-63.8747
1.754666667e+08,-63.8351
1.758400000e+08,-70.6787
1.762133333e+08,-67.7165
1.765866667e+08,-66.1769
1.769600000e+08,-52.5401
1.773333333e+08,-47.2478
1.777066667e+08,-63.0965
1.780800000e+08,-71.0536
1.784533333e+08,-76.6112
1.788266667e+08,-75.2474
1.792000000e+08,-69.564
1.795733333e+08,-52.1308
1.799466667e+08,-40.2746
1.803200000e+08,-45.4806
1.806933333e+08,-70.3698
1.810666667e+08,-69.8377
1.814400000e+08,-70.7146
1.818133333e+08,-74.198
1.821866667e+08,-65.3671
1.825600000e+08,-47.3766
1.829333333e+08,-48.3905
1.833066667e+08,-70.6677
1.836800000e+08,-68.9314
1.840533333e+08,-72.5461
1.844266667e+08,-74.6753
1.848000000e+08,-70.7445
1.851733333e+08,-55.1326
1.855466667e+08,-53.4954
1.859200000e+08,-64.4084
1.862933333e+08,-67.1729
1.866666667e+08,-67.8897
1.870400000e+08,-69.3571
1.874133333e+08,-72.378
1.877866667e+08,-54.9728
1.881600000e+08,-48.874
1.885333333e+08,-54.2965
1.889066667e+08,-70.9805
1.892800000e+08,-69.0011
1.896533333e+08,-67.5625
1.900266667e+08,-66.4793
1.904000000e+08,-67.9811
1.907733333e+08,-53.1075
1.911466667e+08,-54.2249
1.915200000e+08,-74.3741
1.918933333e+08,-57.764
1.922666667e+08,-54.0272
1.926400000e+08,-62.6818
1.930133333e+08,-63.1673
1.933866667e+08,-49.0043
1.937600000e+08,-49.1716
1.941333333e+08,-60.4484
1.945066667e+08,-68.3304
1.948800000e+08,-62.3423
1.952533333e+08,-66.3912
1.956266667e+08,-66.1884
1.960000000e+08,-59.3534
1.963733333e+08,-54.5973
1.967466667e+08,-56.5504
1.971200000e+08,-71.7644
1.974933333e+08,-68.1659
1.978666667e+08,-69.2558
1.982400000e+08,-65.7028
1.986133333e+08,-56.2203
1.989866667e+08,-48.2161
1.993600000e+08,-48.2698
1.997333333e+08,-65.2858
2.001066667e+08,-66.6547
2.004800000e+08,-69.785
2.008533333e+08,-74.6424
2.012266667e+08,-70.3642
2.016000000e+08,-56.8781
2.019733333e+08,-54.8726
2.023466667e+08,-67.556
2.027200000e+08,-73.2758
2.030933333e+08,-65.8391
2.034666667e+08,-67.6979
2.038400000e+08,-47.6948
2.042133333e+08,-49.1776
2.045866667e+08,-47.9802
2.049600000e+08,-58.328
2.053333333e+08,-72.0829
2.057066667e+08,-71.9933
2.060800000e+08,-76.3227
2.064533333e+08,-69.7627
2.068266667e+08,-60.2402
2.072000000e+08,-54.0759
2.075733333e+08,-57.6771
2.079466667e+08,-63.6082
2.083200000e+08,-62.7722
2.086933333e+08,-65.7996
2.090666667e+08,-66.3833
2.094400000e+08,-64.6032
2.098133333e+08,-47.3726
2.101866667e+08,-47.0808
2.105600000e+08,-71.8893
2.109333333e+08,-64.9784
2.113066667e+08,-69.2147
2.116800000e+08,-65.3056
2.120533333e+08,-70.2409
2.124266667e+08,-58.0687
2.128000000e+08,-54.2221
2.131733333e+08,-66.0847
2.135466667e+08,-67.4043
2.139200000e+08,-65.7375
2.142933333e+08,-71.6808
2.146666667e+08,-69.3078
2.150400000e+08,-59.7119
2.154133333e+08,-48.1278
2.157866667e+08,-53.0959
2.161600000e+08,-64.2168
2.165333333e+08,-71.3626
2.169066667e+08,-68.3053
2.172800000e+08,-67.6353
2.176533333e+08,-65.2772
2.180266667e+08,-53.6741
2.184000000e+08,-54.7375
2.187733333e+08,-68.6463
2.191466667e+08,-64.4091
2.195200000e+08,-67.442
2.198933333e+08,-68.692
2.202666667e+08,-66.1289
2.206400000e+08,-47.9188
2.210133333e+08,-47.8966
2.213866667e+08,-57.2668
2.217600000e+08,-71.9069
2.221333333e+08,-66.9475
2.225066667e+08,-67.1748
2.228800000e+08,-64.0107
2.232533333e+08,-56.4937
2.236266667e+08,-53.3917
2.240000000e+08,-56.9532
2.243733333e+08,-66.3445
2.247466667e+08,-68.7164
2.251200000e+08,-66.2443
2.254933333e+08,-68.4662
2.258666667e+08,-57.3497
2.262400000e+08,-48.3202
2.266133333e+08,-48.2436
2.269866667e+08,-64.1273
2.273600000e+08,-63.1704
2.277333333e+08,-49.6342
2.281066667e+08,-47.6596
2.284800000e+08,-63.3605
2.288533333e+08,-57.0674
2.292266667e+08,-54.6749
2.296000000e+08,-65.7026
2.299733333e+08,-72.7067
2.303466667e+08,-71.2644
2.307200000e+08,-68.3113
2.310933333e+08,-66.2821
2.314666667e+08,-53.0844
2.318400000e+08,-47.2531
2.322133333e+08,-52.9238
2.325866667e+08,-66.7649
2.329600000e+08,-67.6781
2.333333333e+08,-68.682
2.337066667e+08,-69.4811
2.340800000e+08,-64.2893
2.344533333e+08,-52.9053
2.348266667e+08,-54.4664
2.352000000e+08,-70.3922
2.355733333e+08,-74.0125
2.359466667e+08,-68.2767
2.363200000e+08,-70.8136
2.366933333e+08,-69.5355
2.370666667e+08,-47.557
2.374400000e+08,-46.4071
2.378133333e+08,-71.9688
2.381866667e+08,-70.6804
2.385600000e+08,-71.4654
2.389333333e+08,-70.662
2.393066667e+08,-72.3004
2.396800000e+08,-52.8066
2.400533333e+08,-48.8977
2.404266667e+08,-50.0062
2.408000000e+08,-72.5251
2.411733333e+08,-74.9036
2.415466667e+08,-74.9695
2.419200000e+08,-75.8285
2.422933333e+08,-58.5263
2.426666667e+08,-46.2867
2.430400000e+08,-51.0932
2.434133333e+08,-74.6086
2.437866667e+08,-70.768
2.441600000e+08,-72.9713
2.445333333e+08,-71.2338
2.449066667e+08,-72.337
2.452800000e+08,-53.1659
2.456533333e+08,-54.7022
2.460266667e+08,-69.4082
2.464000000e+08,-72.7132
2.467733333e+08,-69.539
2.471466667e+08,-68.6327
2.475200000e+08,-68.8043
2.478933333e+08,-48.6994
2.482666667e+08,-47.7135
2.486400000e+08,-57.3518
2.490133333e+08,-67.2452
2.493866667e+08,-68.7481
2.497600000e+08,-70.0148
2.501333333e+08,-68.1529
2.505066667e+08,-59.2849
2.508800000e+08,-53.5103
2.512533333e+08,-57.9881
2.516266667e+08,-54.9831
2.520000000e+08,-48.1245
2.523733333e+08,-60.0394
2.527466667e+08,-67.0361
2.531200000e+08,-62.9224
2.534933333e+08,-48.934
2.538666667e+08,-49.623
2.542400000e+08,-66.3403
2.546133333e+08,-65.2633
2.549866667e+08,-65.2898
2.553600000e+08,-68.3776
2.557333333e+08,-70.2009
2.561066667e+08,-54.8397
2.564800000e+08,-54.56
2.568533333e+08,-66.3056
2.572266667e+08,-70.5534
2.576000000e+08,-66.5256
2.579733333e+08,-68.2757
2.583466667e+08,-65.1823
2.587200000e+08,-52.3176
2.590933333e+08,-48.5422
2.594666667e+08,-52.6203
2.598400000e+08,-69.7321
2.602133333e+08,-68.5949
2.605866667e+08,-71.8383
2.609600000e+08,-73.3248
2.613333333e+08,-64.5864
2.617066667e+08,-55.0323
2.620800000e+08,-55.3537
2.624533333e+08,-75.0489
2.628266667e+08,-69.092
2.632000000e+08,-69.9151
2.635733333e+08,-67.7634
2.639466667e+08,-56.812
2.643200000e+08,-48.8525
2.646933333e+08,-47.7623
2.650666667e+08,-71.6574
2.654400000e+08,-67.9539
2.658133333e+08,-67.0901
2.661866667e+08,-70.2037
2.665600000e+08,-75.2149
2.669333333e+08,-59.0924
2.673066667e+08,-52.9398
2.676800000e+08,-62.6198
2.680533333e+08,-74.0666
2.684266667e+08,-73.2578
2.688000000e+08,-77.615
2.691733333e+08,-73.9636
2.695466667e+08,-62.024
2.699200000e+08,-46.8201
2.702933333e+08,-49.984
2.706666667e+08,-72.1476
2.710400000e+08,-69.1931
2.714133333e+08,-70.747
2.717866667e+08,-72.4273
2.721600000e+08,-71.6361
2.725333333e+08,-53.0418
2.729066667e+08,-53.442
2.732800000e+08,-75.5656
2.736533333e+08,-73.0245
2.740266667e+08,-74.2724
2.744000000e+08,-75.9019
2.747733333e+08,-67.5075
2.751466667e+08,-51.683
2.755200000e+08,-49.1434
2.758933333e+08,-46.6738
2.762666667e+08,-49.0742
2.766400000e+08,-63.6059
2.770133333e+08,-67.5468
2.773866667e+08,-74.5126
2.777600000e+08,-64.5832
2.781333333e+08,-55.0545
2.785066667e+08,-61.3731
2.788800000e+08,-65.7563
2.792533333e+08,-68.446
2.796266667e+08,-70.4749
2.800000000e+08,-67.4382

