3/tek0104NRM.csv

Model,MDO3104
Firmware Version,1.30

Waveform Type,RF_FD
Point Format,Y
Horizontal Units,Hz
Horizontal Scale,2.8e+07
,
Sample Interval,373333
Record Length,751
Gating,0.133155792277% to 100.0%
Probe Attenuation,1
Vertical Units,dBm
Vertical Offset,0
Vertical Scale,10
Vertical Position,0
Center Frequency,1.4e+08
Span,2.8e+08
Reference Level,-15
Label,
FREQUENCY,FD NORM
0.000000000e+00,-68.305
3.733333333e+05,-76.5067
7.466666667e+05,-77.5982
1.120000000e+06,-76.4557
1.493333333e+06,-77.216
1.866666667e+06,-68.84
2.240000000e+06,-75.653
2.613333333e+06,-67.314
2.986666667e+06,-69.6178
3.360000000e+06,-60.1419
3.733333333e+06,-61.3697
4.106666667e+06,-64.4577
4.480000000e+06,-61.824
4.853333333e+06,-67.1921
5.226666667e+06,-70.5654
5.600000000e+06,-68.7626
5.973333333e+06,-63.3466
6.346666667e+06,-65.6124
6.720000000e+06,-71.0326
7.093333333e+06,-79.4434
7.466666667e+06,-65.562
7.840000000e+06,-63.2205
8.213333333e+06,-65.7288
8.586666667e+06,-74.0658
8.960000000e+06,-75.3553
9.333333333e+06,-71.6806
9.706666667e+06,-64.9901
1.008000000e+07,-67.8347
1.045333333e+07,-66.395
1.082666667e+07,-68.4735
1.120000000e+07,-71.1928
1.157333333e+07,-68.8521
1.194666667e+07,-64.2669
1.232000000e+07,-73.5758
1.269333333e+07,-72.5728
1.306666667e+07,-75.3109
1.344000000e+07,-62.4761
1.381333333e+07,-62.5307
1.418666667e+07,-77.8623
1.456000000e+07,-68.5654
1.493333333e+07,-68.7484
1.530666667e+07,-70.7708
1.568000000e+07,-69.3916
1.605333333e+07,-70.2036
1.642666667e+07,-66.5372
1.680000000e+07,-69.7607
1.717333333e+07,-67.866
1.754666667e+07,-66.292
1.792000000e+07,-55.4852
1.829333333e+07,-59.4784
1.866666667e+07,-68.2379
1.904000000e+07,-64.809
1.941333333e+07,-65.8064
1.978666667e+07,-67.5406
2.016000000e+07,-70.1958
2.053333333e+07,-69.2819
2.090666667e+07,-69.2109
2.128000000e+07,-75.1277
2.165333333e+07,-62.5903
2.202666667e+07,-62.4777
2.240000000e+07,-66.2289
2.277333333e+07,-62.1241
2.314666667e+07,-72.4399
2.352000000e+07,-67.8823
2.389333333e+07,-62.0162
2.426666667e+07,-60.4349
2.464000000e+07,-59.6177
2.501333333e+07,-53.6333
2.538666667e+07,-66.5009
2.576000000e+07,-69.6184
2.613333333e+07,-66.4988
2.650666667e+07,-69.5727
2.688000000e+07,-63.897
2.725333333e+07,-62.2523
2.762666667e+07,-67.4666
2.800000000e+07,-74.3366
2.837333333e+07,-73.7877
2.874666667e+07,-72.9259
2.912000000e+07,-65.8068
2.949333333e+07,-67.8985
2.986666667e+07,-54.4945
3.024000000e+07,-55.3325
3.061333333e+07,-67.8725
3.098666667e+07,-65.493
3.136000000e+07,-64.8001
3.173333333e+07,-64.5221
3.210666667e+07,-70.1577
3.248000000e+07,-60.7189
3.285333333e+07,-59.2532
3.322666667e+07,-67.0488
3.360000000e+07,-72.0892
3.397333333e+07,-70.2721
3.434666667e+07,-67.4482
3.472000000e+07,-69.4671
3.509333333e+07,-65.0023
3.546666667e+07,-58.9479
3.584000000e+07,-48.8584
3.621333333e+07,-49.3724
3.658666667e+07,-66.7873
3.696000000e+07,-70.9417
3.733333333e+07,-67.5581
3.770666667e+07,-66.7038
3.808000000e+07,-59.3657
3.845333333e+07,-62.5942
3.882666667e+07,-64.1497
3.920000000e+07,-66.5221
3.957333333e+07,-66.0214
3.994666667e+07,-70.4202
4.032000000e+07,-62.2949
4.069333333e+07,-57.6349
4.106666667e+07,-57.2068
4.144000000e+07,-63.4271
4.181333333e+07,-55.6578
4.218666667e+07,-54.4842
4.256000000e+07,-66.6049
4.293333333e+07,-66.5111
4.330666667e+07,-60.4562
4.368000000e+07,-59.9341
4.405333333e+07,-67.6419
4.442666667e+07,-66.1327
4.480000000e+07,-62.6867
4.517333333e+07,-69.4906
4.554666667e+07,-61.8602
4.592000000e+07,-61.1423
4.629333333e+07,-52.8218
4.666666667e+07,-53.6385
4.704000000e+07,-59.8612
4.741333333e+07,-60.3446
4.778666667e+07,-39.7636
4.816000000e+07,-39.1388
4.853333333e+07,-55.5642
4.890666667e+07,-62.3522
4.928000000e+07,-55.041
4.965333333e+07,-53.6847
5.002666667e+07,-55.4457
5.040000000e+07,-53.6685
5.077333333e+07,-57.2312
5.114666667e+07,-58.438
5.152000000e+07,-59.4503
5.189333333e+07,-55.3845
5.226666667e+07,-59.4792
5.264000000e+07,-62.1204
5.301333333e+07,-58.19
5.338666667e+07,-61.2852
5.376000000e+07,-49.4936
5.413333333e+07,-48.3671
5.450666667e+07,-58.1036
5.488000000e+07,-58.6326
5.525333333e+07,-61.828
5.562666667e+07,-62.9738
5.600000000e+07,-66.24
5.637333333e+07,-63.841
5.674666667e+07,-56.9705
5.712000000e+07,-59.2557
5.749333333e+07,-56.3245
5.786666667e+07,-55.8848
5.824000000e+07,-54.8475
5.861333333e+07,-55.8604
5.898666667e+07,-56.6465
5.936000000e+07,-57.2421
5.973333333e+07,-37.1454
6.010666667e+07,-34.4003
6.048000000e+07,-50.0815
6.085333333e+07,-56.8937
6.122666667e+07,-56.7381
6.160000000e+07,-52.4751
6.197333333e+07,-58.0695
6.234666667e+07,-54.2623
6.272000000e+07,-49.7281
6.309333333e+07,-54.3125
6.346666667e+07,-55.3301
6.384000000e+07,-63.3306
6.421333333e+07,-64.7354
6.458666667e+07,-66.7589
6.496000000e+07,-61.5649
6.533333333e+07,-51.2543
6.570666667e+07,-47.1246
6.608000000e+07,-45.9613
6.645333333e+07,-59.4377
6.682666667e+07,-58.1998
6.720000000e+07,-59.73
6.757333333e+07,-56.5506
6.794666667e+07,-53.9183
6.832000000e+07,-52.2799
6.869333333e+07,-56.0825
6.906666667e+07,-55.8365
6.944000000e+07,-57.3192
6.981333333e+07,-58.5215
7.018666667e+07,-58.7465
7.056000000e+07,-58.055
7.093333333e+07,-52.5365
7.130666667e+07,-54.2213
7.168000000e+07,-48.7617
7.205333333e+07,-43.4886
7.242666667e+07,-53.3249
7.280000000e+07,-65.8538
7.317333333e+07,-64.1203
7.354666667e+07,-58.6667
7.392000000e+07,-61.381
7.429333333e+07,-65.9569
7.466666667e+07,-69.4138
7.504000000e+07,-63.7457
7.541333333e+07,-62.9701
7.578666667e+07,-63.093
7.616000000e+07,-53.5933
7.653333333e+07,-53.3343
7.690666667e+07,-64.9335
7.728000000e+07,-61.0413
7.765333333e+07,-57.7655
7.802666667e+07,-53.8743
7.840000000e+07,-62.9614
7.877333333e+07,-55.1086
7.914666667e+07,-52.7347
7.952000000e+07,-57.0569
7.989333333e+07,-61.9538
8.026666667e+07,-61.0355
8.064000000e+07,-62.212
8.101333333e+07,-63.4105
8.138666667e+07,-60.865
8.176000000e+07,-54.0507
8.213333333e+07,-57.4696
8.250666667e+07,-61.8776
8.288000000e+07,-60.6161
8.325333333e+07,-59.0359
8.362666667e+07,-49.758
8.400000000e+07,-42.2262
8.437333333e+07,-48.333
8.474666667e+07,-52.4331
8.512000000e+07,-69.0307
8.549333333e+07,-59.6399
8.586666667e+07,-61.1199
8.624000000e+07,-63.6468
8.661333333e+07,-65.4208
8.698666667e+07,-61.3042
8.736000000e+07,-56.9496
8.773333333e+07,-66.913
8.810666667e+07,-67.3661
8.848000000e+07,-64.0881
8.885333333e+07,-64.0475
8.922666667e+07,-64.5973
8.960000000e+07,-57.0033
8.997333333e+07,-49.2182
9.034666667e+07,-57.998
9.072000000e+07,-66.3324
9.109333333e+07,-68.7367
9.146666667e+07,-63.2785
9.184000000e+07,-63.6494
9.221333333e+07,-68.9587
9.258666667e+07,-55.7571
9.296000000e+07,-57.619
9.333333333e+07,-71.4485
9.370666667e+07,-66.0496
9.408000000e+07,-65.3468
9.445333333e+07,-64.8456
9.482666667e+07,-64.7985
9.520000000e+07,-51.0674
9.557333333e+07,-50.2041
9.594666667e+07,-45.1882
9.632000000e+07,-51.9135
9.669333333e+07,-65.7665
9.706666667e+07,-68.2599
9.744000000e+07,-63.4688
9.781333333e+07,-58.5585
9.818666667e+07,-53.4694
9.856000000e+07,-59.7125
9.893333333e+07,-61.6618
9.930666667e+07,-67.9239
9.968000000e+07,-67.1163
1.000533333e+08,-62.7655
1.004266667e+08,-61.6189
1.008000000e+08,-53.8253
1.011733333e+08,-59.1006
1.015466667e+08,-66.0775
1.019200000e+08,-57.7628
1.022933333e+08,-58.2935
1.026666667e+08,-61.4277
1.030400000e+08,-61.4416
1.034133333e+08,-52.5517
1.037866667e+08,-53.0397
1.041600000e+08,-64.4707
1.045333333e+08,-68.3371
1.049066667e+08,-68.0858
1.052800000e+08,-68.0921
1.056533333e+08,-68.0222
1.060266667e+08,-55.1
1.064000000e+08,-52.8083
1.067733333e+08,-57.2666
1.071466667e+08,-62.0569
1.075200000e+08,-68.4275
1.078933333e+08,-43.988
1.082666667e+08,-45.9822
1.086400000e+08,-59.8649
1.090133333e+08,-53.876
1.093866667e+08,-55.2001
1.097600000e+08,-59.5052
1.101333333e+08,-66.372
1.105066667e+08,-65.6951
1.108800000e+08,-63.0422
1.112533333e+08,-65.7434
1.116266667e+08,-53.0558
1.120000000e+08,-50.5248
1.123733333e+08,-62.2857
1.127466667e+08,-62.0462
1.131200000e+08,-66.0693
1.134933333e+08,-63.2795
1.138666667e+08,-61.9785
1.142400000e+08,-58.6232
1.146133333e+08,-53.3414
1.149866667e+08,-64.8629
1.153600000e+08,-69.439
1.157333333e+08,-68.8303
1.161066667e+08,-67.3129
1.164800000e+08,-66.5907
1.168533333e+08,-60.3614
1.172266667e+08,-49.7544
1.176000000e+08,-54.496
1.179733333e+08,-65.8531
1.183466667e+08,-67.0758
1.187200000e+08,-75.3375
1.190933333e+08,-71.0761
1.194666667e+08,-59.3775
1.198400000e+08,-35.411
1.202133333e+08,-36.0983
1.205866667e+08,-68.5798
1.209600000e+08,-69.5357
1.213333333e+08,-68.5783
1.217066667e+08,-66.886
1.220800000e+08,-63.9667
1.224533333e+08,-49.4872
1.228266667e+08,-47.3539
1.232000000e+08,-61.1013
1.235733333e+08,-73.1612
1.239466667e+08,-64.8907
1.243200000e+08,-62.8275
1.246933333e+08,-67.6687
1.250666667e+08,-60.1779
1.254400000e+08,-51.2644
1.258133333e+08,-57.5784
1.261866667e+08,-55.9962
1.265600000e+08,-65.8254
1.269333333e+08,-66.5689
1.273066667e+08,-67.1144
1.276800000e+08,-60.7617
1.280533333e+08,-49.9403
1.284266667e+08,-52.1399
1.288000000e+08,-63.825
1.291733333e+08,-67.473
1.295466667e+08,-65.9005
1.299200000e+08,-66.0645
1.302933333e+08,-64.9705
1.306666667e+08,-51.9739
1.310400000e+08,-52.3318
1.314133333e+08,-61.7432
1.317866667e+08,-54.2931
1.321600000e+08,-53.187
1.325333333e+08,-71.7436
1.329066667e+08,-64.6857
1.332800000e+08,-50.7383
1.336533333e+08,-49.3378
1.340266667e+08,-53.5465
1.344000000e+08,-62.6111
1.347733333e+08,-68.097
1.351466667e+08,-68.5681
1.355200000e+08,-63.0274
1.358933333e+08,-60.6158
1.362666667e+08,-52.5491
1.366400000e+08,-53.0824
1.370133333e+08,-63.2356
1.373866667e+08,-69.0658
1.377600000e+08,-66.5202
1.381333333e+08,-64.1312
1.385066667e+08,-63.7802
1.388800000e+08,-50.079
1.392533333e+08,-49.1083
1.396266667e+08,-62.1214
1.400000000e+08,-64.0803
1.403733333e+08,-65.6466
1.407466667e+08,-65.0049
1.411200000e+08,-66.3027
1.414933333e+08,-56.2203
1.418666667e+08,-52.7319
1.422400000e+08,-60.7679
1.426133333e+08,-66.5119
1.429866667e+08,-67.8901
1.433600000e+08,-63.5995
1.437333333e+08,-51.8526
1.441066667e+08,-47.9724
1.444800000e+08,-49.5019
1.448533333e+08,-51.7151
1.452266667e+08,-63.3592
1.456000000e+08,-57.6397
1.459733333e+08,-66.1127
1.463466667e+08,-66.2421
1.467200000e+08,-64.9229
1.470933333e+08,-51.5599
1.474666667e+08,-50.9795
1.478400000e+08,-70.6705
1.482133333e+08,-66.56
1.485866667e+08,-71.5426
1.489600000e+08,-64.5748
1.493333333e+08,-64.7578
1.497066667e+08,-50.3882
1.500800000e+08,-47.8782
1.504533333e+08,-65.6386
1.508266667e+08,-63.1432
1.512000000e+08,-65.0693
1.515733333e+08,-69.6841
1.519466667e+08,-72.8572
1.523200000e+08,-58.9589
1.526933333e+08,-50.4245
1.530666667e+08,-55.9323
1.534400000e+08,-64.9767
1.538133333e+08,-76.5999
1.541866667e+08,-65.7934
1.545600000e+08,-66.7837
1.549333333e+08,-63.8895
1.553066667e+08,-48.3858
1.556800000e+08,-49.9936
1.560533333e+08,-49.0772
1.564266667e+08,-60.8857
1.568000000e+08,-67.4802
1.571733333e+08,-65.5689
1.575466667e+08,-61.0542
1.579200000e+08,-52.1424
1.582933333e+08,-52.2966
1.586666667e+08,-61.9981
1.590400000e+08,-65.4337
1.594133333e+08,-65.6288
1.597866667e+08,-69.7749
1.601600000e+08,-63.311
1.605333333e+08,-53.5157
1.609066667e+08,-49.7852
1.612800000e+08,-53.0058
1.616533333e+08,-62.4293
1.620266667e+08,-65.0828
1.624000000e+08,-65.736
1.627733333e+08,-62.5592
1.631466667e+08,-58.8621
1.635200000e+08,-52.1474
1.638933333e+08,-54.3104
1.642666667e+08,-67.0599
1.646400000e+08,-63.9584
1.650133333e+08,-66.3844
1.653866667e+08,-66.3012
1.657600000e+08,-61.8403
1.661333333e+08,-49.5375
1.665066667e+08,-48.0351
1.668800000e+08,-58.9874
1.672533333e+08,-62.5623
1.676266667e+08,-57.1558
1.680000000e+08,-49.5829
1.683733333e+08,-60.2628
1.687466667e+08,-56.7875
1.691200000e+08,-51.8593
1.694933333e+08,-55.8104
1.698666667e+08,-64.2476
1.702400000e+08,-68.3895
1.706133333e+08,-65.0129
1.709866667e+08,-66.6322
1.713600000e+08,-56.8844
1.717333333e+08,-47.5254
1.721066667e+08,-48.5973
1.724800000e+08,-69.6073
1.728533333e+08,-63.5737
1.732266667e+08,-65.9377
1.736000000e+08,-65.3852
1.739733333e+08,-66.9191
1.743466667e+08,-52.7984
1.747200000e+08,-51.1207
1.750933333e+08,-65.1823
1.754666667e+08,-65.169
1.758400000e+08,-69.6117
1.762133333e+08,-65.4844
1.765866667e+08,-65.1698
1.769600000e+08,-51.3481
1.773333333e+08,-47.3352
1.777066667e+08,-58.3615
1.780800000e+08,-72.5626
1.784533333e+08,-72.5341
1.788266667e+08,-71.012
1.792000000e+08,-68.2674
1.795733333e+08,-51.6505
1.799466667e+08,-38.1716
1.803200000e+08,-42.7814
1.806933333e+08,-73.2383
1.810666667e+08,-72.402
1.814400000e+08,-64.7966
1.818133333e+08,-67.8732
1.821866667e+08,-66.1173
1.825600000e+08,-46.2635
1.829333333e+08,-47.1429
1.833066667e+08,-61.8094
1.836800000e+08,-70.5493
1.840533333e+08,-66.451
1.844266667e+08,-63.0517
1.848000000e+08,-69.071
1.851733333e+08,-52.774
1.855466667e+08,-50.9585
1.859200000e+08,-61.1118
1.862933333e+08,-64.7001
1.866666667e+08,-70.588
1.870400000e+08,-61.3456
1.874133333e+08,-63.301
1.877866667e+08,-54.4615
1.881600000e+08,-47.3131
1.885333333e+08,-51.4171
1.889066667e+08,-62.9605
1.892800000e+08,-62.854
1.896533333e+08,-67.2213
1.900266667e+08,-63.288
1.904000000e+08,-65.7656
1.907733333e+08,-52.4331
1.911466667e+08,-56.7441
1.915200000e+08,-55.3425
1.918933333e+08,-50.0024
1.922666667e+08,-50.2805
1.926400000e+08,-64.2734
1.930133333e+08,-60.2615
1.933866667e+08,-46.789
1.937600000e+08,-46.881
1.941333333e+08,-56.5303
1.945066667e+08,-63.7429
1.948800000e+08,-68.652
1.952533333e+08,-64.3699
1.956266667e+08,-64.0096
1.960000000e+08,-54.9765
1.963733333e+08,-53.2491
1.967466667e+08,-59.2751
1.971200000e+08,-65.873
1.974933333e+08,-66.4787
1.978666667e+08,-67.2258
1.982400000e+08,-61.4263
1.986133333e+08,-55.8379
1.989866667e+08,-47.2153
1.993600000e+08,-47.6248
1.997333333e+08,-61.0607
2.001066667e+08,-67.7255
2.004800000e+08,-67.4519
2.008533333e+08,-69.481
2.012266667e+08,-64.4653
2.016000000e+08,-55.1273
2.019733333e+08,-52.9694
2.023466667e+08,-64.8457
2.027200000e+08,-65.4962
2.030933333e+08,-65.8953
2.034666667e+08,-64.6861
2.038400000e+08,-44.1284
2.042133333e+08,-45.1065
2.045866667e+08,-47.6794
2.049600000e+08,-56.9751
2.053333333e+08,-61.717
2.057066667e+08,-61.7044
2.060800000e+08,-60.518
2.064533333e+08,-60.9237
2.068266667e+08,-61.6526
2.072000000e+08,-51.0767
2.075733333e+08,-53.0801
2.079466667e+08,-67.6482
2.083200000e+08,-65.9592
2.086933333e+08,-64.7783
2.090666667e+08,-64.2907
2.094400000e+08,-70.6078
2.098133333e+08,-46.403
2.101866667e+08,-46.5656
2.105600000e+08,-64.2259
2.109333333e+08,-70.1752
2.113066667e+08,-67.6508
2.116800000e+08,-65.2306
2.120533333e+08,-67.5826
2.124266667e+08,-55.6783
2.128000000e+08,-52.0292
2.131733333e+08,-61.7615
2.135466667e+08,-63.2504
2.139200000e+08,-64.0636
2.142933333e+08,-66.1512
2.146666667e+08,-63.5824
2.150400000e+08,-57.478
2.154133333e+08,-47.7202
2.157866667e+08,-50.1838
2.161600000e+08,-48.4434
2.165333333e+08,-63.8139
2.169066667e+08,-64.4159
2.172800000e+08,-64.7424
2.176533333e+08,-67.6031
2.180266667e+08,-53.8338
2.184000000e+08,-58.4556
2.187733333e+08,-62.172
2.191466667e+08,-64.4028
2.195200000e+08,-64.5512
2.198933333e+08,-61.388
2.202666667e+08,-57.3387
2.206400000e+08,-47.9241
2.210133333e+08,-47.8757
2.213866667e+08,-56.2948
2.217600000e+08,-65.7981
2.221333333e+08,-69.8793
2.225066667e+08,-63.1589
2.228800000e+08,-67.1608
2.232533333e+08,-56.3858
2.236266667e+08,-54.9218
2.240000000e+08,-57.3809
2.243733333e+08,-66.6581
2.247466667e+08,-68.7732
2.251200000e+08,-65.4192
2.254933333e+08,-68.5043
2.258666667e+08,-57.356
2.262400000e+08,-47.8219
2.266133333e+08,-47.7406
2.269866667e+08,-63.7762
2.273600000e+08,-68.4171
2.277333333e+08,-52.9705
2.281066667e+08,-50.9721
2.284800000e+08,-65.853
2.288533333e+08,-56.4335
2.292266667e+08,-53.2374
2.296000000e+08,-63.7766
2.299733333e+08,-64.0653
2.303466667e+08,-65.4272
2.307200000e+08,-63.7554
2.310933333e+08,-68.2259
2.314666667e+08,-52.8102
2.318400000e+08,-46.2635
2.322133333e+08,-51.9534
2.325866667e+08,-69.8566
2.329600000e+08,-66.8235
2.333333333e+08,-67.9318
2.337066667e+08,-66.495
2.340800000e+08,-65.9319
2.344533333e+08,-52.3916
2.348266667e+08,-53.4701
2.352000000e+08,-66.7892
2.355733333e+08,-65.0053
2.359466667e+08,-68.2429
2.363200000e+08,-72.2324
2.366933333e+08,-66.5299
2.370666667e+08,-46.6274
2.374400000e+08,-45.5212
2.378133333e+08,-70.7426
2.381866667e+08,-71.6707
2.385600000e+08,-77.8677
2.389333333e+08,-69.0572
2.393066667e+08,-53.4529
2.396800000e+08,-47.8299
2.400533333e+08,-46.9085
2.404266667e+08,-56.3046
2.408000000e+08,-72.9429
2.411733333e+08,-69.3771
2.415466667e+08,-64.3026
2.419200000e+08,-67.7039
2.422933333e+08,-59.2746
2.426666667e+08,-47.1682
2.430400000e+08,-52.9376
2.434133333e+08,-74.195
2.437866667e+08,-76.5818
2.441600000e+08,-63.8763
2.445333333e+08,-64.0061
2.449066667e+08,-67.6298
2.452800000e+08,-52.2823
2.456533333e+08,-53.7544
2.460266667e+08,-65.4023
2.464000000e+08,-73.4331
2.467733333e+08,-70.7487
2.471466667e+08,-67.224
2.475200000e+08,-64.861
2.478933333e+08,-48.3592
2.482666667e+08,-47.2102
2.486400000e+08,-56.5393
2.490133333e+08,-63.7907
2.493866667e+08,-69.8766
2.497600000e+08,-67.1475
2.501333333e+08,-72.199
2.505066667e+08,-59.2191
2.508800000e+08,-53.6749
2.512533333e+08,-57.0816
2.516266667e+08,-53.8213
2.520000000e+08,-48.2816
2.523733333e+08,-55.9944
2.527466667e+08,-62.4136
2.531200000e+08,-60.7603
2.534933333e+08,-47.8384
2.538666667e+08,-48.2729
2.542400000e+08,-56.9303
2.546133333e+08,-68.8105
2.549866667e+08,-66.4811
2.553600000e+08,-69.2472
2.557333333e+08,-66.2883
2.561066667e+08,-56.6552
2.564800000e+08,-55.5591
2.568533333e+08,-67.2437
2.572266667e+08,-65.6657
2.576000000e+08,-66.4609
2.579733333e+08,-61.091
2.583466667e+08,-62.2406
2.587200000e+08,-51.7114
2.590933333e+08,-47.7425
2.594666667e+08,-51.4422
2.598400000e+08,-68.2557
2.602133333e+08,-71.5483
2.605866667e+08,-66.1529
2.609600000e+08,-66.5811
2.613333333e+08,-64.1864
2.617066667e+08,-54.0671
2.620800000e+08,-54.1848
2.624533333e+08,-64.3544
2.628266667e+08,-64.9768
2.632000000e+08,-63.3557
2.635733333e+08,-56.2084
2.639466667e+08,-48.9514
2.643200000e+08,-49.0881
2.646933333e+08,-46.939
2.650666667e+08,-63.4821
2.654400000e+08,-64.3657
2.658133333e+08,-70.0551
2.661866667e+08,-63.6064
2.665600000e+08,-66.5239
2.669333333e+08,-58.8222
2.673066667e+08,-52.1529
2.676800000e+08,-61.8583
2.680533333e+08,-74.0576
2.684266667e+08,-69.9826
2.688000000e+08,-70.5589
2.691733333e+08,-71.2088
2.695466667e+08,-61.595
2.699200000e+08,-44.9699
2.702933333e+08,-48.0323
2.706666667e+08,-64.3038
2.710400000e+08,-68.7346
2.714133333e+08,-69.1239
2.717866667e+08,-69.9936
2.721600000e+08,-70.5157
2.725333333e+08,-52.938
2.729066667e+08,-53.6543
2.732800000e+08,-67.123
2.736533333e+08,-69.9278
2.740266667e+08,-70.2473
2.744000000e+08,-68.9904
2.747733333e+08,-64.8206
2.751466667e+08,-49.7179
2.755200000e+08,-47.6302
2.758933333e+08,-43.218
2.762666667e+08,-45.4645
2.766400000e+08,-62.2315
2.770133333e+08,-63.1474
2.773866667e+08,-67.8507
2.777600000e+08,-63.2373
2.781333333e+08,-54.8213
2.785066667e+08,-57.9644
2.788800000e+08,-68.4964
2.792533333e+08,-64.6222
2.796266667e+08,-70.0717
2.800000000e+08,-71.0112

