3/tek0033NRM.csv

Model,MDO3104
Firmware Version,1.30

Waveform Type,RF_FD
Point Format,Y
Horizontal Units,Hz
Horizontal Scale,2.8e+07
,
Sample Interval,373333
Record Length,751
Gating,0.133155792277% to 100.0%
Probe Attenuation,1
Vertical Units,dBm
Vertical Offset,0
Vertical Scale,10
Vertical Position,0
Center Frequency,1.4e+08
Span,2.8e+08
Reference Level,-15
Label,
FREQUENCY,FD NORM
0.000000000e+00,-64.2794
3.733333333e+05,-73.3038
7.466666667e+05,-78.0122
1.120000000e+06,-77.2004
1.493333333e+06,-70.9501
1.866666667e+06,-69.7688
2.240000000e+06,-72.2309
2.613333333e+06,-65.2614
2.986666667e+06,-66.1807
3.360000000e+06,-61.0483
3.733333333e+06,-63.528
4.106666667e+06,-65.6557
4.480000000e+06,-65.2014
4.853333333e+06,-71.418
5.226666667e+06,-64.4946
5.600000000e+06,-66.8436
5.973333333e+06,-64.2187
6.346666667e+06,-72.2844
6.720000000e+06,-70.3297
7.093333333e+06,-75.0838
7.466666667e+06,-68.3857
7.840000000e+06,-69.7921
8.213333333e+06,-68.437
8.586666667e+06,-72.4799
8.960000000e+06,-73.138
9.333333333e+06,-70.3152
9.706666667e+06,-72.0951
1.008000000e+07,-74.0352
1.045333333e+07,-69.4017
1.082666667e+07,-69.5675
1.120000000e+07,-70.6062
1.157333333e+07,-70.4401
1.194666667e+07,-57.8914
1.232000000e+07,-63.3254
1.269333333e+07,-68.1316
1.306666667e+07,-70.9651
1.344000000e+07,-68.5614
1.381333333e+07,-68.3239
1.418666667e+07,-71.4016
1.456000000e+07,-69.8872
1.493333333e+07,-68.7712
1.530666667e+07,-65.7359
1.568000000e+07,-68.7383
1.605333333e+07,-66.5321
1.642666667e+07,-66.616
1.680000000e+07,-72.5908
1.717333333e+07,-72.1019
1.754666667e+07,-66.9599
1.792000000e+07,-57.5582
1.829333333e+07,-59.4794
1.866666667e+07,-75.6398
1.904000000e+07,-65.6777
1.941333333e+07,-66.6117
1.978666667e+07,-68.8489
2.016000000e+07,-67.9263
2.053333333e+07,-75.0215
2.090666667e+07,-74.6781
2.128000000e+07,-68.2611
2.165333333e+07,-61.4545
2.202666667e+07,-61.1151
2.240000000e+07,-69.3572
2.277333333e+07,-67.7829
2.314666667e+07,-65.3248
2.352000000e+07,-70.3708
2.389333333e+07,-66.5315
2.426666667e+07,-64.4062
2.464000000e+07,-62.7281
2.501333333e+07,-52.4722
2.538666667e+07,-58.3376
2.576000000e+07,-79.9162
2.613333333e+07,-65.9443
2.650666667e+07,-69.3938
2.688000000e+07,-62.4762
2.725333333e+07,-59.1406
2.762666667e+07,-65.2714
2.800000000e+07,-71.9574
2.837333333e+07,-69.0673
2.874666667e+07,-69.3911
2.912000000e+07,-71.797
2.949333333e+07,-67.5478
2.986666667e+07,-52.363
3.024000000e+07,-53.7585
3.061333333e+07,-72.336
3.098666667e+07,-72.356
3.136000000e+07,-71.1656
3.173333333e+07,-74.8907
3.210666667e+07,-70.6344
3.248000000e+07,-61.0069
3.285333333e+07,-59.8953
3.322666667e+07,-69.205
3.360000000e+07,-73.35
3.397333333e+07,-71.8855
3.434666667e+07,-76.2719
3.472000000e+07,-68.3046
3.509333333e+07,-63.7166
3.546666667e+07,-58.9059
3.584000000e+07,-52.5816
3.621333333e+07,-53.3304
3.658666667e+07,-73.657
3.696000000e+07,-68.0649
3.733333333e+07,-69.2537
3.770666667e+07,-70.8691
3.808000000e+07,-59.6735
3.845333333e+07,-64.0917
3.882666667e+07,-76.9931
3.920000000e+07,-75.5675
3.957333333e+07,-77.1397
3.994666667e+07,-72.7107
4.032000000e+07,-72.9929
4.069333333e+07,-56.9401
4.106666667e+07,-57.6763
4.144000000e+07,-72.0426
4.181333333e+07,-54.2507
4.218666667e+07,-54.0225
4.256000000e+07,-73.6755
4.293333333e+07,-71.3357
4.330666667e+07,-59.7528
4.368000000e+07,-58.6221
4.405333333e+07,-62.5305
4.442666667e+07,-70.9527
4.480000000e+07,-72.7198
4.517333333e+07,-75.6866
4.554666667e+07,-73.0191
4.592000000e+07,-64.0712
4.629333333e+07,-58.3013
4.666666667e+07,-58.4439
4.704000000e+07,-72.0359
4.741333333e+07,-68.8159
4.778666667e+07,-38.4679
4.816000000e+07,-37.6345
4.853333333e+07,-65.2628
4.890666667e+07,-58.2203
4.928000000e+07,-57.5954
4.965333333e+07,-75.0992
5.002666667e+07,-76.2362
5.040000000e+07,-72.773
5.077333333e+07,-72.3005
5.114666667e+07,-71.6505
5.152000000e+07,-57.9084
5.189333333e+07,-54.0946
5.226666667e+07,-64.5326
5.264000000e+07,-79.9478
5.301333333e+07,-73.0902
5.338666667e+07,-75.6017
5.376000000e+07,-50.79
5.413333333e+07,-49.1162
5.450666667e+07,-55.1259
5.488000000e+07,-57.4489
5.525333333e+07,-70.1275
5.562666667e+07,-71.128
5.600000000e+07,-72.4855
5.637333333e+07,-73.3777
5.674666667e+07,-67.1477
5.712000000e+07,-52.5275
5.749333333e+07,-52.9434
5.786666667e+07,-74.9593
5.824000000e+07,-75.5965
5.861333333e+07,-74.0641
5.898666667e+07,-71.7526
5.936000000e+07,-74.4535
5.973333333e+07,-36.6855
6.010666667e+07,-34.4684
6.048000000e+07,-52.5921
6.085333333e+07,-75.017
6.122666667e+07,-71.7638
6.160000000e+07,-71.2713
6.197333333e+07,-70.5374
6.234666667e+07,-62.4389
6.272000000e+07,-53.3456
6.309333333e+07,-60.6991
6.346666667e+07,-72.6832
6.384000000e+07,-69.378
6.421333333e+07,-66.9308
6.458666667e+07,-67.1983
6.496000000e+07,-73.6102
6.533333333e+07,-53.1423
6.570666667e+07,-49.1235
6.608000000e+07,-45.7095
6.645333333e+07,-61.2367
6.682666667e+07,-71.0307
6.720000000e+07,-72.194
6.757333333e+07,-70.256
6.794666667e+07,-55.4378
6.832000000e+07,-56.0307
6.869333333e+07,-67.7578
6.906666667e+07,-66.1325
6.944000000e+07,-76.3856
6.981333333e+07,-68.0773
7.018666667e+07,-73.9112
7.056000000e+07,-55.3433
7.093333333e+07,-53.7568
7.130666667e+07,-59.6998
7.168000000e+07,-47.2588
7.205333333e+07,-41.8477
7.242666667e+07,-54.0328
7.280000000e+07,-66.7561
7.317333333e+07,-61.2017
7.354666667e+07,-57.297
7.392000000e+07,-59.3892
7.429333333e+07,-65.719
7.466666667e+07,-68.2161
7.504000000e+07,-68.1342
7.541333333e+07,-68.1506
7.578666667e+07,-71.2381
7.616000000e+07,-56.0817
7.653333333e+07,-55.705
7.690666667e+07,-65.183
7.728000000e+07,-70.4493
7.765333333e+07,-55.8727
7.802666667e+07,-48.9226
7.840000000e+07,-58.261
7.877333333e+07,-57.8564
7.914666667e+07,-55.7412
7.952000000e+07,-64.6999
7.989333333e+07,-71.296
8.026666667e+07,-71.3309
8.064000000e+07,-76.8521
8.101333333e+07,-70.0621
8.138666667e+07,-60.8132
8.176000000e+07,-54.889
8.213333333e+07,-56.9331
8.250666667e+07,-73.633
8.288000000e+07,-72.5005
8.325333333e+07,-67.6693
8.362666667e+07,-50.0775
8.400000000e+07,-41.7782
8.437333333e+07,-48.8603
8.474666667e+07,-52.467
8.512000000e+07,-68.8137
8.549333333e+07,-68.5861
8.586666667e+07,-75.1754
8.624000000e+07,-70.6861
8.661333333e+07,-73.885
8.698666667e+07,-58.7327
8.736000000e+07,-53.9829
8.773333333e+07,-72.186
8.810666667e+07,-71.0289
8.848000000e+07,-73.8623
8.885333333e+07,-73.5509
8.922666667e+07,-71.2482
8.960000000e+07,-70.2596
8.997333333e+07,-64.1199
9.034666667e+07,-65.1151
9.072000000e+07,-74.1371
9.109333333e+07,-75.0227
9.146666667e+07,-70.071
9.184000000e+07,-74.3751
9.221333333e+07,-67.1231
9.258666667e+07,-55.073
9.296000000e+07,-57.2796
9.333333333e+07,-70.7175
9.370666667e+07,-69.8623
9.408000000e+07,-69.2388
9.445333333e+07,-70.0847
9.482666667e+07,-68.2242
9.520000000e+07,-53.565
9.557333333e+07,-52.8776
9.594666667e+07,-44.7654
9.632000000e+07,-49.7023
9.669333333e+07,-63.0476
9.706666667e+07,-70.7305
9.744000000e+07,-75.9917
9.781333333e+07,-56.6539
9.818666667e+07,-53.0128
9.856000000e+07,-58.8552
9.893333333e+07,-70.5458
9.930666667e+07,-70.2617
9.968000000e+07,-73.2184
1.000533333e+08,-74.5974
1.004266667e+08,-63.1001
1.008000000e+08,-52.5596
1.011733333e+08,-54.7669
1.015466667e+08,-67.167
1.019200000e+08,-54.8952
1.022933333e+08,-58.608
1.026666667e+08,-66.9065
1.030400000e+08,-65.7403
1.034133333e+08,-54.3786
1.037866667e+08,-54.8015
1.041600000e+08,-66.4241
1.045333333e+08,-68.2038
1.049066667e+08,-67.9871
1.052800000e+08,-68.317
1.056533333e+08,-67.0166
1.060266667e+08,-55.4128
1.064000000e+08,-52.4376
1.067733333e+08,-56.2801
1.071466667e+08,-67.5432
1.075200000e+08,-65.1771
1.078933333e+08,-42.516
1.082666667e+08,-45.0399
1.086400000e+08,-60.657
1.090133333e+08,-54.2086
1.093866667e+08,-54.9425
1.097600000e+08,-69.0819
1.101333333e+08,-68.9004
1.105066667e+08,-77.3006
1.108800000e+08,-71.9386
1.112533333e+08,-64.4636
1.116266667e+08,-52.0893
1.120000000e+08,-50.7684
1.123733333e+08,-64.007
1.127466667e+08,-71.9739
1.131200000e+08,-66.9938
1.134933333e+08,-66.6378
1.138666667e+08,-58.7118
1.142400000e+08,-56.6332
1.146133333e+08,-52.6133
1.149866667e+08,-65.5646
1.153600000e+08,-71.4783
1.157333333e+08,-70.3405
1.161066667e+08,-69.0428
1.164800000e+08,-71.9871
1.168533333e+08,-62.3012
1.172266667e+08,-49.7362
1.176000000e+08,-53.9151
1.179733333e+08,-67.9104
1.183466667e+08,-69.0447
1.187200000e+08,-70.196
1.190933333e+08,-71.5042
1.194666667e+08,-60.5422
1.198400000e+08,-35.7168
1.202133333e+08,-36.4356
1.205866667e+08,-67.2435
1.209600000e+08,-69.0517
1.213333333e+08,-66.9374
1.217066667e+08,-68.6159
1.220800000e+08,-70.8607
1.224533333e+08,-51.2513
1.228266667e+08,-49.2532
1.232000000e+08,-63.9108
1.235733333e+08,-68.5222
1.239466667e+08,-73.8159
1.243200000e+08,-68.3117
1.246933333e+08,-68.2412
1.250666667e+08,-56.5241
1.254400000e+08,-50.2631
1.258133333e+08,-56.1536
1.261866667e+08,-56.8906
1.265600000e+08,-70.8634
1.269333333e+08,-67.4345
1.273066667e+08,-69.4977
1.276800000e+08,-65.9897
1.280533333e+08,-50.1667
1.284266667e+08,-52.8927
1.288000000e+08,-64.3121
1.291733333e+08,-70.1546
1.295466667e+08,-67.2973
1.299200000e+08,-65.4926
1.302933333e+08,-68.133
1.306666667e+08,-51.1145
1.310400000e+08,-51.7912
1.314133333e+08,-60.9634
1.317866667e+08,-51.9112
1.321600000e+08,-52.0005
1.325333333e+08,-65.7229
1.329066667e+08,-64.8391
1.332800000e+08,-53.273
1.336533333e+08,-50.9571
1.340266667e+08,-53.173
1.344000000e+08,-66.0424
1.347733333e+08,-67.8633
1.351466667e+08,-64.6358
1.355200000e+08,-67.5979
1.358933333e+08,-58.9375
1.362666667e+08,-53.2163
1.366400000e+08,-54.0782
1.370133333e+08,-65.6155
1.373866667e+08,-74.9292
1.377600000e+08,-74.7862
1.381333333e+08,-65.698
1.385066667e+08,-68.4986
1.388800000e+08,-51.3733
1.392533333e+08,-49.3644
1.396266667e+08,-67.8193
1.400000000e+08,-64.9617
1.403733333e+08,-65.4432
1.407466667e+08,-63.2089
1.411200000e+08,-66.1955
1.414933333e+08,-56.3721
1.418666667e+08,-52.4977
1.422400000e+08,-61.716
1.426133333e+08,-71.5095
1.429866667e+08,-70.7284
1.433600000e+08,-76.0038
1.437333333e+08,-52.1109
1.441066667e+08,-47.0553
1.444800000e+08,-48.7857
1.448533333e+08,-50.9861
1.452266667e+08,-67.8808
1.456000000e+08,-68.5904
1.459733333e+08,-69.0407
1.463466667e+08,-66.7165
1.467200000e+08,-68.4594
1.470933333e+08,-51.7502
1.474666667e+08,-51.5672
1.478400000e+08,-66.0928
1.482133333e+08,-70.0472
1.485866667e+08,-68.0326
1.489600000e+08,-71.3809
1.493333333e+08,-73.0034
1.497066667e+08,-51.0405
1.500800000e+08,-47.3612
1.504533333e+08,-61.2336
1.508266667e+08,-66.4878
1.512000000e+08,-68.7155
1.515733333e+08,-77.5662
1.519466667e+08,-73.3217
1.523200000e+08,-60.4952
1.526933333e+08,-51.3697
1.530666667e+08,-58.5285
1.534400000e+08,-70.5325
1.538133333e+08,-69.9372
1.541866667e+08,-81.7794
1.545600000e+08,-71.2122
1.549333333e+08,-66.179
1.553066667e+08,-47.9209
1.556800000e+08,-49.9944
1.560533333e+08,-44.8305
1.564266667e+08,-58.1447
1.568000000e+08,-66.6383
1.571733333e+08,-66.166
1.575466667e+08,-64.2484
1.579200000e+08,-52.4789
1.582933333e+08,-52.4062
1.586666667e+08,-66.1647
1.590400000e+08,-67.0437
1.594133333e+08,-66.7145
1.597866667e+08,-68.5998
1.601600000e+08,-64.0291
1.605333333e+08,-52.5597
1.609066667e+08,-48.5602
1.612800000e+08,-51.8723
1.616533333e+08,-64.6478
1.620266667e+08,-61.3166
1.624000000e+08,-66.7691
1.627733333e+08,-65.812
1.631466667e+08,-63.322
1.635200000e+08,-53.8757
1.638933333e+08,-55.1217
1.642666667e+08,-65.7011
1.646400000e+08,-62.8056
1.650133333e+08,-69.6132
1.653866667e+08,-62.8304
1.657600000e+08,-62.354
1.661333333e+08,-50.8863
1.665066667e+08,-49.664
1.668800000e+08,-61.9346
1.672533333e+08,-65.1315
1.676266667e+08,-58.3323
1.680000000e+08,-47.6445
1.683733333e+08,-55.3966
1.687466667e+08,-56.4278
1.691200000e+08,-51.9109
1.694933333e+08,-57.4025
1.698666667e+08,-63.5597
1.702400000e+08,-67.2092
1.706133333e+08,-71.8607
1.709866667e+08,-69.2368
1.713600000e+08,-58.4139
1.717333333e+08,-47.7562
1.721066667e+08,-48.4972
1.724800000e+08,-66.2436
1.728533333e+08,-71.5375
1.732266667e+08,-62.6985
1.736000000e+08,-63.2237
1.739733333e+08,-59.2112
1.743466667e+08,-52.4664
1.747200000e+08,-51.3448
1.750933333e+08,-73.4797
1.754666667e+08,-65.5009
1.758400000e+08,-62.905
1.762133333e+08,-72.724
1.765866667e+08,-68.5853
1.769600000e+08,-51.3059
1.773333333e+08,-46.2726
1.777066667e+08,-58.8561
1.780800000e+08,-69.9952
1.784533333e+08,-72.7967
1.788266667e+08,-69.5695
1.792000000e+08,-67.63
1.795733333e+08,-51.03
1.799466667e+08,-38.715
1.803200000e+08,-43.8894
1.806933333e+08,-71.8358
1.810666667e+08,-70.3939
1.814400000e+08,-78.3476
1.818133333e+08,-82.7525
1.821866667e+08,-73.8175
1.825600000e+08,-46.5384
1.829333333e+08,-47.58
1.833066667e+08,-69.8176
1.836800000e+08,-71.9024
1.840533333e+08,-72.2857
1.844266667e+08,-69.0412
1.848000000e+08,-69.6503
1.851733333e+08,-52.7718
1.855466667e+08,-51.6427
1.859200000e+08,-63.4548
1.862933333e+08,-67.6592
1.866666667e+08,-71.2283
1.870400000e+08,-64.4534
1.874133333e+08,-66.0498
1.877866667e+08,-52.2007
1.881600000e+08,-47.3013
1.885333333e+08,-53.8062
1.889066667e+08,-65.6147
1.892800000e+08,-66.5078
1.896533333e+08,-65.1442
1.900266667e+08,-66.9611
1.904000000e+08,-63.6315
1.907733333e+08,-52.7623
1.911466667e+08,-56.3717
1.915200000e+08,-53.3357
1.918933333e+08,-48.2535
1.922666667e+08,-51.0865
1.926400000e+08,-63.5167
1.930133333e+08,-62.2573
1.933866667e+08,-48.2288
1.937600000e+08,-48.3819
1.941333333e+08,-59.4652
1.945066667e+08,-62.3784
1.948800000e+08,-67.8803
1.952533333e+08,-64.7618
1.956266667e+08,-65.1034
1.960000000e+08,-56.919
1.963733333e+08,-52.8661
1.967466667e+08,-54.6449
1.971200000e+08,-65.8882
1.974933333e+08,-69.166
1.978666667e+08,-67.2247
1.982400000e+08,-64.359
1.986133333e+08,-57.2046
1.989866667e+08,-49.5418
1.993600000e+08,-49.5337
1.997333333e+08,-58.9623
2.001066667e+08,-69.4478
2.004800000e+08,-66.6048
2.008533333e+08,-65.8429
2.012266667e+08,-70.5482
2.016000000e+08,-54.5804
2.019733333e+08,-52.9562
2.023466667e+08,-62.1798
2.027200000e+08,-62.1806
2.030933333e+08,-73.0402
2.034666667e+08,-62.7394
2.038400000e+08,-50.0325
2.042133333e+08,-51.8345
2.045866667e+08,-47.1407
2.049600000e+08,-54.6555
2.053333333e+08,-65.8849
2.057066667e+08,-64.2756
2.060800000e+08,-68.9556
2.064533333e+08,-67.591
2.068266667e+08,-64.9078
2.072000000e+08,-52.4796
2.075733333e+08,-55.7272
2.079466667e+08,-62.8796
2.083200000e+08,-65.3526
2.086933333e+08,-64.2945
2.090666667e+08,-62.9776
2.094400000e+08,-68.753
2.098133333e+08,-46.6261
2.101866667e+08,-46.4777
2.105600000e+08,-62.5059
2.109333333e+08,-71.2102
2.113066667e+08,-70.4829
2.116800000e+08,-68.6567
2.120533333e+08,-72.8764
2.124266667e+08,-56.9227
2.128000000e+08,-53.8356
2.131733333e+08,-73.8452
2.135466667e+08,-63.7525
2.139200000e+08,-64.2707
2.142933333e+08,-66.4956
2.146666667e+08,-66.8988
2.150400000e+08,-57.5635
2.154133333e+08,-46.7046
2.157866667e+08,-48.4355
2.161600000e+08,-48.3449
2.165333333e+08,-64.5077
2.169066667e+08,-65.1478
2.172800000e+08,-61.8688
2.176533333e+08,-62.181
2.180266667e+08,-54.1266
2.184000000e+08,-57.9494
2.187733333e+08,-66.9229
2.191466667e+08,-68.7154
2.195200000e+08,-66.0951
2.198933333e+08,-66.2802
2.202666667e+08,-61.8783
2.206400000e+08,-46.8128
2.210133333e+08,-46.7577
2.213866667e+08,-55.7804
2.217600000e+08,-64.3292
2.221333333e+08,-63.9553
2.225066667e+08,-65.813
2.228800000e+08,-65.6255
2.232533333e+08,-58.0835
2.236266667e+08,-55.6492
2.240000000e+08,-57.3542
2.243733333e+08,-63.879
2.247466667e+08,-65.599
2.251200000e+08,-71.1814
2.254933333e+08,-62.3425
2.258666667e+08,-58.2189
2.262400000e+08,-49.0316
2.266133333e+08,-48.6259
2.269866667e+08,-63.6693
2.273600000e+08,-62.3478
2.277333333e+08,-47.7425
2.281066667e+08,-45.421
2.284800000e+08,-63.4175
2.288533333e+08,-56.1115
2.292266667e+08,-53.2976
2.296000000e+08,-63.8763
2.299733333e+08,-66.8986
2.303466667e+08,-69.0119
2.307200000e+08,-67.5099
2.310933333e+08,-63.0613
2.314666667e+08,-53.1243
2.318400000e+08,-46.6581
2.322133333e+08,-52.3224
2.325866667e+08,-64.784
2.329600000e+08,-65.2436
2.333333333e+08,-70.9367
2.337066667e+08,-66.141
2.340800000e+08,-63.9933
2.344533333e+08,-52.7032
2.348266667e+08,-54.423
2.352000000e+08,-68.5134
2.355733333e+08,-71.8208
2.359466667e+08,-81.4632
2.363200000e+08,-67.3471
2.366933333e+08,-65.2219
2.370666667e+08,-47.2358
2.374400000e+08,-46.0627
2.378133333e+08,-66.5497
2.381866667e+08,-69.0612
2.385600000e+08,-73.6695
2.389333333e+08,-71.9789
2.393066667e+08,-53.0549
2.396800000e+08,-48.0947
2.400533333e+08,-47.8437
2.404266667e+08,-59.625
2.408000000e+08,-70.8756
2.411733333e+08,-75.4987
2.415466667e+08,-75.4908
2.419200000e+08,-83.0984
2.422933333e+08,-59.035
2.426666667e+08,-46.1887
2.430400000e+08,-51.1719
2.434133333e+08,-69.2612
2.437866667e+08,-68.9871
2.441600000e+08,-68.8645
2.445333333e+08,-74.1981
2.449066667e+08,-69.2272
2.452800000e+08,-52.2902
2.456533333e+08,-54.0158
2.460266667e+08,-64.7275
2.464000000e+08,-76.1932
2.467733333e+08,-71.3296
2.471466667e+08,-66.7979
2.475200000e+08,-67.8276
2.478933333e+08,-48.112
2.482666667e+08,-47.1204
2.486400000e+08,-56.6893
2.490133333e+08,-67.8167
2.493866667e+08,-73.1826
2.497600000e+08,-69.1691
2.501333333e+08,-67.3667
2.505066667e+08,-58.5203
2.508800000e+08,-53.8517
2.512533333e+08,-57.9815
2.516266667e+08,-50.2534
2.520000000e+08,-41.7508
2.523733333e+08,-49.7194
2.527466667e+08,-64.5926
2.531200000e+08,-61.0202
2.534933333e+08,-48.7964
2.538666667e+08,-49.2741
2.542400000e+08,-61.7347
2.546133333e+08,-67.2798
2.549866667e+08,-66.9793
2.553600000e+08,-64.3017
2.557333333e+08,-66.4306
2.561066667e+08,-56.2982
2.564800000e+08,-56.7412
2.568533333e+08,-67.4513
2.572266667e+08,-64.957
2.576000000e+08,-66.0034
2.579733333e+08,-61.6369
2.583466667e+08,-64.5024
2.587200000e+08,-53.1062
2.590933333e+08,-48.2411
2.594666667e+08,-51.1814
2.598400000e+08,-64.2466
2.602133333e+08,-67.6943
2.605866667e+08,-66.6763
2.609600000e+08,-69.7575
2.613333333e+08,-63.6486
2.617066667e+08,-54.7144
2.620800000e+08,-55.2427
2.624533333e+08,-68.0692
2.628266667e+08,-70.5181
2.632000000e+08,-67.5459
2.635733333e+08,-63.965
2.639466667e+08,-50.0511
2.643200000e+08,-49.6666
2.646933333e+08,-47.4602
2.650666667e+08,-62.3657
2.654400000e+08,-67.958
2.658133333e+08,-69.8552
2.661866667e+08,-72.6516
2.665600000e+08,-79.9122
2.669333333e+08,-58.5617
2.673066667e+08,-52.7425
2.676800000e+08,-62.6982
2.680533333e+08,-76.097
2.684266667e+08,-79.3813
2.688000000e+08,-73.976
2.691733333e+08,-81.7346
2.695466667e+08,-69.2632
2.699200000e+08,-49.8917
2.702933333e+08,-53.4178
2.706666667e+08,-82.6852
2.710400000e+08,-72.5789
2.714133333e+08,-72.5623
2.717866667e+08,-74.592
2.721600000e+08,-71.4524
2.725333333e+08,-53.9859
2.729066667e+08,-53.9085
2.732800000e+08,-74.2614
2.736533333e+08,-70.4179
2.740266667e+08,-71.3666
2.744000000e+08,-72.2595
2.747733333e+08,-67.6582
2.751466667e+08,-49.931
2.755200000e+08,-47.4939
2.758933333e+08,-51.4405
2.762666667e+08,-53.418
2.766400000e+08,-64.1993
2.770133333e+08,-70.8906
2.773866667e+08,-71.8854
2.777600000e+08,-61.1552
2.781333333e+08,-54.8336
2.785066667e+08,-58.9139
2.788800000e+08,-65.7231
2.792533333e+08,-68.7095
2.796266667e+08,-68.9695
2.800000000e+08,-72.85

