3/tek0004NRM.csv

Model,MDO3104
Firmware Version,1.30

Waveform Type,RF_FD
Point Format,Y
Horizontal Units,Hz
Horizontal Scale,2.8e+07
,
Sample Interval,373333
Record Length,751
Gating,0.133155792277% to 100.0%
Probe Attenuation,1
Vertical Units,dBm
Vertical Offset,0
Vertical Scale,10
Vertical Position,0
Center Frequency,1.4e+08
Span,2.8e+08
Reference Level,-15
Label,
FREQUENCY,FD NORM
0.000000000e+00,-62.2315
3.733333333e+05,-70.2777
7.466666667e+05,-75.4027
1.120000000e+06,-75.8392
1.493333333e+06,-71.5589
1.866666667e+06,-71.4546
2.240000000e+06,-70.0542
2.613333333e+06,-69.027
2.986666667e+06,-67.4725
3.360000000e+06,-61.3705
3.733333333e+06,-61.7067
4.106666667e+06,-62.838
4.480000000e+06,-60.9538
4.853333333e+06,-69.5374
5.226666667e+06,-68.5317
5.600000000e+06,-74.2055
5.973333333e+06,-61.912
6.346666667e+06,-68.9707
6.720000000e+06,-71.4358
7.093333333e+06,-73.8663
7.466666667e+06,-74.5648
7.840000000e+06,-69.1651
8.213333333e+06,-64.307
8.586666667e+06,-65.5927
8.960000000e+06,-69.327
9.333333333e+06,-70.4767
9.706666667e+06,-69.0438
1.008000000e+07,-83.9077
1.045333333e+07,-76.4866
1.082666667e+07,-66.0368
1.120000000e+07,-67.8441
1.157333333e+07,-70.1417
1.194666667e+07,-60.9579
1.232000000e+07,-63.0436
1.269333333e+07,-69.8562
1.306666667e+07,-68.1491
1.344000000e+07,-63.2224
1.381333333e+07,-63.2098
1.418666667e+07,-65.4513
1.456000000e+07,-70.6204
1.493333333e+07,-75.333
1.530666667e+07,-71.5506
1.568000000e+07,-68.7013
1.605333333e+07,-66.5901
1.642666667e+07,-66.4414
1.680000000e+07,-68.2992
1.717333333e+07,-69.6824
1.754666667e+07,-70.5418
1.792000000e+07,-58.2748
1.829333333e+07,-66.0917
1.866666667e+07,-66.5859
1.904000000e+07,-62.0514
1.941333333e+07,-65.9586
1.978666667e+07,-71.2209
2.016000000e+07,-68.1952
2.053333333e+07,-80.6894
2.090666667e+07,-69.8373
2.128000000e+07,-68.8572
2.165333333e+07,-65.8531
2.202666667e+07,-65.7021
2.240000000e+07,-66.6713
2.277333333e+07,-66.4753
2.314666667e+07,-66.3218
2.352000000e+07,-67.4708
2.389333333e+07,-62.6746
2.426666667e+07,-66.7005
2.464000000e+07,-59.7092
2.501333333e+07,-52.8738
2.538666667e+07,-63.3643
2.576000000e+07,-69.8877
2.613333333e+07,-64.2961
2.650666667e+07,-71.9183
2.688000000e+07,-67.9584
2.725333333e+07,-64.2193
2.762666667e+07,-77.8529
2.800000000e+07,-71.7027
2.837333333e+07,-72.4938
2.874666667e+07,-72.7451
2.912000000e+07,-71.5217
2.949333333e+07,-70.7623
2.986666667e+07,-57.7334
3.024000000e+07,-59.3838
3.061333333e+07,-69.5817
3.098666667e+07,-73.0793
3.136000000e+07,-74.7709
3.173333333e+07,-68.398
3.210666667e+07,-69.7263
3.248000000e+07,-64.6698
3.285333333e+07,-62.0558
3.322666667e+07,-81.3582
3.360000000e+07,-81.8935
3.397333333e+07,-76.3542
3.434666667e+07,-73.7576
3.472000000e+07,-75.3625
3.509333333e+07,-67.0473
3.546666667e+07,-59.5137
3.584000000e+07,-50.3228
3.621333333e+07,-51.1822
3.658666667e+07,-74.7432
3.696000000e+07,-71.251
3.733333333e+07,-74.2243
3.770666667e+07,-74.5108
3.808000000e+07,-59.6974
3.845333333e+07,-63.3877
3.882666667e+07,-75.9927
3.920000000e+07,-73.8914
3.957333333e+07,-71.506
3.994666667e+07,-73.1583
4.032000000e+07,-69.2942
4.069333333e+07,-58.4598
4.106666667e+07,-58.9167
4.144000000e+07,-71.5212
4.181333333e+07,-54.0487
4.218666667e+07,-54.5052
4.256000000e+07,-74.5161
4.293333333e+07,-72.9252
4.330666667e+07,-61.7099
4.368000000e+07,-59.7008
4.405333333e+07,-68.3308
4.442666667e+07,-74.3901
4.480000000e+07,-68.0816
4.517333333e+07,-76.8671
4.554666667e+07,-78.4964
4.592000000e+07,-62.9972
4.629333333e+07,-56.9927
4.666666667e+07,-58.1006
4.704000000e+07,-74.144
4.741333333e+07,-68.0891
4.778666667e+07,-37.9774
4.816000000e+07,-37.1917
4.853333333e+07,-63.1161
4.890666667e+07,-59.6896
4.928000000e+07,-58.785
4.965333333e+07,-75.7052
5.002666667e+07,-74.2172
5.040000000e+07,-76.4089
5.077333333e+07,-73.2688
5.114666667e+07,-71.2802
5.152000000e+07,-59.7276
5.189333333e+07,-54.6335
5.226666667e+07,-63.0188
5.264000000e+07,-71.1716
5.301333333e+07,-69.4419
5.338666667e+07,-72.8804
5.376000000e+07,-50.6971
5.413333333e+07,-49.2442
5.450666667e+07,-55.459
5.488000000e+07,-60.3564
5.525333333e+07,-71.8435
5.562666667e+07,-70.4728
5.600000000e+07,-69.5965
5.637333333e+07,-78.3364
5.674666667e+07,-76.775
5.712000000e+07,-53.0014
5.749333333e+07,-53.7821
5.786666667e+07,-70.9393
5.824000000e+07,-70.2885
5.861333333e+07,-68.1308
5.898666667e+07,-75.5069
5.936000000e+07,-72.3214
5.973333333e+07,-30.619
6.010666667e+07,-28.415
6.048000000e+07,-47.3842
6.085333333e+07,-83.2032
6.122666667e+07,-74.9605
6.160000000e+07,-70.7053
6.197333333e+07,-70.9301
6.234666667e+07,-58.3539
6.272000000e+07,-52.2651
6.309333333e+07,-60.6494
6.346666667e+07,-74.5995
6.384000000e+07,-71.8344
6.421333333e+07,-72.7738
6.458666667e+07,-66.9766
6.496000000e+07,-69.7385
6.533333333e+07,-53.5151
6.570666667e+07,-49.6525
6.608000000e+07,-45.8821
6.645333333e+07,-62.1801
6.682666667e+07,-75.8556
6.720000000e+07,-75.5687
6.757333333e+07,-72.4865
6.794666667e+07,-54.9351
6.832000000e+07,-55.1258
6.869333333e+07,-64.3466
6.906666667e+07,-69.8025
6.944000000e+07,-69.2537
6.981333333e+07,-66.9995
7.018666667e+07,-73.916
7.056000000e+07,-56.2522
7.093333333e+07,-54.6879
7.130666667e+07,-61.593
7.168000000e+07,-46.7521
7.205333333e+07,-41.9678
7.242666667e+07,-55.8225
7.280000000e+07,-64.8526
7.317333333e+07,-66.1259
7.354666667e+07,-56.3974
7.392000000e+07,-57.1605
7.429333333e+07,-73.4035
7.466666667e+07,-68.3539
7.504000000e+07,-68.3933
7.541333333e+07,-72.731
7.578666667e+07,-62.1136
7.616000000e+07,-55.4357
7.653333333e+07,-55.6146
7.690666667e+07,-69.6793
7.728000000e+07,-67.6309
7.765333333e+07,-55.6781
7.802666667e+07,-49.493
7.840000000e+07,-59.295
7.877333333e+07,-59.8304
7.914666667e+07,-55.2704
7.952000000e+07,-63.3497
7.989333333e+07,-63.9582
8.026666667e+07,-75.6651
8.064000000e+07,-69.8735
8.101333333e+07,-67.0508
8.138666667e+07,-65.2767
8.176000000e+07,-52.9532
8.213333333e+07,-54.889
8.250666667e+07,-69.5642
8.288000000e+07,-69.7033
8.325333333e+07,-68.8116
8.362666667e+07,-50.3772
8.400000000e+07,-42.3186
8.437333333e+07,-50.1605
8.474666667e+07,-52.3219
8.512000000e+07,-68.9445
8.549333333e+07,-69.9969
8.586666667e+07,-75.1866
8.624000000e+07,-72.9591
8.661333333e+07,-66.9641
8.698666667e+07,-55.9943
8.736000000e+07,-52.8601
8.773333333e+07,-68.9122
8.810666667e+07,-69.8695
8.848000000e+07,-78.6938
8.885333333e+07,-74.4876
8.922666667e+07,-87.1846
8.960000000e+07,-64.0318
8.997333333e+07,-55.6773
9.034666667e+07,-60.2521
9.072000000e+07,-67.0787
9.109333333e+07,-75.09
9.146666667e+07,-70.3276
9.184000000e+07,-69.3434
9.221333333e+07,-68.0285
9.258666667e+07,-52.9489
9.296000000e+07,-54.5131
9.333333333e+07,-67.6012
9.370666667e+07,-72.5857
9.408000000e+07,-71.4618
9.445333333e+07,-69.439
9.482666667e+07,-69.3397
9.520000000e+07,-52.9253
9.557333333e+07,-52.1281
9.594666667e+07,-44.413
9.632000000e+07,-49.62
9.669333333e+07,-66.9435
9.706666667e+07,-66.0541
9.744000000e+07,-68.264
9.781333333e+07,-57.1054
9.818666667e+07,-53.2778
9.856000000e+07,-60.4519
9.893333333e+07,-66.5648
9.930666667e+07,-72.412
9.968000000e+07,-66.5398
1.000533333e+08,-69.4848
1.004266667e+08,-59.655
1.008000000e+08,-51.7035
1.011733333e+08,-54.5239
1.015466667e+08,-67.4231
1.019200000e+08,-55.1758
1.022933333e+08,-57.23
1.026666667e+08,-68.5306
1.030400000e+08,-64.5863
1.034133333e+08,-54.9462
1.037866667e+08,-54.799
1.041600000e+08,-65.0785
1.045333333e+08,-66.9139
1.049066667e+08,-67.1818
1.052800000e+08,-69.1012
1.056533333e+08,-66.5836
1.060266667e+08,-55.4234
1.064000000e+08,-52.1278
1.067733333e+08,-55.9422
1.071466667e+08,-71.033
1.075200000e+08,-69.2256
1.078933333e+08,-47.8041
1.082666667e+08,-50.6406
1.086400000e+08,-63.6136
1.090133333e+08,-53.6494
1.093866667e+08,-55.1143
1.097600000e+08,-67.6239
1.101333333e+08,-69.4778
1.105066667e+08,-71.1929
1.108800000e+08,-71.1725
1.112533333e+08,-65.6456
1.116266667e+08,-50.7691
1.120000000e+08,-49.4807
1.123733333e+08,-68.7035
1.127466667e+08,-64.0991
1.131200000e+08,-67.405
1.134933333e+08,-67.0124
1.138666667e+08,-58.6284
1.142400000e+08,-56.3702
1.146133333e+08,-52.0366
1.149866667e+08,-60.6146
1.153600000e+08,-68.0573
1.157333333e+08,-72.0624
1.161066667e+08,-70.2401
1.164800000e+08,-71.2725
1.168533333e+08,-60.9438
1.172266667e+08,-48.7716
1.176000000e+08,-54.3897
1.179733333e+08,-69.2828
1.183466667e+08,-69.8282
1.187200000e+08,-67.0106
1.190933333e+08,-70.5166
1.194666667e+08,-64.397
1.198400000e+08,-37.0565
1.202133333e+08,-37.7676
1.205866667e+08,-72.0283
1.209600000e+08,-67.6057
1.213333333e+08,-71.3177
1.217066667e+08,-69.6093
1.220800000e+08,-67.4225
1.224533333e+08,-50.1117
1.228266667e+08,-48.3803
1.232000000e+08,-65.0694
1.235733333e+08,-67.6379
1.239466667e+08,-68.7406
1.243200000e+08,-69.0517
1.246933333e+08,-68.7105
1.250666667e+08,-57.1141
1.254400000e+08,-51.179
1.258133333e+08,-56.9367
1.261866667e+08,-56.6822
1.265600000e+08,-69.5424
1.269333333e+08,-67.554
1.273066667e+08,-64.5976
1.276800000e+08,-63.5151
1.280533333e+08,-49.4191
1.284266667e+08,-53.239
1.288000000e+08,-67.7357
1.291733333e+08,-65.0404
1.295466667e+08,-69.6702
1.299200000e+08,-69.9277
1.302933333e+08,-61.932
1.306666667e+08,-52.2427
1.310400000e+08,-52.4814
1.314133333e+08,-63.8768
1.317866667e+08,-64.8436
1.321600000e+08,-64.2204
1.325333333e+08,-65.1825
1.329066667e+08,-68.8568
1.332800000e+08,-52.2056
1.336533333e+08,-50.8027
1.340266667e+08,-54.5993
1.344000000e+08,-64.0598
1.347733333e+08,-66.0279
1.351466667e+08,-66.8607
1.355200000e+08,-66.1122
1.358933333e+08,-63.1687
1.362666667e+08,-52.945
1.366400000e+08,-53.2165
1.370133333e+08,-75.2398
1.373866667e+08,-69.4844
1.377600000e+08,-65.1118
1.381333333e+08,-63.437
1.385066667e+08,-61.7244
1.388800000e+08,-50.9705
1.392533333e+08,-49.7996
1.396266667e+08,-63.6192
1.400000000e+08,-65.6408
1.403733333e+08,-66.781
1.407466667e+08,-67.6199
1.411200000e+08,-71.0363
1.414933333e+08,-57.7822
1.418666667e+08,-52.6265
1.422400000e+08,-60.0464
1.426133333e+08,-73.4579
1.429866667e+08,-74.9676
1.433600000e+08,-65.6368
1.437333333e+08,-47.9171
1.441066667e+08,-44.5861
1.444800000e+08,-47.9789
1.448533333e+08,-50.3989
1.452266667e+08,-67.6092
1.456000000e+08,-67.6151
1.459733333e+08,-72.3011
1.463466667e+08,-66.5533
1.467200000e+08,-66.5587
1.470933333e+08,-51.4334
1.474666667e+08,-51.0789
1.478400000e+08,-68.6058
1.482133333e+08,-72.8968
1.485866667e+08,-70.4984
1.489600000e+08,-68.6829
1.493333333e+08,-67.6335
1.497066667e+08,-49.7988
1.500800000e+08,-46.7066
1.504533333e+08,-60.6093
1.508266667e+08,-68.4894
1.512000000e+08,-73.3752
1.515733333e+08,-68.0991
1.519466667e+08,-67.6183
1.523200000e+08,-56.4427
1.526933333e+08,-49.8288
1.530666667e+08,-59.2626
1.534400000e+08,-64.6288
1.538133333e+08,-72.203
1.541866667e+08,-71.0995
1.545600000e+08,-67.2227
1.549333333e+08,-61.96
1.553066667e+08,-48.2115
1.556800000e+08,-50.0961
1.560533333e+08,-49.554
1.564266667e+08,-61.5573
1.568000000e+08,-61.5363
1.571733333e+08,-64.3676
1.575466667e+08,-63.9169
1.579200000e+08,-51.7844
1.582933333e+08,-51.2396
1.586666667e+08,-61.7273
1.590400000e+08,-66.6479
1.594133333e+08,-64.9076
1.597866667e+08,-65.1493
1.601600000e+08,-62.2318
1.605333333e+08,-51.885
1.609066667e+08,-49.009
1.612800000e+08,-54.0946
1.616533333e+08,-62.2302
1.620266667e+08,-59.6748
1.624000000e+08,-64.731
1.627733333e+08,-64.7607
1.631466667e+08,-60.2599
1.635200000e+08,-52.1712
1.638933333e+08,-54.4411
1.642666667e+08,-70.3556
1.646400000e+08,-71.4833
1.650133333e+08,-67.8076
1.653866667e+08,-66.5522
1.657600000e+08,-63.0023
1.661333333e+08,-49.6508
1.665066667e+08,-49.4046
1.668800000e+08,-65.3719
1.672533333e+08,-63.9309
1.676266667e+08,-54.1831
1.680000000e+08,-46.8477
1.683733333e+08,-54.1617
1.687466667e+08,-55.5856
1.691200000e+08,-52.3238
1.694933333e+08,-58.395
1.698666667e+08,-78.4512
1.702400000e+08,-67.9214
1.706133333e+08,-65.5897
1.709866667e+08,-69.9756
1.713600000e+08,-57.8149
1.717333333e+08,-47.2941
1.721066667e+08,-48.9716
1.724800000e+08,-65.7147
1.728533333e+08,-70.863
1.732266667e+08,-66.5534
1.736000000e+08,-76.2251
1.739733333e+08,-59.7396
1.743466667e+08,-52.8945
1.747200000e+08,-51.7961
1.750933333e+08,-64.297
1.754666667e+08,-67.0293
1.758400000e+08,-71.3768
1.762133333e+08,-73.0467
1.765866667e+08,-73.694
1.769600000e+08,-51.175
1.773333333e+08,-46.527
1.777066667e+08,-59.2013
1.780800000e+08,-70.045
1.784533333e+08,-67.1477
1.788266667e+08,-75.1518
1.792000000e+08,-72.3942
1.795733333e+08,-59.6619
1.799466667e+08,-46.5324
1.803200000e+08,-51.3647
1.806933333e+08,-65.985
1.810666667e+08,-65.2187
1.814400000e+08,-64.9936
1.818133333e+08,-68.3164
1.821866667e+08,-61.9806
1.825600000e+08,-46.5787
1.829333333e+08,-48.1102
1.833066667e+08,-66.0276
1.836800000e+08,-69.8455
1.840533333e+08,-66.1072
1.844266667e+08,-67.1079
1.848000000e+08,-68.6402
1.851733333e+08,-53.517
1.855466667e+08,-52.0339
1.859200000e+08,-66.2489
1.862933333e+08,-68.8771
1.866666667e+08,-65.8837
1.870400000e+08,-64.687
1.874133333e+08,-62.3834
1.877866667e+08,-52.4055
1.881600000e+08,-47.7206
1.885333333e+08,-53.7921
1.889066667e+08,-63.3551
1.892800000e+08,-69.7383
1.896533333e+08,-66.715
1.900266667e+08,-62.6319
1.904000000e+08,-63.1014
1.907733333e+08,-52.0354
1.911466667e+08,-54.8439
1.915200000e+08,-64.3589
1.918933333e+08,-46.4123
1.922666667e+08,-47.7506
1.926400000e+08,-61.8197
1.930133333e+08,-62.6134
1.933866667e+08,-48.331
1.937600000e+08,-48.5976
1.941333333e+08,-59.4117
1.945066667e+08,-68.6587
1.948800000e+08,-62.8713
1.952533333e+08,-63.1452
1.956266667e+08,-69.8172
1.960000000e+08,-56.4493
1.963733333e+08,-54.1634
1.967466667e+08,-57.9552
1.971200000e+08,-65.5366
1.974933333e+08,-66.8293
1.978666667e+08,-74.3886
1.982400000e+08,-63.1018
1.986133333e+08,-59.0237
1.989866667e+08,-48.3063
1.993600000e+08,-48.453
1.997333333e+08,-63.5691
2.001066667e+08,-66.3462
2.004800000e+08,-66.9341
2.008533333e+08,-72.5057
2.012266667e+08,-67.2136
2.016000000e+08,-52.383
2.019733333e+08,-50.8784
2.023466667e+08,-63.3174
2.027200000e+08,-64.7174
2.030933333e+08,-72.2017
2.034666667e+08,-64.3479
2.038400000e+08,-44.0116
2.042133333e+08,-44.6936
2.045866667e+08,-47.2027
2.049600000e+08,-57.2924
2.053333333e+08,-73.1659
2.057066667e+08,-67.8862
2.060800000e+08,-68.7785
2.064533333e+08,-68.2361
2.068266667e+08,-61.244
2.072000000e+08,-50.9185
2.075733333e+08,-55.6618
2.079466667e+08,-62.8501
2.083200000e+08,-63.0513
2.086933333e+08,-72.5672
2.090666667e+08,-65.5051
2.094400000e+08,-64.3402
2.098133333e+08,-45.2609
2.101866667e+08,-45.4864
2.105600000e+08,-65.1046
2.109333333e+08,-61.6425
2.113066667e+08,-64.5725
2.116800000e+08,-63.8797
2.120533333e+08,-61.5555
2.124266667e+08,-53.3083
2.128000000e+08,-52.1714
2.131733333e+08,-61.0368
2.135466667e+08,-63.8275
2.139200000e+08,-63.1717
2.142933333e+08,-60.905
2.146666667e+08,-73.2403
2.150400000e+08,-53.2745
2.154133333e+08,-46.5545
2.157866667e+08,-49.7189
2.161600000e+08,-48.4676
2.165333333e+08,-70.4292
2.169066667e+08,-65.8246
2.172800000e+08,-63.6081
2.176533333e+08,-60.8674
2.180266667e+08,-51.3168
2.184000000e+08,-55.4404
2.187733333e+08,-65.4326
2.191466667e+08,-64.8622
2.195200000e+08,-59.8417
2.198933333e+08,-65.4365
2.202666667e+08,-57.5385
2.206400000e+08,-48.416
2.210133333e+08,-47.971
2.213866667e+08,-54.2318
2.217600000e+08,-68.0239
2.221333333e+08,-64.2368
2.225066667e+08,-64.8164
2.228800000e+08,-66.4932
2.232533333e+08,-56.7994
2.236266667e+08,-54.4895
2.240000000e+08,-59.3112
2.243733333e+08,-66.758
2.247466667e+08,-66.9654
2.251200000e+08,-70.216
2.254933333e+08,-63.9578
2.258666667e+08,-57.7994
2.262400000e+08,-48.5796
2.266133333e+08,-48.646
2.269866667e+08,-62.7203
2.273600000e+08,-63.7528
2.277333333e+08,-47.0938
2.281066667e+08,-44.8327
2.284800000e+08,-60.8829
2.288533333e+08,-53.5207
2.292266667e+08,-52.6592
2.296000000e+08,-63.5494
2.299733333e+08,-68.3501
2.303466667e+08,-73.0503
2.307200000e+08,-70.4092
2.310933333e+08,-64.3541
2.314666667e+08,-52.0263
2.318400000e+08,-46.6159
2.322133333e+08,-53.4461
2.325866667e+08,-69.4851
2.329600000e+08,-71.3658
2.333333333e+08,-73.2413
2.337066667e+08,-70.0869
2.340800000e+08,-66.1546
2.344533333e+08,-51.3808
2.348266667e+08,-53.492
2.352000000e+08,-72.8547
2.355733333e+08,-66.404
2.359466667e+08,-72.3203
2.363200000e+08,-69.2991
2.366933333e+08,-74.0193
2.370666667e+08,-46.2451
2.374400000e+08,-45.5661
2.378133333e+08,-68.8822
2.381866667e+08,-77.2746
2.385600000e+08,-68.0929
2.389333333e+08,-66.2569
2.393066667e+08,-66.0576
2.396800000e+08,-59.3314
2.400533333e+08,-46.3405
2.404266667e+08,-48.9662
2.408000000e+08,-66.0447
2.411733333e+08,-69.4096
2.415466667e+08,-66.1699
2.419200000e+08,-66.4249
2.422933333e+08,-56.4138
2.426666667e+08,-46.0665
2.430400000e+08,-52.317
2.434133333e+08,-69.7713
2.437866667e+08,-68.3577
2.441600000e+08,-66.8778
2.445333333e+08,-68.0025
2.449066667e+08,-68.9344
2.452800000e+08,-52.5866
2.456533333e+08,-54.7504
2.460266667e+08,-62.7883
2.464000000e+08,-66.8968
2.467733333e+08,-66.5769
2.471466667e+08,-65.8013
2.475200000e+08,-64.752
2.478933333e+08,-47.7962
2.482666667e+08,-46.9943
2.486400000e+08,-56.6079
2.490133333e+08,-64.8876
2.493866667e+08,-66.8607
2.497600000e+08,-66.8271
2.501333333e+08,-63.6564
2.505066667e+08,-57.3005
2.508800000e+08,-54.1675
2.512533333e+08,-59.6717
2.516266667e+08,-49.4373
2.520000000e+08,-41.7656
2.523733333e+08,-52.0574
2.527466667e+08,-65.9399
2.531200000e+08,-58.2528
2.534933333e+08,-48.595
2.538666667e+08,-49.4831
2.542400000e+08,-63.5259
2.546133333e+08,-66.1818
2.549866667e+08,-66.1278
2.553600000e+08,-64.3711
2.557333333e+08,-62.8184
2.561066667e+08,-55.3586
2.564800000e+08,-55.1449
2.568533333e+08,-67.7311
2.572266667e+08,-69.1976
2.576000000e+08,-71.8818
2.579733333e+08,-60.6284
2.583466667e+08,-65.6308
2.587200000e+08,-52.4258
2.590933333e+08,-48.0656
2.594666667e+08,-52.3537
2.598400000e+08,-65.5054
2.602133333e+08,-69.901
2.605866667e+08,-69.3975
2.609600000e+08,-64.9051
2.613333333e+08,-65.3222
2.617066667e+08,-53.8447
2.620800000e+08,-55.3085
2.624533333e+08,-72.1512
2.628266667e+08,-71.5975
2.632000000e+08,-68.3061
2.635733333e+08,-58.5213
2.639466667e+08,-47.3627
2.643200000e+08,-48.2933
2.646933333e+08,-46.9207
2.650666667e+08,-68.1108
2.654400000e+08,-70.1122
2.658133333e+08,-70.4464
2.661866667e+08,-68.0607
2.665600000e+08,-74.5495
2.669333333e+08,-56.7336
2.673066667e+08,-52.3361
2.676800000e+08,-62.1548
2.680533333e+08,-67.3206
2.684266667e+08,-69.0792
2.688000000e+08,-68.1397
2.691733333e+08,-69.8515
2.695466667e+08,-62.1883
2.699200000e+08,-49.0732
2.702933333e+08,-53.3786
2.706666667e+08,-65.7526
2.710400000e+08,-68.0939
2.714133333e+08,-65.8289
2.717866667e+08,-64.0891
2.721600000e+08,-64.0187
2.725333333e+08,-51.6081
2.729066667e+08,-52.6983
2.732800000e+08,-65.2834
2.736533333e+08,-65.5825
2.740266667e+08,-69.9852
2.744000000e+08,-68.983
2.747733333e+08,-64.9947
2.751466667e+08,-49.3743
2.755200000e+08,-48.0005
2.758933333e+08,-42.15
2.762666667e+08,-44.6381
2.766400000e+08,-64.1024
2.770133333e+08,-67.1247
2.773866667e+08,-67.6573
2.777600000e+08,-57.6857
2.781333333e+08,-52.6803
2.785066667e+08,-58.3739
2.788800000e+08,-68.9924
2.792533333e+08,-70.522
2.796266667e+08,-68.3683
2.800000000e+08,-64.8055

