3/tek0067NRM.csv

Model,MDO3104
Firmware Version,1.30

Waveform Type,RF_FD
Point Format,Y
Horizontal Units,Hz
Horizontal Scale,2.8e+07
,
Sample Interval,373333
Record Length,751
Gating,0.133155792277% to 100.0%
Probe Attenuation,1
Vertical Units,dBm
Vertical Offset,0
Vertical Scale,10
Vertical Position,0
Center Frequency,1.4e+08
Span,2.8e+08
Reference Level,-15
Label,
FREQUENCY,FD NORM
0.000000000e+00,-65.5419
3.733333333e+05,-75.6302
7.466666667e+05,-77.4564
1.120000000e+06,-78.391
1.493333333e+06,-69.3234
1.866666667e+06,-69.6564
2.240000000e+06,-77.3015
2.613333333e+06,-65.008
2.986666667e+06,-71.0151
3.360000000e+06,-62.6836
3.733333333e+06,-63.1769
4.106666667e+06,-69.5762
4.480000000e+06,-64.7029
4.853333333e+06,-76.0469
5.226666667e+06,-68.5229
5.600000000e+06,-70.5497
5.973333333e+06,-74.7752
6.346666667e+06,-75.1287
6.720000000e+06,-72.1347
7.093333333e+06,-72.1424
7.466666667e+06,-72.5883
7.840000000e+06,-67.4275
8.213333333e+06,-68.5614
8.586666667e+06,-78.8015
8.960000000e+06,-63.4313
9.333333333e+06,-64.9884
9.706666667e+06,-76.1835
1.008000000e+07,-65.9793
1.045333333e+07,-66.1435
1.082666667e+07,-69.715
1.120000000e+07,-67.3956
1.157333333e+07,-71.5693
1.194666667e+07,-68.5369
1.232000000e+07,-72.2342
1.269333333e+07,-82.6495
1.306666667e+07,-68.1548
1.344000000e+07,-63.8249
1.381333333e+07,-65.326
1.418666667e+07,-72.7042
1.456000000e+07,-75.0592
1.493333333e+07,-72.2826
1.530666667e+07,-72.7623
1.568000000e+07,-72.321
1.605333333e+07,-67.5864
1.642666667e+07,-62.9663
1.680000000e+07,-64.1415
1.717333333e+07,-67.0144
1.754666667e+07,-66.5122
1.792000000e+07,-68.8366
1.829333333e+07,-64.9805
1.866666667e+07,-71.5222
1.904000000e+07,-65.876
1.941333333e+07,-66.9846
1.978666667e+07,-68.5109
2.016000000e+07,-71.7052
2.053333333e+07,-71.358
2.090666667e+07,-73.3114
2.128000000e+07,-71.8029
2.165333333e+07,-65.3525
2.202666667e+07,-64.6825
2.240000000e+07,-69.3505
2.277333333e+07,-68.7867
2.314666667e+07,-71.6996
2.352000000e+07,-64.4087
2.389333333e+07,-66.9759
2.426666667e+07,-59.3353
2.464000000e+07,-58.389
2.501333333e+07,-52.2158
2.538666667e+07,-59.0188
2.576000000e+07,-69.7289
2.613333333e+07,-68.5895
2.650666667e+07,-77.4192
2.688000000e+07,-63.739
2.725333333e+07,-59.8747
2.762666667e+07,-66.0189
2.800000000e+07,-71.249
2.837333333e+07,-71.5227
2.874666667e+07,-71.4712
2.912000000e+07,-76.2011
2.949333333e+07,-67.5189
2.986666667e+07,-60.6751
3.024000000e+07,-61.4912
3.061333333e+07,-68.9091
3.098666667e+07,-71.4289
3.136000000e+07,-65.0396
3.173333333e+07,-67.9071
3.210666667e+07,-74.6126
3.248000000e+07,-60.195
3.285333333e+07,-59.1661
3.322666667e+07,-65.1727
3.360000000e+07,-65.3217
3.397333333e+07,-65.1175
3.434666667e+07,-67.343
3.472000000e+07,-69.7701
3.509333333e+07,-64.1078
3.546666667e+07,-58.1723
3.584000000e+07,-61.5346
3.621333333e+07,-63.2504
3.658666667e+07,-72.4257
3.696000000e+07,-71.2457
3.733333333e+07,-69.3047
3.770666667e+07,-65.5464
3.808000000e+07,-58.5576
3.845333333e+07,-64.0065
3.882666667e+07,-68.6158
3.920000000e+07,-69.6392
3.957333333e+07,-67.1833
3.994666667e+07,-71.2583
4.032000000e+07,-66.329
4.069333333e+07,-58.565
4.106666667e+07,-59.5855
4.144000000e+07,-65.9285
4.181333333e+07,-69.0252
4.218666667e+07,-64.2794
4.256000000e+07,-66.2189
4.293333333e+07,-67.9733
4.330666667e+07,-60.9491
4.368000000e+07,-59.8846
4.405333333e+07,-64.6485
4.442666667e+07,-73.2859
4.480000000e+07,-64.6652
4.517333333e+07,-64.0638
4.554666667e+07,-63.9665
4.592000000e+07,-63.6231
4.629333333e+07,-58.422
4.666666667e+07,-58.8228
4.704000000e+07,-64.7462
4.741333333e+07,-66.209
4.778666667e+07,-60.3978
4.816000000e+07,-61.0661
4.853333333e+07,-65.0101
4.890666667e+07,-59.1603
4.928000000e+07,-57.7366
4.965333333e+07,-68.7878
5.002666667e+07,-76.0743
5.040000000e+07,-67.2901
5.077333333e+07,-70.8518
5.114666667e+07,-65.8028
5.152000000e+07,-58.4058
5.189333333e+07,-54.2632
5.226666667e+07,-61.8044
5.264000000e+07,-72.174
5.301333333e+07,-72.3391
5.338666667e+07,-73.5832
5.376000000e+07,-64.0887
5.413333333e+07,-65.2773
5.450666667e+07,-55.145
5.488000000e+07,-59.2203
5.525333333e+07,-63.4612
5.562666667e+07,-64.8405
5.600000000e+07,-63.0984
5.637333333e+07,-66.0352
5.674666667e+07,-65.289
5.712000000e+07,-52.6166
5.749333333e+07,-53.0845
5.786666667e+07,-65.6646
5.824000000e+07,-65.063
5.861333333e+07,-61.3601
5.898666667e+07,-64.555
5.936000000e+07,-64.4807
5.973333333e+07,-36.0819
6.010666667e+07,-33.7764
6.048000000e+07,-52.3054
6.085333333e+07,-65.5964
6.122666667e+07,-64.9954
6.160000000e+07,-66.1423
6.197333333e+07,-66.0958
6.234666667e+07,-60.055
6.272000000e+07,-52.2205
6.309333333e+07,-60.0267
6.346666667e+07,-65.3489
6.384000000e+07,-65.0099
6.421333333e+07,-63.874
6.458666667e+07,-65.113
6.496000000e+07,-67.6596
6.533333333e+07,-54.5502
6.570666667e+07,-58.2267
6.608000000e+07,-66.0583
6.645333333e+07,-66.9453
6.682666667e+07,-63.6633
6.720000000e+07,-66.1316
6.757333333e+07,-64.87
6.794666667e+07,-57.6807
6.832000000e+07,-58.2662
6.869333333e+07,-67.6412
6.906666667e+07,-69.2921
6.944000000e+07,-63.9999
6.981333333e+07,-64.2183
7.018666667e+07,-62.9452
7.056000000e+07,-58.0618
7.093333333e+07,-55.91
7.130666667e+07,-62.9937
7.168000000e+07,-64.7307
7.205333333e+07,-64.8866
7.242666667e+07,-67.7155
7.280000000e+07,-68.3051
7.317333333e+07,-62.8503
7.354666667e+07,-54.9471
7.392000000e+07,-56.4088
7.429333333e+07,-66.5987
7.466666667e+07,-65.028
7.504000000e+07,-63.6789
7.541333333e+07,-72.0218
7.578666667e+07,-65.1374
7.616000000e+07,-54.9716
7.653333333e+07,-55.4887
7.690666667e+07,-70.8521
7.728000000e+07,-64.7507
7.765333333e+07,-62.9113
7.802666667e+07,-67.5558
7.840000000e+07,-65.4487
7.877333333e+07,-58.9565
7.914666667e+07,-54.1304
7.952000000e+07,-62.2183
7.989333333e+07,-72.5341
8.026666667e+07,-62.1731
8.064000000e+07,-63.6913
8.101333333e+07,-61.9534
8.138666667e+07,-62.9244
8.176000000e+07,-55.0084
8.213333333e+07,-56.3456
8.250666667e+07,-68.3751
8.288000000e+07,-62.9645
8.325333333e+07,-62.2537
8.362666667e+07,-59.1118
8.400000000e+07,-53.828
8.437333333e+07,-53.0204
8.474666667e+07,-51.921
8.512000000e+07,-67.6678
8.549333333e+07,-70.5042
8.586666667e+07,-67.0911
8.624000000e+07,-73.2707
8.661333333e+07,-62.0348
8.698666667e+07,-56.1779
8.736000000e+07,-52.3155
8.773333333e+07,-66.7016
8.810666667e+07,-69.1683
8.848000000e+07,-63.3558
8.885333333e+07,-62.8199
8.922666667e+07,-63.9414
8.960000000e+07,-65.9947
8.997333333e+07,-55.3532
9.034666667e+07,-60.9714
9.072000000e+07,-69.2911
9.109333333e+07,-62.4741
9.146666667e+07,-61.4915
9.184000000e+07,-64.8257
9.221333333e+07,-66.0814
9.258666667e+07,-52.9035
9.296000000e+07,-54.5198
9.333333333e+07,-71.7196
9.370666667e+07,-70.4491
9.408000000e+07,-65.6237
9.445333333e+07,-65.5731
9.482666667e+07,-64.8644
9.520000000e+07,-51.51
9.557333333e+07,-51.4143
9.594666667e+07,-53.5971
9.632000000e+07,-55.7233
9.669333333e+07,-61.3605
9.706666667e+07,-63.015
9.744000000e+07,-65.5184
9.781333333e+07,-58.1039
9.818666667e+07,-53.0831
9.856000000e+07,-59.4798
9.893333333e+07,-65.4311
9.930666667e+07,-61.9501
9.968000000e+07,-61.2582
1.000533333e+08,-62.7114
1.004266667e+08,-61.8219
1.008000000e+08,-52.6072
1.011733333e+08,-56.2267
1.015466667e+08,-60.1016
1.019200000e+08,-63.8046
1.022933333e+08,-61.4721
1.026666667e+08,-71.0797
1.030400000e+08,-62.0516
1.034133333e+08,-54.6915
1.037866667e+08,-54.6926
1.041600000e+08,-62.3968
1.045333333e+08,-67.3367
1.049066667e+08,-60.7021
1.052800000e+08,-64.4753
1.056533333e+08,-62.2652
1.060266667e+08,-54.574
1.064000000e+08,-51.2716
1.067733333e+08,-53.6434
1.071466667e+08,-65.1199
1.075200000e+08,-60.522
1.078933333e+08,-53.2694
1.082666667e+08,-55.4957
1.086400000e+08,-61.1318
1.090133333e+08,-54.2524
1.093866667e+08,-54.6973
1.097600000e+08,-67.3984
1.101333333e+08,-59.7325
1.105066667e+08,-58.6594
1.108800000e+08,-62.7669
1.112533333e+08,-61.0886
1.116266667e+08,-53.4037
1.120000000e+08,-51.3558
1.123733333e+08,-60.4626
1.127466667e+08,-64.7357
1.131200000e+08,-62.8288
1.134933333e+08,-64.5079
1.138666667e+08,-60.6694
1.142400000e+08,-57.99
1.146133333e+08,-52.8055
1.149866667e+08,-64.9443
1.153600000e+08,-63.4438
1.157333333e+08,-61.3481
1.161066667e+08,-62.849
1.164800000e+08,-64.4189
1.168533333e+08,-61.7048
1.172266667e+08,-49.4139
1.176000000e+08,-52.8093
1.179733333e+08,-64.5739
1.183466667e+08,-61.1582
1.187200000e+08,-60.4463
1.190933333e+08,-62.1058
1.194666667e+08,-60.8876
1.198400000e+08,-35.9176
1.202133333e+08,-36.7714
1.205866667e+08,-72.1438
1.209600000e+08,-71.0146
1.213333333e+08,-60.9922
1.217066667e+08,-63.1171
1.220800000e+08,-64.0102
1.224533333e+08,-51.2369
1.228266667e+08,-49.4009
1.232000000e+08,-62.515
1.235733333e+08,-63.0979
1.239466667e+08,-58.61
1.243200000e+08,-59.1449
1.246933333e+08,-65.8113
1.250666667e+08,-57.3476
1.254400000e+08,-50.8406
1.258133333e+08,-57.6503
1.261866667e+08,-63.3655
1.265600000e+08,-64.2313
1.269333333e+08,-62.0945
1.273066667e+08,-63.9365
1.276800000e+08,-61.4658
1.280533333e+08,-50.164
1.284266667e+08,-53.7169
1.288000000e+08,-62.7243
1.291733333e+08,-67.0937
1.295466667e+08,-58.9181
1.299200000e+08,-64.58
1.302933333e+08,-60.4569
1.306666667e+08,-52.0418
1.310400000e+08,-52.2388
1.314133333e+08,-60.2871
1.317866667e+08,-52.1951
1.321600000e+08,-52.3339
1.325333333e+08,-65.1427
1.329066667e+08,-58.0296
1.332800000e+08,-51.8898
1.336533333e+08,-50.5646
1.340266667e+08,-54.081
1.344000000e+08,-60.1009
1.347733333e+08,-57.384
1.351466667e+08,-58.1531
1.355200000e+08,-58.9578
1.358933333e+08,-57.9812
1.362666667e+08,-52.5931
1.366400000e+08,-53.4759
1.370133333e+08,-63.8353
1.373866667e+08,-60.0574
1.377600000e+08,-59.0217
1.381333333e+08,-62.6907
1.385066667e+08,-58.2548
1.388800000e+08,-51.6904
1.392533333e+08,-49.5322
1.396266667e+08,-57.3724
1.400000000e+08,-62.3277
1.403733333e+08,-58.9115
1.407466667e+08,-63.5371
1.411200000e+08,-59.5384
1.414933333e+08,-57.1901
1.418666667e+08,-52.3989
1.422400000e+08,-60.3436
1.426133333e+08,-63.3255
1.429866667e+08,-59.1915
1.433600000e+08,-59.7126
1.437333333e+08,-59.0416
1.441066667e+08,-57.8557
1.444800000e+08,-48.2738
1.448533333e+08,-50.3467
1.452266667e+08,-63.9538
1.456000000e+08,-60.826
1.459733333e+08,-60.0084
1.463466667e+08,-59.7491
1.467200000e+08,-61.1698
1.470933333e+08,-51.3238
1.474666667e+08,-51.0765
1.478400000e+08,-64.8359
1.482133333e+08,-62.9023
1.485866667e+08,-60.0034
1.489600000e+08,-61.9538
1.493333333e+08,-62.1477
1.497066667e+08,-52.8693
1.500800000e+08,-48.5971
1.504533333e+08,-61.6868
1.508266667e+08,-60.3112
1.512000000e+08,-61.3861
1.515733333e+08,-62.8769
1.519466667e+08,-62.5225
1.523200000e+08,-58.9366
1.526933333e+08,-51.2267
1.530666667e+08,-58.9211
1.534400000e+08,-67.2122
1.538133333e+08,-60.7295
1.541866667e+08,-58.6921
1.545600000e+08,-63.5192
1.549333333e+08,-63.8344
1.553066667e+08,-48.0672
1.556800000e+08,-50.4917
1.560533333e+08,-51.5822
1.564266667e+08,-66.7129
1.568000000e+08,-59.197
1.571733333e+08,-63.2159
1.575466667e+08,-58.5657
1.579200000e+08,-51.8546
1.582933333e+08,-51.297
1.586666667e+08,-59.784
1.590400000e+08,-62.8008
1.594133333e+08,-58.9667
1.597866667e+08,-61.7877
1.601600000e+08,-58.175
1.605333333e+08,-51.5445
1.609066667e+08,-49.0325
1.612800000e+08,-54.1297
1.616533333e+08,-58.9179
1.620266667e+08,-57.088
1.624000000e+08,-56.9763
1.627733333e+08,-62.8591
1.631466667e+08,-58.7318
1.635200000e+08,-53.0122
1.638933333e+08,-53.1137
1.642666667e+08,-62.8039
1.646400000e+08,-61.3369
1.650133333e+08,-57.6733
1.653866667e+08,-60.902
1.657600000e+08,-58.3159
1.661333333e+08,-51.0713
1.665066667e+08,-49.6421
1.668800000e+08,-56.3098
1.672533333e+08,-61.4142
1.676266667e+08,-58.0755
1.680000000e+08,-60.6829
1.683733333e+08,-60.1965
1.687466667e+08,-59.2065
1.691200000e+08,-54.3124
1.694933333e+08,-56.9897
1.698666667e+08,-61.5842
1.702400000e+08,-57.8871
1.706133333e+08,-59.5648
1.709866667e+08,-60.0855
1.713600000e+08,-58.4234
1.717333333e+08,-47.7943
1.721066667e+08,-48.7191
1.724800000e+08,-59.5927
1.728533333e+08,-61.1465
1.732266667e+08,-60.5184
1.736000000e+08,-59.8494
1.739733333e+08,-59.042
1.743466667e+08,-53.5158
1.747200000e+08,-52.4201
1.750933333e+08,-63.8743
1.754666667e+08,-59.3213
1.758400000e+08,-57.8266
1.762133333e+08,-64.8751
1.765866667e+08,-61.8933
1.769600000e+08,-53.3427
1.773333333e+08,-47.2218
1.777066667e+08,-56.8391
1.780800000e+08,-61.4127
1.784533333e+08,-60.5445
1.788266667e+08,-62.0979
1.792000000e+08,-61.7066
1.795733333e+08,-52.3001
1.799466667e+08,-40.0822
1.803200000e+08,-45.3637
1.806933333e+08,-61.0046
1.810666667e+08,-60.2629
1.814400000e+08,-58.1195
1.818133333e+08,-63.8338
1.821866667e+08,-64.1526
1.825600000e+08,-46.7732
1.829333333e+08,-47.8488
1.833066667e+08,-61.1362
1.836800000e+08,-63.3467
1.840533333e+08,-58.0927
1.844266667e+08,-61.3828
1.848000000e+08,-60.4649
1.851733333e+08,-53.1406
1.855466667e+08,-50.9164
1.859200000e+08,-61.5017
1.862933333e+08,-62.0692
1.866666667e+08,-56.2222
1.870400000e+08,-57.1882
1.874133333e+08,-60.8916
1.877866667e+08,-52.4072
1.881600000e+08,-47.5107
1.885333333e+08,-53.0586
1.889066667e+08,-57.4797
1.892800000e+08,-57.9819
1.896533333e+08,-57.2485
1.900266667e+08,-63.4054
1.904000000e+08,-60.5744
1.907733333e+08,-53.2879
1.911466667e+08,-55.2599
1.915200000e+08,-60.1136
1.918933333e+08,-50.5306
1.922666667e+08,-49.2964
1.926400000e+08,-61.8532
1.930133333e+08,-57.5075
1.933866667e+08,-48.6573
1.937600000e+08,-48.9725
1.941333333e+08,-52.22
1.945066667e+08,-65.2058
1.948800000e+08,-57.9411
1.952533333e+08,-59.3699
1.956266667e+08,-59.0199
1.960000000e+08,-57.8892
1.963733333e+08,-54.963
1.967466667e+08,-57.7032
1.971200000e+08,-63.0064
1.974933333e+08,-59.9741
1.978666667e+08,-62.5464
1.982400000e+08,-57.8232
1.986133333e+08,-56.0418
1.989866667e+08,-48.2925
1.993600000e+08,-48.1461
1.997333333e+08,-56.7967
2.001066667e+08,-57.343
2.004800000e+08,-56.6244
2.008533333e+08,-68.1268
2.012266667e+08,-65.8715
2.016000000e+08,-55.7756
2.019733333e+08,-53.8551
2.023466667e+08,-62.7466
2.027200000e+08,-57.1005
2.030933333e+08,-55.8619
2.034666667e+08,-59.0933
2.038400000e+08,-48.8255
2.042133333e+08,-49.8973
2.045866667e+08,-46.5207
2.049600000e+08,-54.1244
2.053333333e+08,-60.9546
2.057066667e+08,-61.0876
2.060800000e+08,-61.3797
2.064533333e+08,-60.4452
2.068266667e+08,-65.9376
2.072000000e+08,-52.7433
2.075733333e+08,-54.9914
2.079466667e+08,-57.1133
2.083200000e+08,-56.2768
2.086933333e+08,-59.0528
2.090666667e+08,-60.9591
2.094400000e+08,-61.2051
2.098133333e+08,-47.7056
2.101866667e+08,-47.2828
2.105600000e+08,-59.1054
2.109333333e+08,-59.2337
2.113066667e+08,-57.5754
2.116800000e+08,-60.722
2.120533333e+08,-64.5274
2.124266667e+08,-52.4029
2.128000000e+08,-50.3689
2.131733333e+08,-60.5033
2.135466667e+08,-61.3788
2.139200000e+08,-57.1189
2.142933333e+08,-58.0278
2.146666667e+08,-58.9126
2.150400000e+08,-57.638
2.154133333e+08,-46.6937
2.157866667e+08,-52.8168
2.161600000e+08,-51.4972
2.165333333e+08,-62.8912
2.169066667e+08,-59.7077
2.172800000e+08,-63.2339
2.176533333e+08,-57.6337
2.180266667e+08,-52.4934
2.184000000e+08,-54.1497
2.187733333e+08,-61.5431
2.191466667e+08,-63.6333
2.195200000e+08,-56.3763
2.198933333e+08,-63.9152
2.202666667e+08,-62.7071
2.206400000e+08,-47.3786
2.210133333e+08,-47.5292
2.213866667e+08,-54.2209
2.217600000e+08,-59.1248
2.221333333e+08,-55.7279
2.225066667e+08,-57.3816
2.228800000e+08,-57.5443
2.232533333e+08,-57.795
2.236266667e+08,-53.5226
2.240000000e+08,-54.4452
2.243733333e+08,-61.2536
2.247466667e+08,-58.8779
2.251200000e+08,-59.049
2.254933333e+08,-57.6624
2.258666667e+08,-56.2417
2.262400000e+08,-49.2697
2.266133333e+08,-48.9223
2.269866667e+08,-56.483
2.273600000e+08,-56.7219
2.277333333e+08,-52.1321
2.281066667e+08,-48.0432
2.284800000e+08,-59.4583
2.288533333e+08,-55.4885
2.292266667e+08,-53.3653
2.296000000e+08,-59.2672
2.299733333e+08,-60.8698
2.303466667e+08,-56.8198
2.307200000e+08,-58.093
2.310933333e+08,-56.6944
2.314666667e+08,-52.4394
2.318400000e+08,-46.1094
2.322133333e+08,-50.8834
2.325866667e+08,-62.9908
2.329600000e+08,-57.4355
2.333333333e+08,-58.1681
2.337066667e+08,-58.2928
2.340800000e+08,-59.6587
2.344533333e+08,-52.7002
2.348266667e+08,-54.0246
2.352000000e+08,-58.5764
2.355733333e+08,-59.1012
2.359466667e+08,-58.9577
2.363200000e+08,-60.0979
2.366933333e+08,-60.0813
2.370666667e+08,-47.106
2.374400000e+08,-45.7476
2.378133333e+08,-62.7114
2.381866667e+08,-61.8977
2.385600000e+08,-58.1852
2.389333333e+08,-60.3907
2.393066667e+08,-62.1472
2.396800000e+08,-53.1986
2.400533333e+08,-45.4426
2.404266667e+08,-50.2995
2.408000000e+08,-60.7221
2.411733333e+08,-58.4382
2.415466667e+08,-58.5707
2.419200000e+08,-59.7564
2.422933333e+08,-59.9339
2.426666667e+08,-46.0202
2.430400000e+08,-51.1832
2.434133333e+08,-58.6791
2.437866667e+08,-62.1087
2.441600000e+08,-57.9861
2.445333333e+08,-66.9162
2.449066667e+08,-64.3718
2.452800000e+08,-52.4043
2.456533333e+08,-53.7528
2.460266667e+08,-59.777
2.464000000e+08,-61.9874
2.467733333e+08,-57.6961
2.471466667e+08,-63.5609
2.475200000e+08,-58.6735
2.478933333e+08,-48.5166
2.482666667e+08,-47.4875
2.486400000e+08,-55.4309
2.490133333e+08,-59.9744
2.493866667e+08,-56.6043
2.497600000e+08,-58.2134
2.501333333e+08,-59.08
2.505066667e+08,-59.1434
2.508800000e+08,-52.4436
2.512533333e+08,-56.5072
2.516266667e+08,-59.1543
2.520000000e+08,-49.9436
2.523733333e+08,-60.5534
2.527466667e+08,-58.9866
2.531200000e+08,-58.8898
2.534933333e+08,-49.3047
2.538666667e+08,-50.1162
2.542400000e+08,-58.0588
2.546133333e+08,-58.7582
2.549866667e+08,-55.3796
2.553600000e+08,-64.8035
2.557333333e+08,-60.5716
2.561066667e+08,-55.6
2.564800000e+08,-54.139
2.568533333e+08,-58.5471
2.572266667e+08,-59.7445
2.576000000e+08,-55.4617
2.579733333e+08,-60.2994
2.583466667e+08,-58.2263
2.587200000e+08,-52.9545
2.590933333e+08,-48.4671
2.594666667e+08,-50.76
2.598400000e+08,-58.2067
2.602133333e+08,-55.7359
2.605866667e+08,-56.2911
2.609600000e+08,-57.8714
2.613333333e+08,-57.9553
2.617066667e+08,-52.7952
2.620800000e+08,-52.8166
2.624533333e+08,-60.9503
2.628266667e+08,-60.2674
2.632000000e+08,-58.8797
2.635733333e+08,-60.6923
2.639466667e+08,-57.3011
2.643200000e+08,-50.6083
2.646933333e+08,-47.6522
2.650666667e+08,-58.9824
2.654400000e+08,-61.245
2.658133333e+08,-56.7734
2.661866667e+08,-59.4665
2.665600000e+08,-61.3607
2.669333333e+08,-59.7469
2.673066667e+08,-53.3353
2.676800000e+08,-62.2376
2.680533333e+08,-61.3768
2.684266667e+08,-59.2465
2.688000000e+08,-58.6357
2.691733333e+08,-59.7624
2.695466667e+08,-60.3257
2.699200000e+08,-46.2367
2.702933333e+08,-49.2669
2.706666667e+08,-58.8697
2.710400000e+08,-59.9894
2.714133333e+08,-58.2078
2.717866667e+08,-62.5218
2.721600000e+08,-62.1793
2.725333333e+08,-53.78
2.729066667e+08,-53.7814
2.732800000e+08,-63.0362
2.736533333e+08,-61.7603
2.740266667e+08,-58.0281
2.744000000e+08,-61.2511
2.747733333e+08,-60.7588
2.751466667e+08,-51.1219
2.755200000e+08,-48.6002
2.758933333e+08,-46.9243
2.762666667e+08,-49.3168
2.766400000e+08,-56.7284
2.770133333e+08,-56.7231
2.773866667e+08,-60.5864
2.777600000e+08,-59.5154
2.781333333e+08,-53.6106
2.785066667e+08,-58.9192
2.788800000e+08,-61.9261
2.792533333e+08,-57.4555
2.796266667e+08,-56.022
2.800000000e+08,-59.4436

