40pt77/tek0014NRM.csv

Model,MDO3104
Firmware Version,1.30

Waveform Type,RF_FD
Point Format,Y
Horizontal Units,Hz
Horizontal Scale,2.8e+07
,
Sample Interval,373333
Record Length,751
Gating,0.133155792277% to 100.0%
Probe Attenuation,1
Vertical Units,dBm
Vertical Offset,0
Vertical Scale,10
Vertical Position,0
Center Frequency,1.4e+08
Span,2.8e+08
Reference Level,-15
Label,
FREQUENCY,FD NORM
0.000000000e+00,-63.8343
3.733333333e+05,-72.0852
7.466666667e+05,-77.9083
1.120000000e+06,-78.5253
1.493333333e+06,-70.8138
1.866666667e+06,-69.9849
2.240000000e+06,-69.2111
2.613333333e+06,-64.3776
2.986666667e+06,-68.3781
3.360000000e+06,-58.4807
3.733333333e+06,-59.6391
4.106666667e+06,-64.9153
4.480000000e+06,-64.3788
4.853333333e+06,-69.5353
5.226666667e+06,-63.448
5.600000000e+06,-66.608
5.973333333e+06,-57.1104
6.346666667e+06,-62.2869
6.720000000e+06,-76.9426
7.093333333e+06,-73.5631
7.466666667e+06,-70.4807
7.840000000e+06,-68.8932
8.213333333e+06,-65.0601
8.586666667e+06,-71.2138
8.960000000e+06,-69.2059
9.333333333e+06,-66.6445
9.706666667e+06,-70.648
1.008000000e+07,-69.7172
1.045333333e+07,-67.4457
1.082666667e+07,-67.4086
1.120000000e+07,-70.0996
1.157333333e+07,-66.1335
1.194666667e+07,-57.2005
1.232000000e+07,-59.2704
1.269333333e+07,-73.8239
1.306666667e+07,-66.5784
1.344000000e+07,-70.0676
1.381333333e+07,-66.4424
1.418666667e+07,-69.6479
1.456000000e+07,-69.8751
1.493333333e+07,-72.9207
1.530666667e+07,-72.32
1.568000000e+07,-70.3595
1.605333333e+07,-65.6009
1.642666667e+07,-64.7546
1.680000000e+07,-67.4102
1.717333333e+07,-67.0468
1.754666667e+07,-65.8329
1.792000000e+07,-54.7034
1.829333333e+07,-59.6567
1.866666667e+07,-76.0549
1.904000000e+07,-62.5814
1.941333333e+07,-62.7094
1.978666667e+07,-75.0589
2.016000000e+07,-74.4878
2.053333333e+07,-69.9729
2.090666667e+07,-71.1713
2.128000000e+07,-65.767
2.165333333e+07,-61.8886
2.202666667e+07,-60.8501
2.240000000e+07,-65.9828
2.277333333e+07,-64.672
2.314666667e+07,-66.138
2.352000000e+07,-64.7934
2.389333333e+07,-70.3446
2.426666667e+07,-63.9381
2.464000000e+07,-63.0643
2.501333333e+07,-53.7906
2.538666667e+07,-66.0324
2.576000000e+07,-68.2153
2.613333333e+07,-71.6648
2.650666667e+07,-74.8671
2.688000000e+07,-68.6799
2.725333333e+07,-65.2094
2.762666667e+07,-65.6994
2.800000000e+07,-64.7661
2.837333333e+07,-69.3003
2.874666667e+07,-65.3381
2.912000000e+07,-66.3038
2.949333333e+07,-65.4404
2.986666667e+07,-48.8968
3.024000000e+07,-50.4155
3.061333333e+07,-71.7282
3.098666667e+07,-72.78
3.136000000e+07,-76.7755
3.173333333e+07,-78.3286
3.210666667e+07,-68.5358
3.248000000e+07,-60.9851
3.285333333e+07,-60.5145
3.322666667e+07,-70.5904
3.360000000e+07,-70.9315
3.397333333e+07,-77.6437
3.434666667e+07,-75.9191
3.472000000e+07,-76.3807
3.509333333e+07,-61.6405
3.546666667e+07,-58.6032
3.584000000e+07,-48.2556
3.621333333e+07,-48.9372
3.658666667e+07,-75.1313
3.696000000e+07,-76.727
3.733333333e+07,-69.5319
3.770666667e+07,-69.7475
3.808000000e+07,-60.1372
3.845333333e+07,-65.3704
3.882666667e+07,-73.1445
3.920000000e+07,-75.1932
3.957333333e+07,-71.2216
3.994666667e+07,-72.4996
4.032000000e+07,-65.9796
4.069333333e+07,-59.188
4.106666667e+07,-61.2666
4.144000000e+07,-66.7738
4.181333333e+07,-53.3544
4.218666667e+07,-53.1672
4.256000000e+07,-71.8009
4.293333333e+07,-68.5058
4.330666667e+07,-60.5367
4.368000000e+07,-60.8222
4.405333333e+07,-65.7819
4.442666667e+07,-69.1587
4.480000000e+07,-70.6348
4.517333333e+07,-69.6842
4.554666667e+07,-71.3765
4.592000000e+07,-61.0253
4.629333333e+07,-59.9679
4.666666667e+07,-58.3983
4.704000000e+07,-67.158
4.741333333e+07,-67.849
4.778666667e+07,-37.4667
4.816000000e+07,-36.6059
4.853333333e+07,-58.8134
4.890666667e+07,-63.4967
4.928000000e+07,-60.299
4.965333333e+07,-67.5244
5.002666667e+07,-68.6938
5.040000000e+07,-71.077
5.077333333e+07,-73.4321
5.114666667e+07,-68.4864
5.152000000e+07,-62.3349
5.189333333e+07,-55.4522
5.226666667e+07,-61.5493
5.264000000e+07,-71.9577
5.301333333e+07,-72.7643
5.338666667e+07,-72.0687
5.376000000e+07,-49.3252
5.413333333e+07,-48.0888
5.450666667e+07,-56.7402
5.488000000e+07,-58.9327
5.525333333e+07,-76.3622
5.562666667e+07,-74.9949
5.600000000e+07,-74.2374
5.637333333e+07,-69.6393
5.674666667e+07,-68.3169
5.712000000e+07,-53.2027
5.749333333e+07,-53.1523
5.786666667e+07,-70.4123
5.824000000e+07,-79.7276
5.861333333e+07,-69.4435
5.898666667e+07,-69.6595
5.936000000e+07,-68.7472
5.973333333e+07,-34.3607
6.010666667e+07,-31.9801
6.048000000e+07,-50.1603
6.085333333e+07,-70.874
6.122666667e+07,-72.1642
6.160000000e+07,-69.6443
6.197333333e+07,-70.5616
6.234666667e+07,-59.4166
6.272000000e+07,-52.6274
6.309333333e+07,-61.8127
6.346666667e+07,-69.9295
6.384000000e+07,-73.8691
6.421333333e+07,-69.9714
6.458666667e+07,-69.6856
6.496000000e+07,-61.8769
6.533333333e+07,-53.7922
6.570666667e+07,-49.5494
6.608000000e+07,-45.2015
6.645333333e+07,-57.2755
6.682666667e+07,-64.4167
6.720000000e+07,-65.5385
6.757333333e+07,-69.4463
6.794666667e+07,-56.8071
6.832000000e+07,-58.5584
6.869333333e+07,-68.3084
6.906666667e+07,-74.576
6.944000000e+07,-71.8467
6.981333333e+07,-65.4897
7.018666667e+07,-65.8362
7.056000000e+07,-56.7189
7.093333333e+07,-56.0477
7.130666667e+07,-60.9036
7.168000000e+07,-47.2233
7.205333333e+07,-41.0032
7.242666667e+07,-52.0368
7.280000000e+07,-71.0942
7.317333333e+07,-60.9494
7.354666667e+07,-58.6979
7.392000000e+07,-57.123
7.429333333e+07,-62.8266
7.466666667e+07,-64.611
7.504000000e+07,-65.1692
7.541333333e+07,-68.4661
7.578666667e+07,-68.1727
7.616000000e+07,-59.4867
7.653333333e+07,-56.8559
7.690666667e+07,-61.956
7.728000000e+07,-70.0938
7.765333333e+07,-56.0247
7.802666667e+07,-48.9495
7.840000000e+07,-58.9897
7.877333333e+07,-60.7707
7.914666667e+07,-54.3521
7.952000000e+07,-56.9914
7.989333333e+07,-65.2879
8.026666667e+07,-64.6115
8.064000000e+07,-69.4817
8.101333333e+07,-68.7039
8.138666667e+07,-66.8814
8.176000000e+07,-54.9295
8.213333333e+07,-55.6896
8.250666667e+07,-71.9084
8.288000000e+07,-73.2107
8.325333333e+07,-67.5884
8.362666667e+07,-50.1749
8.400000000e+07,-40.7913
8.437333333e+07,-47.6835
8.474666667e+07,-54.098
8.512000000e+07,-63.8046
8.549333333e+07,-77.5928
8.586666667e+07,-78.1381
8.624000000e+07,-79.8158
8.661333333e+07,-71.7252
8.698666667e+07,-58.2906
8.736000000e+07,-53.7401
8.773333333e+07,-67.2892
8.810666667e+07,-69.0135
8.848000000e+07,-67.6352
8.885333333e+07,-72.05
8.922666667e+07,-72.376
8.960000000e+07,-62.1391
8.997333333e+07,-50.0866
9.034666667e+07,-55.939
9.072000000e+07,-71.4312
9.109333333e+07,-72.073
9.146666667e+07,-70.0445
9.184000000e+07,-72.9077
9.221333333e+07,-69.5787
9.258666667e+07,-53.8787
9.296000000e+07,-55.7055
9.333333333e+07,-68.843
9.370666667e+07,-68.6876
9.408000000e+07,-70.6238
9.445333333e+07,-70.0968
9.482666667e+07,-68.3812
9.520000000e+07,-53.4727
9.557333333e+07,-53.7444
9.594666667e+07,-46.3912
9.632000000e+07,-49.0867
9.669333333e+07,-66.7205
9.706666667e+07,-72.5665
9.744000000e+07,-68.7761
9.781333333e+07,-56.8439
9.818666667e+07,-54.5014
9.856000000e+07,-60.5034
9.893333333e+07,-65.0799
9.930666667e+07,-65.8642
9.968000000e+07,-67.2001
1.000533333e+08,-65.7035
1.004266667e+08,-57.942
1.008000000e+08,-52.9912
1.011733333e+08,-55.9105
1.015466667e+08,-64.0353
1.019200000e+08,-53.3655
1.022933333e+08,-56.5402
1.026666667e+08,-62.5977
1.030400000e+08,-61.178
1.034133333e+08,-56.1112
1.037866667e+08,-57.9768
1.041600000e+08,-62.3347
1.045333333e+08,-73.614
1.049066667e+08,-71.7979
1.052800000e+08,-65.2593
1.056533333e+08,-65.7393
1.060266667e+08,-54.7465
1.064000000e+08,-52.6878
1.067733333e+08,-54.1797
1.071466667e+08,-64.2708
1.075200000e+08,-65.2426
1.078933333e+08,-47.7267
1.082666667e+08,-49.2209
1.086400000e+08,-59.879
1.090133333e+08,-57.7834
1.093866667e+08,-56.1015
1.097600000e+08,-66.8716
1.101333333e+08,-74.6298
1.105066667e+08,-75.5318
1.108800000e+08,-74.5606
1.112533333e+08,-64.3477
1.116266667e+08,-54.1425
1.120000000e+08,-51.46
1.123733333e+08,-61.7927
1.127466667e+08,-64.4152
1.131200000e+08,-69.1552
1.134933333e+08,-71.4298
1.138666667e+08,-57.0959
1.142400000e+08,-58.467
1.146133333e+08,-52.7819
1.149866667e+08,-62.2523
1.153600000e+08,-69.308
1.157333333e+08,-69.5452
1.161066667e+08,-65.3551
1.164800000e+08,-69.9681
1.168533333e+08,-62.6872
1.172266667e+08,-50.333
1.176000000e+08,-54.1851
1.179733333e+08,-70.3439
1.183466667e+08,-74.97
1.187200000e+08,-76.5057
1.190933333e+08,-77.8873
1.194666667e+08,-58.8462
1.198400000e+08,-34.3095
1.202133333e+08,-35.0483
1.205866667e+08,-66.4883
1.209600000e+08,-71.8386
1.213333333e+08,-70.8568
1.217066667e+08,-69.5667
1.220800000e+08,-69.6815
1.224533333e+08,-51.0213
1.228266667e+08,-49.4663
1.232000000e+08,-67.7625
1.235733333e+08,-65.9243
1.239466667e+08,-68.7701
1.243200000e+08,-68.3489
1.246933333e+08,-66.6149
1.250666667e+08,-58.196
1.254400000e+08,-51.7515
1.258133333e+08,-54.6681
1.261866667e+08,-53.8036
1.265600000e+08,-66.5325
1.269333333e+08,-67.1623
1.273066667e+08,-64.7686
1.276800000e+08,-57.8714
1.280533333e+08,-49.794
1.284266667e+08,-55.4044
1.288000000e+08,-62.818
1.291733333e+08,-65.1513
1.295466667e+08,-64.3953
1.299200000e+08,-65.1929
1.302933333e+08,-63.0184
1.306666667e+08,-53.1938
1.310400000e+08,-54.9633
1.314133333e+08,-61.4184
1.317866667e+08,-66.922
1.321600000e+08,-63.0848
1.325333333e+08,-66.8549
1.329066667e+08,-61.9565
1.332800000e+08,-53.3929
1.336533333e+08,-53.2741
1.340266667e+08,-53.6864
1.344000000e+08,-60.4335
1.347733333e+08,-62.7065
1.351466667e+08,-63.1801
1.355200000e+08,-63.2598
1.358933333e+08,-57.899
1.362666667e+08,-54.9468
1.366400000e+08,-55.2724
1.370133333e+08,-63.4891
1.373866667e+08,-66.8975
1.377600000e+08,-65.3843
1.381333333e+08,-63.2972
1.385066667e+08,-60.3212
1.388800000e+08,-54.1191
1.392533333e+08,-49.9225
1.396266667e+08,-56.3944
1.400000000e+08,-64.8236
1.403733333e+08,-63.6285
1.407466667e+08,-69.1064
1.411200000e+08,-61.753
1.414933333e+08,-58.5046
1.418666667e+08,-53.1478
1.422400000e+08,-58.8013
1.426133333e+08,-72.0531
1.429866667e+08,-67.8461
1.433600000e+08,-67.7812
1.437333333e+08,-53.1461
1.441066667e+08,-47.4965
1.444800000e+08,-48.5349
1.448533333e+08,-50.0454
1.452266667e+08,-70.3884
1.456000000e+08,-72.7102
1.459733333e+08,-72.0727
1.463466667e+08,-78.8761
1.467200000e+08,-69.8914
1.470933333e+08,-51.7208
1.474666667e+08,-51.3357
1.478400000e+08,-66.7438
1.482133333e+08,-66.7117
1.485866667e+08,-74.8783
1.489600000e+08,-71.2039
1.493333333e+08,-79.8734
1.497066667e+08,-50.3103
1.500800000e+08,-47.3885
1.504533333e+08,-60.7728
1.508266667e+08,-71.2469
1.512000000e+08,-70.4361
1.515733333e+08,-79.7873
1.519466667e+08,-72.6961
1.523200000e+08,-58.5933
1.526933333e+08,-51.1848
1.530666667e+08,-58.7058
1.534400000e+08,-62.8557
1.538133333e+08,-69.4029
1.541866667e+08,-67.7544
1.545600000e+08,-66.9394
1.549333333e+08,-65.5656
1.553066667e+08,-48.6926
1.556800000e+08,-48.819
1.560533333e+08,-44.4722
1.564266667e+08,-56.4214
1.568000000e+08,-66.4607
1.571733333e+08,-73.4886
1.575466667e+08,-62.9868
1.579200000e+08,-52.6509
1.582933333e+08,-52.9841
1.586666667e+08,-62.0015
1.590400000e+08,-65.0903
1.594133333e+08,-66.7686
1.597866667e+08,-67.1857
1.601600000e+08,-60.8519
1.605333333e+08,-51.5667
1.609066667e+08,-50.2911
1.612800000e+08,-55.0937
1.616533333e+08,-59.8107
1.620266667e+08,-62.8458
1.624000000e+08,-63.4083
1.627733333e+08,-60.1762
1.631466667e+08,-58.8159
1.635200000e+08,-54.1974
1.638933333e+08,-58.1423
1.642666667e+08,-68.2483
1.646400000e+08,-74.2137
1.650133333e+08,-67.7366
1.653866667e+08,-67.9464
1.657600000e+08,-58.7965
1.661333333e+08,-52.9716
1.665066667e+08,-50.3912
1.668800000e+08,-56.2304
1.672533333e+08,-63.0641
1.676266667e+08,-58.6312
1.680000000e+08,-47.1436
1.683733333e+08,-54.5115
1.687466667e+08,-60.9395
1.691200000e+08,-53.5012
1.694933333e+08,-55.6789
1.698666667e+08,-67.371
1.702400000e+08,-72.0161
1.706133333e+08,-63.1787
1.709866667e+08,-62.7125
1.713600000e+08,-56.2877
1.717333333e+08,-47.798
1.721066667e+08,-48.2915
1.724800000e+08,-62.0295
1.728533333e+08,-63.1572
1.732266667e+08,-65.568
1.736000000e+08,-67.2172
1.739733333e+08,-66.2672
1.743466667e+08,-53.3582
1.747200000e+08,-51.7934
1.750933333e+08,-65.4608
1.754666667e+08,-65.1793
1.758400000e+08,-68.2509
1.762133333e+08,-62.6297
1.765866667e+08,-63.6287
1.769600000e+08,-53.2564
1.773333333e+08,-47.2116
1.777066667e+08,-57.623
1.780800000e+08,-73.6562
1.784533333e+08,-70.5763
1.788266667e+08,-73.8962
1.792000000e+08,-69.9132
1.795733333e+08,-67.9509
1.799466667e+08,-68.3945
1.803200000e+08,-69.771
1.806933333e+08,-71.6764
1.810666667e+08,-72.5249
1.814400000e+08,-68.9445
1.818133333e+08,-68.0822
1.821866667e+08,-65.12
1.825600000e+08,-47.0543
1.829333333e+08,-48.4189
1.833066667e+08,-71.8293
1.836800000e+08,-70.567
1.840533333e+08,-75.3278
1.844266667e+08,-71.8195
1.848000000e+08,-69.964
1.851733333e+08,-52.3591
1.855466667e+08,-52.046
1.859200000e+08,-70.054
1.862933333e+08,-71.9127
1.866666667e+08,-69.7983
1.870400000e+08,-66.8817
1.874133333e+08,-65.3051
1.877866667e+08,-51.007
1.881600000e+08,-48.8615
1.885333333e+08,-56.2689
1.889066667e+08,-60.6091
1.892800000e+08,-61.1575
1.896533333e+08,-65.8017
1.900266667e+08,-65.9473
1.904000000e+08,-59.4556
1.907733333e+08,-53.7084
1.911466667e+08,-56.2961
1.915200000e+08,-55.723
1.918933333e+08,-49.2864
1.922666667e+08,-50.6941
1.926400000e+08,-65.5177
1.930133333e+08,-59.0333
1.933866667e+08,-50.6208
1.937600000e+08,-49.8779
1.941333333e+08,-52.1857
1.945066667e+08,-61.4789
1.948800000e+08,-61.8532
1.952533333e+08,-59.7345
1.956266667e+08,-60.8063
1.960000000e+08,-56.7421
1.963733333e+08,-55.6392
1.967466667e+08,-57.1247
1.971200000e+08,-67.2071
1.974933333e+08,-65.5861
1.978666667e+08,-65.4049
1.982400000e+08,-67.539
1.986133333e+08,-54.411
1.989866667e+08,-49.9978
1.993600000e+08,-48.5604
1.997333333e+08,-58.971
2.001066667e+08,-65.5102
2.004800000e+08,-73.2866
2.008533333e+08,-65.6569
2.012266667e+08,-65.0984
2.016000000e+08,-58.8731
2.019733333e+08,-53.2158
2.023466667e+08,-63.2544
2.027200000e+08,-65.51
2.030933333e+08,-66.9785
2.034666667e+08,-71.0482
2.038400000e+08,-41.8228
2.042133333e+08,-42.4155
2.045866667e+08,-46.8296
2.049600000e+08,-51.979
2.053333333e+08,-69.3456
2.057066667e+08,-69.1913
2.060800000e+08,-72.0119
2.064533333e+08,-69.2116
2.068266667e+08,-69.5039
2.072000000e+08,-53.1547
2.075733333e+08,-55.1387
2.079466667e+08,-73.6954
2.083200000e+08,-67.2213
2.086933333e+08,-71.8371
2.090666667e+08,-76.5774
2.094400000e+08,-69.6961
2.098133333e+08,-48.0423
2.101866667e+08,-48.1169
2.105600000e+08,-68.0378
2.109333333e+08,-65.8453
2.113066667e+08,-64.4793
2.116800000e+08,-72.151
2.120533333e+08,-74.3886
2.124266667e+08,-57.9274
2.128000000e+08,-55.3745
2.131733333e+08,-65.4448
2.135466667e+08,-64.3022
2.139200000e+08,-66.4185
2.142933333e+08,-67.271
2.146666667e+08,-73.5118
2.150400000e+08,-52.0233
2.154133333e+08,-46.7639
2.157866667e+08,-49.6954
2.161600000e+08,-47.3443
2.165333333e+08,-57.9706
2.169066667e+08,-64.4332
2.172800000e+08,-61.5837
2.176533333e+08,-61.8146
2.180266667e+08,-53.5234
2.184000000e+08,-56.8169
2.187733333e+08,-69.0172
2.191466667e+08,-67.0511
2.195200000e+08,-67.5755
2.198933333e+08,-60.2683
2.202666667e+08,-58.1361
2.206400000e+08,-47.9163
2.210133333e+08,-49.0416
2.213866667e+08,-54.0674
2.217600000e+08,-65.111
2.221333333e+08,-63.4538
2.225066667e+08,-65.3595
2.228800000e+08,-63.0831
2.232533333e+08,-58.3346
2.236266667e+08,-57.0188
2.240000000e+08,-57.441
2.243733333e+08,-65.9213
2.247466667e+08,-66.7104
2.251200000e+08,-66.6416
2.254933333e+08,-59.7485
2.258666667e+08,-54.9357
2.262400000e+08,-51.2271
2.266133333e+08,-48.8713
2.269866667e+08,-56.6904
2.273600000e+08,-61.7299
2.277333333e+08,-49.4844
2.281066667e+08,-46.1062
2.284800000e+08,-56.9677
2.288533333e+08,-58.3163
2.292266667e+08,-55.6597
2.296000000e+08,-61.5495
2.299733333e+08,-66.1985
2.303466667e+08,-66.534
2.307200000e+08,-65.3881
2.310933333e+08,-58.4361
2.314666667e+08,-55.3362
2.318400000e+08,-47.8527
2.322133333e+08,-51.371
2.325866667e+08,-67.1929
2.329600000e+08,-70.3301
2.333333333e+08,-68.8661
2.337066667e+08,-65.3702
2.340800000e+08,-63.05
2.344533333e+08,-53.7821
2.348266667e+08,-54.8707
2.352000000e+08,-67.2433
2.355733333e+08,-77.2316
2.359466667e+08,-75.2478
2.363200000e+08,-69.5916
2.366933333e+08,-66.0134
2.370666667e+08,-47.5539
2.374400000e+08,-46.238
2.378133333e+08,-65.9793
2.381866667e+08,-72.3774
2.385600000e+08,-68.4081
2.389333333e+08,-67.7278
2.393066667e+08,-55.2592
2.396800000e+08,-48.3392
2.400533333e+08,-45.4241
2.404266667e+08,-55.4224
2.408000000e+08,-72.1064
2.411733333e+08,-69.2533
2.415466667e+08,-68.4773
2.419200000e+08,-69.8492
2.422933333e+08,-57.4619
2.426666667e+08,-46.607
2.430400000e+08,-52.8663
2.434133333e+08,-67.1023
2.437866667e+08,-74.5021
2.441600000e+08,-79.3908
2.445333333e+08,-73.4857
2.449066667e+08,-64.3154
2.452800000e+08,-53.9473
2.456533333e+08,-56.4638
2.460266667e+08,-61.7546
2.464000000e+08,-67.8461
2.467733333e+08,-70.748
2.471466667e+08,-68.6303
2.475200000e+08,-61.4106
2.478933333e+08,-48.17
2.482666667e+08,-47.9598
2.486400000e+08,-55.8185
2.490133333e+08,-65.6242
2.493866667e+08,-67.0541
2.497600000e+08,-66.5588
2.501333333e+08,-64.8185
2.505066667e+08,-57.5439
2.508800000e+08,-55.3312
2.512533333e+08,-59.0909
2.516266667e+08,-61.9241
2.520000000e+08,-56.23
2.523733333e+08,-60.2006
2.527466667e+08,-61.0585
2.531200000e+08,-55.2762
2.534933333e+08,-50.169
2.538666667e+08,-51.1693
2.542400000e+08,-58.3828
2.546133333e+08,-63.1651
2.549866667e+08,-62.9733
2.553600000e+08,-66.3255
2.557333333e+08,-63.2576
2.561066667e+08,-58.1929
2.564800000e+08,-56.8165
2.568533333e+08,-61.5809
2.572266667e+08,-65.8271
2.576000000e+08,-65.0068
2.579733333e+08,-59.1873
2.583466667e+08,-61.1323
2.587200000e+08,-54.065
2.590933333e+08,-48.5217
2.594666667e+08,-50.1368
2.598400000e+08,-63.0577
2.602133333e+08,-66.6215
2.605866667e+08,-67.504
2.609600000e+08,-66.8478
2.613333333e+08,-63.3487
2.617066667e+08,-54.9275
2.620800000e+08,-54.42
2.624533333e+08,-65.8114
2.628266667e+08,-65.1347
2.632000000e+08,-65.3309
2.635733333e+08,-64.9721
2.639466667e+08,-47.6991
2.643200000e+08,-51.1493
2.646933333e+08,-48.3581
2.650666667e+08,-61.5993
2.654400000e+08,-65.8092
2.658133333e+08,-70.0489
2.661866667e+08,-66.151
2.665600000e+08,-69.4691
2.669333333e+08,-61.7241
2.673066667e+08,-54.1508
2.676800000e+08,-63.0599
2.680533333e+08,-69.5811
2.684266667e+08,-75.5416
2.688000000e+08,-80.3491
2.691733333e+08,-79.9853
2.695466667e+08,-64.2281
2.699200000e+08,-51.3163
2.702933333e+08,-54.78
2.706666667e+08,-70.2767
2.710400000e+08,-67.6973
2.714133333e+08,-65.5867
2.717866667e+08,-66.7122
2.721600000e+08,-68.3765
2.725333333e+08,-54.6228
2.729066667e+08,-54.8315
2.732800000e+08,-70.0847
2.736533333e+08,-69.3226
2.740266667e+08,-69.6451
2.744000000e+08,-72.8046
2.747733333e+08,-67.8185
2.751466667e+08,-50.6025
2.755200000e+08,-49.0681
2.758933333e+08,-47.0778
2.762666667e+08,-50.0301
2.766400000e+08,-69.9562
2.770133333e+08,-67.8591
2.773866667e+08,-63.345
2.777600000e+08,-60.5479
2.781333333e+08,-55.1652
2.785066667e+08,-62.5697
2.788800000e+08,-69.1486
2.792533333e+08,-68.7517
2.796266667e+08,-66.0473
2.800000000e+08,-63.9931

