40pt77/tek0094NRM.csv

Model,MDO3104
Firmware Version,1.30

Waveform Type,RF_FD
Point Format,Y
Horizontal Units,Hz
Horizontal Scale,2.8e+07
,
Sample Interval,373333
Record Length,751
Gating,0.133155792277% to 100.0%
Probe Attenuation,1
Vertical Units,dBm
Vertical Offset,0
Vertical Scale,10
Vertical Position,0
Center Frequency,1.4e+08
Span,2.8e+08
Reference Level,-15
Label,
FREQUENCY,FD NORM
0.000000000e+00,-70.2178
3.733333333e+05,-77.3279
7.466666667e+05,-77.6722
1.120000000e+06,-76.963
1.493333333e+06,-70.1266
1.866666667e+06,-67.0063
2.240000000e+06,-72.251
2.613333333e+06,-65.709
2.986666667e+06,-68.068
3.360000000e+06,-65.9982
3.733333333e+06,-62.3608
4.106666667e+06,-62.9245
4.480000000e+06,-64.5068
4.853333333e+06,-71.2667
5.226666667e+06,-67.3106
5.600000000e+06,-69.8525
5.973333333e+06,-60.5099
6.346666667e+06,-63.0645
6.720000000e+06,-72.6207
7.093333333e+06,-70.6131
7.466666667e+06,-73.075
7.840000000e+06,-72.2607
8.213333333e+06,-64.6867
8.586666667e+06,-68.5591
8.960000000e+06,-71.1684
9.333333333e+06,-70.4215
9.706666667e+06,-71.0329
1.008000000e+07,-66.1397
1.045333333e+07,-68.96
1.082666667e+07,-68.3157
1.120000000e+07,-67.9184
1.157333333e+07,-64.2551
1.194666667e+07,-56.8113
1.232000000e+07,-63.165
1.269333333e+07,-69.6824
1.306666667e+07,-69.6955
1.344000000e+07,-62.807
1.381333333e+07,-65.2845
1.418666667e+07,-73.8163
1.456000000e+07,-70.9695
1.493333333e+07,-71.2654
1.530666667e+07,-70.5231
1.568000000e+07,-68.415
1.605333333e+07,-68.1214
1.642666667e+07,-69.4008
1.680000000e+07,-63.3196
1.717333333e+07,-64.7179
1.754666667e+07,-79.5699
1.792000000e+07,-57.7185
1.829333333e+07,-60.7323
1.866666667e+07,-70.9609
1.904000000e+07,-67.2056
1.941333333e+07,-66.3033
1.978666667e+07,-70.248
2.016000000e+07,-67.8619
2.053333333e+07,-65.2402
2.090666667e+07,-66.3437
2.128000000e+07,-64.2029
2.165333333e+07,-63.4748
2.202666667e+07,-62.6291
2.240000000e+07,-64.376
2.277333333e+07,-63.7826
2.314666667e+07,-67.4683
2.352000000e+07,-72.7084
2.389333333e+07,-69.2466
2.426666667e+07,-60.4592
2.464000000e+07,-58.5555
2.501333333e+07,-53.7318
2.538666667e+07,-58.3805
2.576000000e+07,-72.036
2.613333333e+07,-69.1725
2.650666667e+07,-66.7204
2.688000000e+07,-67.161
2.725333333e+07,-63.1363
2.762666667e+07,-71.6999
2.800000000e+07,-68.631
2.837333333e+07,-69.6145
2.874666667e+07,-69.8643
2.912000000e+07,-71.9247
2.949333333e+07,-69.3021
2.986666667e+07,-51.2569
3.024000000e+07,-52.7393
3.061333333e+07,-69.8012
3.098666667e+07,-66.5633
3.136000000e+07,-66.2795
3.173333333e+07,-69.2383
3.210666667e+07,-71.0818
3.248000000e+07,-62.5589
3.285333333e+07,-61.4093
3.322666667e+07,-68.7125
3.360000000e+07,-70.4667
3.397333333e+07,-68.9369
3.434666667e+07,-68.576
3.472000000e+07,-69.7759
3.509333333e+07,-60.1264
3.546666667e+07,-58.0565
3.584000000e+07,-47.3798
3.621333333e+07,-48.0603
3.658666667e+07,-63.4162
3.696000000e+07,-68.0439
3.733333333e+07,-64.7361
3.770666667e+07,-66.341
3.808000000e+07,-61.9407
3.845333333e+07,-65.0133
3.882666667e+07,-72.3593
3.920000000e+07,-68.162
3.957333333e+07,-70.8053
3.994666667e+07,-70.3075
4.032000000e+07,-66.7648
4.069333333e+07,-61.2495
4.106666667e+07,-61.3993
4.144000000e+07,-63.6651
4.181333333e+07,-53.4315
4.218666667e+07,-53.2719
4.256000000e+07,-67.2043
4.293333333e+07,-68.4605
4.330666667e+07,-59.9193
4.368000000e+07,-59.9633
4.405333333e+07,-64.0181
4.442666667e+07,-68.9637
4.480000000e+07,-70.5463
4.517333333e+07,-74.7176
4.554666667e+07,-68.9053
4.592000000e+07,-61.7573
4.629333333e+07,-55.5661
4.666666667e+07,-56.855
4.704000000e+07,-59.8487
4.741333333e+07,-59.0605
4.778666667e+07,-37.6042
4.816000000e+07,-36.9273
4.853333333e+07,-54.2765
4.890666667e+07,-58.5086
4.928000000e+07,-56.0878
4.965333333e+07,-57.0175
5.002666667e+07,-58.7326
5.040000000e+07,-68.1573
5.077333333e+07,-65.1563
5.114666667e+07,-63.0336
5.152000000e+07,-58.6656
5.189333333e+07,-55.4929
5.226666667e+07,-60.3278
5.264000000e+07,-63.7358
5.301333333e+07,-66.3301
5.338666667e+07,-65.242
5.376000000e+07,-50.3879
5.413333333e+07,-48.604
5.450666667e+07,-55.8071
5.488000000e+07,-58.4128
5.525333333e+07,-63.1348
5.562666667e+07,-61.3207
5.600000000e+07,-67.4956
5.637333333e+07,-64.4409
5.674666667e+07,-65.8776
5.712000000e+07,-51.8684
5.749333333e+07,-52.5958
5.786666667e+07,-60.5323
5.824000000e+07,-60.3884
5.861333333e+07,-57.2285
5.898666667e+07,-57.4661
5.936000000e+07,-60.0542
5.973333333e+07,-33.186
6.010666667e+07,-31.4195
6.048000000e+07,-47.1021
6.085333333e+07,-59.5759
6.122666667e+07,-56.6947
6.160000000e+07,-55.6671
6.197333333e+07,-62.4212
6.234666667e+07,-61.0479
6.272000000e+07,-53.5179
6.309333333e+07,-59.2517
6.346666667e+07,-62.8236
6.384000000e+07,-63.4542
6.421333333e+07,-63.5975
6.458666667e+07,-63.0468
6.496000000e+07,-63.7198
6.533333333e+07,-55.8691
6.570666667e+07,-48.4203
6.608000000e+07,-45.9312
6.645333333e+07,-58.0055
6.682666667e+07,-62.664
6.720000000e+07,-58.8304
6.757333333e+07,-58.7309
6.794666667e+07,-54.906
6.832000000e+07,-55.9033
6.869333333e+07,-62.641
6.906666667e+07,-64.6265
6.944000000e+07,-63.4761
6.981333333e+07,-65.2466
7.018666667e+07,-60.7751
7.056000000e+07,-52.7228
7.093333333e+07,-52.73
7.130666667e+07,-63.0078
7.168000000e+07,-46.6289
7.205333333e+07,-41.7681
7.242666667e+07,-50.9685
7.280000000e+07,-67.1373
7.317333333e+07,-57.7679
7.354666667e+07,-56.514
7.392000000e+07,-60.753
7.429333333e+07,-65.8036
7.466666667e+07,-67.7436
7.504000000e+07,-69.1096
7.541333333e+07,-68.149
7.578666667e+07,-63.127
7.616000000e+07,-55.3404
7.653333333e+07,-55.091
7.690666667e+07,-67.779
7.728000000e+07,-71.9887
7.765333333e+07,-55.5861
7.802666667e+07,-49.7212
7.840000000e+07,-57.0959
7.877333333e+07,-58.1403
7.914666667e+07,-54.6465
7.952000000e+07,-62.3878
7.989333333e+07,-68.6268
8.026666667e+07,-68.5593
8.064000000e+07,-68.6491
8.101333333e+07,-64.1917
8.138666667e+07,-61.9973
8.176000000e+07,-54.0885
8.213333333e+07,-55.4184
8.250666667e+07,-62.4297
8.288000000e+07,-63.855
8.325333333e+07,-65.8605
8.362666667e+07,-50.365
8.400000000e+07,-44.3892
8.437333333e+07,-49.1797
8.474666667e+07,-52.0397
8.512000000e+07,-63.5095
8.549333333e+07,-66.7718
8.586666667e+07,-67.1833
8.624000000e+07,-64.2124
8.661333333e+07,-63.7297
8.698666667e+07,-58.1327
8.736000000e+07,-54.5991
8.773333333e+07,-68.4006
8.810666667e+07,-64.7588
8.848000000e+07,-61.0982
8.885333333e+07,-63.5653
8.922666667e+07,-65.3291
8.960000000e+07,-65.444
8.997333333e+07,-58.5165
9.034666667e+07,-62.6027
9.072000000e+07,-67.2644
9.109333333e+07,-67.0321
9.146666667e+07,-67.9797
9.184000000e+07,-66.9126
9.221333333e+07,-68.0714
9.258666667e+07,-54.5028
9.296000000e+07,-56.671
9.333333333e+07,-65.3673
9.370666667e+07,-67.185
9.408000000e+07,-67.6162
9.445333333e+07,-67.6546
9.482666667e+07,-61.7089
9.520000000e+07,-52.9001
9.557333333e+07,-52.6572
9.594666667e+07,-43.6191
9.632000000e+07,-47.1502
9.669333333e+07,-63.3494
9.706666667e+07,-66.8111
9.744000000e+07,-69.0452
9.781333333e+07,-56.1356
9.818666667e+07,-54.0565
9.856000000e+07,-58.8639
9.893333333e+07,-61.9391
9.930666667e+07,-63.0236
9.968000000e+07,-70.6017
1.000533333e+08,-76.1997
1.004266667e+08,-66.0957
1.008000000e+08,-53.665
1.011733333e+08,-55.1915
1.015466667e+08,-62.0886
1.019200000e+08,-53.4804
1.022933333e+08,-56.9703
1.026666667e+08,-70.0491
1.030400000e+08,-62.8806
1.034133333e+08,-54.1568
1.037866667e+08,-54.8496
1.041600000e+08,-62.3361
1.045333333e+08,-63.9875
1.049066667e+08,-64.0303
1.052800000e+08,-69.0561
1.056533333e+08,-63.7331
1.060266667e+08,-55.2709
1.064000000e+08,-54.8362
1.067733333e+08,-56.0193
1.071466667e+08,-65.1599
1.075200000e+08,-66.7748
1.078933333e+08,-52.6075
1.082666667e+08,-54.5011
1.086400000e+08,-57.8532
1.090133333e+08,-53.6026
1.093866667e+08,-52.3897
1.097600000e+08,-63.9788
1.101333333e+08,-68.9316
1.105066667e+08,-69.4232
1.108800000e+08,-69.5211
1.112533333e+08,-62.4049
1.116266667e+08,-52.5387
1.120000000e+08,-50.9633
1.123733333e+08,-62.9195
1.127466667e+08,-62.1312
1.131200000e+08,-73.1773
1.134933333e+08,-66.7449
1.138666667e+08,-64.1486
1.142400000e+08,-59.844
1.146133333e+08,-53.6177
1.149866667e+08,-61.5412
1.153600000e+08,-68.3088
1.157333333e+08,-67.6263
1.161066667e+08,-66.9116
1.164800000e+08,-62.1274
1.168533333e+08,-59.1907
1.172266667e+08,-50.2698
1.176000000e+08,-54.7847
1.179733333e+08,-70.0434
1.183466667e+08,-62.5337
1.187200000e+08,-63.8889
1.190933333e+08,-63.1624
1.194666667e+08,-55.3412
1.198400000e+08,-34.8041
1.202133333e+08,-35.6245
1.205866667e+08,-63.2848
1.209600000e+08,-60.3672
1.213333333e+08,-61.4867
1.217066667e+08,-60.9918
1.220800000e+08,-63.4659
1.224533333e+08,-50.9121
1.228266667e+08,-49.2359
1.232000000e+08,-65.0393
1.235733333e+08,-62.2798
1.239466667e+08,-61.8789
1.243200000e+08,-68.3932
1.246933333e+08,-66.5933
1.250666667e+08,-55.6959
1.254400000e+08,-51.2694
1.258133333e+08,-55.0964
1.261866667e+08,-53.9851
1.265600000e+08,-63.6211
1.269333333e+08,-65.8282
1.273066667e+08,-67.3006
1.276800000e+08,-62.0316
1.280533333e+08,-49.627
1.284266667e+08,-52.6754
1.288000000e+08,-59.8902
1.291733333e+08,-61.591
1.295466667e+08,-62.376
1.299200000e+08,-70.1602
1.302933333e+08,-69.0784
1.306666667e+08,-51.7612
1.310400000e+08,-53.3351
1.314133333e+08,-59.9476
1.317866667e+08,-52.813
1.321600000e+08,-51.8126
1.325333333e+08,-63.4406
1.329066667e+08,-70.6033
1.332800000e+08,-51.7544
1.336533333e+08,-51.1991
1.340266667e+08,-54.3678
1.344000000e+08,-58.7973
1.347733333e+08,-63.0119
1.351466667e+08,-67.396
1.355200000e+08,-63.7461
1.358933333e+08,-57.8839
1.362666667e+08,-53.7474
1.366400000e+08,-54.1371
1.370133333e+08,-60.5489
1.373866667e+08,-63.8352
1.377600000e+08,-64.5839
1.381333333e+08,-63.1891
1.385066667e+08,-61.4791
1.388800000e+08,-51.6134
1.392533333e+08,-49.4837
1.396266667e+08,-60.119
1.400000000e+08,-64.6398
1.403733333e+08,-72.2166
1.407466667e+08,-66.8733
1.411200000e+08,-60.3982
1.414933333e+08,-58.0038
1.418666667e+08,-53.4134
1.422400000e+08,-59.1603
1.426133333e+08,-60.7656
1.429866667e+08,-67.2701
1.433600000e+08,-64.1806
1.437333333e+08,-46.9277
1.441066667e+08,-44.3285
1.444800000e+08,-47.8606
1.448533333e+08,-49.8701
1.452266667e+08,-61.1708
1.456000000e+08,-58.811
1.459733333e+08,-60.0169
1.463466667e+08,-63.1751
1.467200000e+08,-61.3203
1.470933333e+08,-51.9238
1.474666667e+08,-51.3854
1.478400000e+08,-63.7791
1.482133333e+08,-63.6685
1.485866667e+08,-65.0436
1.489600000e+08,-65.9139
1.493333333e+08,-65.2447
1.497066667e+08,-52.7682
1.500800000e+08,-50.1496
1.504533333e+08,-64.8529
1.508266667e+08,-64.9928
1.512000000e+08,-62.8018
1.515733333e+08,-63.4045
1.519466667e+08,-66.7279
1.523200000e+08,-56.8301
1.526933333e+08,-50.7634
1.530666667e+08,-57.2664
1.534400000e+08,-63.239
1.538133333e+08,-60.0974
1.541866667e+08,-62.2711
1.545600000e+08,-63.4933
1.549333333e+08,-63.1579
1.553066667e+08,-48.7815
1.556800000e+08,-50.314
1.560533333e+08,-45.8737
1.564266667e+08,-54.4266
1.568000000e+08,-58.0501
1.571733333e+08,-62.064
1.575466667e+08,-67.487
1.579200000e+08,-52.1597
1.582933333e+08,-52.0941
1.586666667e+08,-60.7075
1.590400000e+08,-62.2357
1.594133333e+08,-59.4571
1.597866667e+08,-61.1557
1.601600000e+08,-66.6091
1.605333333e+08,-51.9382
1.609066667e+08,-49.2785
1.612800000e+08,-54.1535
1.616533333e+08,-58.1542
1.620266667e+08,-57.1645
1.624000000e+08,-67.1189
1.627733333e+08,-63.463
1.631466667e+08,-60.6506
1.635200000e+08,-54.0933
1.638933333e+08,-55.4739
1.642666667e+08,-61.5835
1.646400000e+08,-64.0484
1.650133333e+08,-64.2598
1.653866667e+08,-63.1264
1.657600000e+08,-61.5547
1.661333333e+08,-51.5628
1.665066667e+08,-50.4247
1.668800000e+08,-55.7034
1.672533333e+08,-58.1782
1.676266667e+08,-54.9654
1.680000000e+08,-46.6892
1.683733333e+08,-53.0051
1.687466667e+08,-59.496
1.691200000e+08,-53.8276
1.694933333e+08,-55.2214
1.698666667e+08,-57.765
1.702400000e+08,-62.4412
1.706133333e+08,-65.3425
1.709866667e+08,-64.0993
1.713600000e+08,-57.0813
1.717333333e+08,-48.367
1.721066667e+08,-49.2253
1.724800000e+08,-60.3914
1.728533333e+08,-60.3127
1.732266667e+08,-66.7863
1.736000000e+08,-62.2341
1.739733333e+08,-62.3373
1.743466667e+08,-53.7467
1.747200000e+08,-52.7024
1.750933333e+08,-65.7267
1.754666667e+08,-62.6189
1.758400000e+08,-63.3072
1.762133333e+08,-62.6164
1.765866667e+08,-62.1776
1.769600000e+08,-52.5148
1.773333333e+08,-47.5195
1.777066667e+08,-59.7562
1.780800000e+08,-66.4001
1.784533333e+08,-65.1734
1.788266667e+08,-67.1619
1.792000000e+08,-65.6432
1.795733333e+08,-55.1932
1.799466667e+08,-44.1518
1.803200000e+08,-48.1842
1.806933333e+08,-63.7209
1.810666667e+08,-60.6372
1.814400000e+08,-60.6954
1.818133333e+08,-61.3751
1.821866667e+08,-64.1244
1.825600000e+08,-47.2617
1.829333333e+08,-48.5558
1.833066667e+08,-63.3795
1.836800000e+08,-61.4863
1.840533333e+08,-63.3796
1.844266667e+08,-61.9515
1.848000000e+08,-69.0517
1.851733333e+08,-52.5223
1.855466667e+08,-51.6093
1.859200000e+08,-66.1628
1.862933333e+08,-64.0883
1.866666667e+08,-62.7118
1.870400000e+08,-65.264
1.874133333e+08,-67.7801
1.877866667e+08,-51.9074
1.881600000e+08,-47.6036
1.885333333e+08,-53.7037
1.889066667e+08,-58.7509
1.892800000e+08,-63.1862
1.896533333e+08,-64.1768
1.900266667e+08,-70.4038
1.904000000e+08,-64.0043
1.907733333e+08,-54.4692
1.911466667e+08,-58.453
1.915200000e+08,-54.1401
1.918933333e+08,-45.2216
1.922666667e+08,-46.4907
1.926400000e+08,-59.0223
1.930133333e+08,-62.4006
1.933866667e+08,-49.1583
1.937600000e+08,-50.0143
1.941333333e+08,-56.1023
1.945066667e+08,-61.3372
1.948800000e+08,-61.8081
1.952533333e+08,-71.6837
1.956266667e+08,-62.6266
1.960000000e+08,-54.5218
1.963733333e+08,-54.122
1.967466667e+08,-58.2386
1.971200000e+08,-58.8592
1.974933333e+08,-61.4586
1.978666667e+08,-63.7727
1.982400000e+08,-64.7989
1.986133333e+08,-55.3943
1.989866667e+08,-48.4954
1.993600000e+08,-48.1629
1.997333333e+08,-60.1587
2.001066667e+08,-61.8633
2.004800000e+08,-60.6706
2.008533333e+08,-63.3571
2.012266667e+08,-59.7758
2.016000000e+08,-56.5202
2.019733333e+08,-53.2755
2.023466667e+08,-60.5826
2.027200000e+08,-57.2954
2.030933333e+08,-61.3844
2.034666667e+08,-61.3117
2.038400000e+08,-47.6822
2.042133333e+08,-47.0281
2.045866667e+08,-46.5388
2.049600000e+08,-53.6527
2.053333333e+08,-58.828
2.057066667e+08,-62.0212
2.060800000e+08,-62.7542
2.064533333e+08,-66.8
2.068266667e+08,-61.0693
2.072000000e+08,-51.1105
2.075733333e+08,-53.0317
2.079466667e+08,-71.0875
2.083200000e+08,-60.5717
2.086933333e+08,-58.7015
2.090666667e+08,-62.3957
2.094400000e+08,-62.2958
2.098133333e+08,-47.7334
2.101866667e+08,-47.8902
2.105600000e+08,-64.6674
2.109333333e+08,-60.3932
2.113066667e+08,-56.8122
2.116800000e+08,-57.9545
2.120533333e+08,-67.0915
2.124266667e+08,-57.2579
2.128000000e+08,-54.773
2.131733333e+08,-65.085
2.135466667e+08,-58.4705
2.139200000e+08,-59.3015
2.142933333e+08,-60.6692
2.146666667e+08,-65.8309
2.150400000e+08,-54.8846
2.154133333e+08,-47.2978
2.157866667e+08,-46.1564
2.161600000e+08,-44.9515
2.165333333e+08,-54.7317
2.169066667e+08,-59.5109
2.172800000e+08,-60.9558
2.176533333e+08,-69.0528
2.180266667e+08,-53.9736
2.184000000e+08,-56.137
2.187733333e+08,-61.1339
2.191466667e+08,-60.6761
2.195200000e+08,-60.4071
2.198933333e+08,-60.0751
2.202666667e+08,-59.0553
2.206400000e+08,-48.4029
2.210133333e+08,-48.6658
2.213866667e+08,-57.1682
2.217600000e+08,-57.1875
2.221333333e+08,-58.8723
2.225066667e+08,-65.0053
2.228800000e+08,-65.783
2.232533333e+08,-56.9741
2.236266667e+08,-56.0535
2.240000000e+08,-57.8959
2.243733333e+08,-58.0664
2.247466667e+08,-59.1932
2.251200000e+08,-62.1288
2.254933333e+08,-63.6706
2.258666667e+08,-54.3052
2.262400000e+08,-48.7313
2.266133333e+08,-48.4785
2.269866667e+08,-57.4882
2.273600000e+08,-59.7007
2.277333333e+08,-51.6672
2.281066667e+08,-48.9159
2.284800000e+08,-59.6282
2.288533333e+08,-57.8705
2.292266667e+08,-53.0857
2.296000000e+08,-56.7434
2.299733333e+08,-58.0624
2.303466667e+08,-58.1823
2.307200000e+08,-64.3269
2.310933333e+08,-64.3632
2.314666667e+08,-52.6251
2.318400000e+08,-46.9199
2.322133333e+08,-52.0297
2.325866667e+08,-62.2075
2.329600000e+08,-65.4017
2.333333333e+08,-64.6114
2.337066667e+08,-63.9782
2.340800000e+08,-61.2423
2.344533333e+08,-52.9401
2.348266667e+08,-53.8078
2.352000000e+08,-61.9347
2.355733333e+08,-60.7433
2.359466667e+08,-61.3549
2.363200000e+08,-63.278
2.366933333e+08,-63.1532
2.370666667e+08,-47.5064
2.374400000e+08,-46.137
2.378133333e+08,-62.5311
2.381866667e+08,-65.8521
2.385600000e+08,-64.0911
2.389333333e+08,-63.5255
2.393066667e+08,-61.8816
2.396800000e+08,-49.9037
2.400533333e+08,-46.8601
2.404266667e+08,-54.5737
2.408000000e+08,-61.8996
2.411733333e+08,-60.5017
2.415466667e+08,-57.8734
2.419200000e+08,-60.8478
2.422933333e+08,-58.9637
2.426666667e+08,-46.4981
2.430400000e+08,-50.9686
2.434133333e+08,-59.8858
2.437866667e+08,-59.4375
2.441600000e+08,-59.6067
2.445333333e+08,-62.8087
2.449066667e+08,-67.8185
2.452800000e+08,-53.4301
2.456533333e+08,-54.8137
2.460266667e+08,-64.6867
2.464000000e+08,-61.2793
2.467733333e+08,-60.7631
2.471466667e+08,-62.8544
2.475200000e+08,-71.3188
2.478933333e+08,-48.2934
2.482666667e+08,-47.5223
2.486400000e+08,-56.7192
2.490133333e+08,-58.1923
2.493866667e+08,-60.3637
2.497600000e+08,-61.7869
2.501333333e+08,-69.4287
2.505066667e+08,-57.6228
2.508800000e+08,-54.0752
2.512533333e+08,-58.1062
2.516266667e+08,-51.4348
2.520000000e+08,-44.6401
2.523733333e+08,-53.0592
2.527466667e+08,-61.7525
2.531200000e+08,-58.7755
2.534933333e+08,-48.2355
2.538666667e+08,-49.5318
2.542400000e+08,-56.3277
2.546133333e+08,-59.0478
2.549866667e+08,-60.909
2.553600000e+08,-66.3545
2.557333333e+08,-64.7772
2.561066667e+08,-56.4789
2.564800000e+08,-55.7903
2.568533333e+08,-60.3465
2.572266667e+08,-61.7783
2.576000000e+08,-63.1861
2.579733333e+08,-63.4375
2.583466667e+08,-63.9778
2.587200000e+08,-52.1191
2.590933333e+08,-48.1346
2.594666667e+08,-50.6648
2.598400000e+08,-61.3747
2.602133333e+08,-62.6059
2.605866667e+08,-64.2757
2.609600000e+08,-62.4885
2.613333333e+08,-59.6102
2.617066667e+08,-54.6361
2.620800000e+08,-54.2964
2.624533333e+08,-60.7012
2.628266667e+08,-60.651
2.632000000e+08,-60.7454
2.635733333e+08,-60.1577
2.639466667e+08,-52.718
2.643200000e+08,-47.6485
2.646933333e+08,-46.3651
2.650666667e+08,-61.7216
2.654400000e+08,-61.7837
2.658133333e+08,-60.4974
2.661866667e+08,-63.7289
2.665600000e+08,-64.4166
2.669333333e+08,-62.2702
2.673066667e+08,-53.5604
2.676800000e+08,-59.4071
2.680533333e+08,-60.4521
2.684266667e+08,-68.2052
2.688000000e+08,-63.8973
2.691733333e+08,-62.9053
2.695466667e+08,-60.765
2.699200000e+08,-47.1282
2.702933333e+08,-50.7451
2.706666667e+08,-62.5781
2.710400000e+08,-62.2366
2.714133333e+08,-57.6952
2.717866667e+08,-57.6716
2.721600000e+08,-64.6721
2.725333333e+08,-52.8068
2.729066667e+08,-53.3903
2.732800000e+08,-64.113
2.736533333e+08,-61.0467
2.740266667e+08,-63.1357
2.744000000e+08,-59.3435
2.747733333e+08,-62.4293
2.751466667e+08,-50.0681
2.755200000e+08,-48.4568
2.758933333e+08,-47.0832
2.762666667e+08,-48.5442
2.766400000e+08,-59.1973
2.770133333e+08,-61.8988
2.773866667e+08,-63.016
2.777600000e+08,-59.8363
2.781333333e+08,-53.1755
2.785066667e+08,-61.0714
2.788800000e+08,-63.2825
2.792533333e+08,-60.8785
2.796266667e+08,-60.6351
2.800000000e+08,-64.8444

