1/tek0101NRM.csv

Model,MDO3104
Firmware Version,1.30

Waveform Type,RF_FD
Point Format,Y
Horizontal Units,Hz
Horizontal Scale,2.8e+07
,
Sample Interval,373333
Record Length,751
Gating,0.133155792277% to 100.0%
Probe Attenuation,1
Vertical Units,dBm
Vertical Offset,0
Vertical Scale,10
Vertical Position,0
Center Frequency,1.4e+08
Span,2.8e+08
Reference Level,-15
Label,
FREQUENCY,FD NORM
0.000000000e+00,-62.6156
3.733333333e+05,-70.9268
7.466666667e+05,-76.4235
1.120000000e+06,-75.9194
1.493333333e+06,-69.2019
1.866666667e+06,-67.9161
2.240000000e+06,-71.2145
2.613333333e+06,-65.0325
2.986666667e+06,-66.3555
3.360000000e+06,-60.4907
3.733333333e+06,-61.8861
4.106666667e+06,-70.1389
4.480000000e+06,-76.547
4.853333333e+06,-78.6329
5.226666667e+06,-63.1477
5.600000000e+06,-67.7389
5.973333333e+06,-75.364
6.346666667e+06,-69.826
6.720000000e+06,-69.4065
7.093333333e+06,-75.8103
7.466666667e+06,-75.3476
7.840000000e+06,-68.5523
8.213333333e+06,-64.1918
8.586666667e+06,-67.2201
8.960000000e+06,-68.3561
9.333333333e+06,-68.4177
9.706666667e+06,-79.8188
1.008000000e+07,-75.4385
1.045333333e+07,-73.2335
1.082666667e+07,-73.2885
1.120000000e+07,-70.4813
1.157333333e+07,-70.0326
1.194666667e+07,-66.819
1.232000000e+07,-68.348
1.269333333e+07,-66.1134
1.306666667e+07,-70.1486
1.344000000e+07,-62.5791
1.381333333e+07,-62.5412
1.418666667e+07,-70.244
1.456000000e+07,-71.5663
1.493333333e+07,-75.0944
1.530666667e+07,-75.404
1.568000000e+07,-72.2513
1.605333333e+07,-61.7626
1.642666667e+07,-60.2527
1.680000000e+07,-64.4648
1.717333333e+07,-64.7891
1.754666667e+07,-72.6684
1.792000000e+07,-70.0862
1.829333333e+07,-71.4439
1.866666667e+07,-66.6712
1.904000000e+07,-67.8727
1.941333333e+07,-68.9171
1.978666667e+07,-69.5782
2.016000000e+07,-74.6383
2.053333333e+07,-68.9104
2.090666667e+07,-67.1402
2.128000000e+07,-68.344
2.165333333e+07,-63.5988
2.202666667e+07,-63.1446
2.240000000e+07,-65.9414
2.277333333e+07,-64.6397
2.314666667e+07,-66.3988
2.352000000e+07,-66.0451
2.389333333e+07,-68.5451
2.426666667e+07,-60.8818
2.464000000e+07,-60.5478
2.501333333e+07,-53.2288
2.538666667e+07,-59.2168
2.576000000e+07,-66.8246
2.613333333e+07,-63.0781
2.650666667e+07,-69.3547
2.688000000e+07,-70.1435
2.725333333e+07,-65.5293
2.762666667e+07,-72.8946
2.800000000e+07,-72.2561
2.837333333e+07,-73.6092
2.874666667e+07,-74.9595
2.912000000e+07,-71.2122
2.949333333e+07,-66.3435
2.986666667e+07,-59.9168
3.024000000e+07,-61.6024
3.061333333e+07,-72.7352
3.098666667e+07,-76.1966
3.136000000e+07,-70.1733
3.173333333e+07,-70.0837
3.210666667e+07,-70.6888
3.248000000e+07,-63.3442
3.285333333e+07,-62.6118
3.322666667e+07,-70.6411
3.360000000e+07,-75.1672
3.397333333e+07,-71.7847
3.434666667e+07,-77.8839
3.472000000e+07,-73.1611
3.509333333e+07,-63.4073
3.546666667e+07,-58.6953
3.584000000e+07,-60.3316
3.621333333e+07,-61.8869
3.658666667e+07,-67.5191
3.696000000e+07,-71.1873
3.733333333e+07,-72.3947
3.770666667e+07,-70.2031
3.808000000e+07,-58.2327
3.845333333e+07,-61.5994
3.882666667e+07,-71.9837
3.920000000e+07,-81.7488
3.957333333e+07,-74.5326
3.994666667e+07,-73.2868
4.032000000e+07,-71.3381
4.069333333e+07,-57.9072
4.106666667e+07,-58.5328
4.144000000e+07,-68.6416
4.181333333e+07,-72.2964
4.218666667e+07,-72.9166
4.256000000e+07,-71.1789
4.293333333e+07,-68.8966
4.330666667e+07,-61.713
4.368000000e+07,-60.0637
4.405333333e+07,-64.2324
4.442666667e+07,-71.0898
4.480000000e+07,-68.9759
4.517333333e+07,-71.1205
4.554666667e+07,-72.8409
4.592000000e+07,-61.3015
4.629333333e+07,-56.5606
4.666666667e+07,-57.819
4.704000000e+07,-66.4303
4.741333333e+07,-73.0486
4.778666667e+07,-69.1434
4.816000000e+07,-68.9967
4.853333333e+07,-68.2491
4.890666667e+07,-58.1248
4.928000000e+07,-57.5725
4.965333333e+07,-69.746
5.002666667e+07,-76.7582
5.040000000e+07,-71.9559
5.077333333e+07,-71.7789
5.114666667e+07,-69.9741
5.152000000e+07,-58.5686
5.189333333e+07,-55.0869
5.226666667e+07,-68.5429
5.264000000e+07,-76.8978
5.301333333e+07,-68.1246
5.338666667e+07,-67.1405
5.376000000e+07,-69.3257
5.413333333e+07,-65.1818
5.450666667e+07,-57.0593
5.488000000e+07,-61.6578
5.525333333e+07,-72.5991
5.562666667e+07,-70.9167
5.600000000e+07,-68.149
5.637333333e+07,-70.116
5.674666667e+07,-69.5786
5.712000000e+07,-52.5395
5.749333333e+07,-53.0411
5.786666667e+07,-76.6144
5.824000000e+07,-70.2412
5.861333333e+07,-71.5868
5.898666667e+07,-71.1976
5.936000000e+07,-70.4507
5.973333333e+07,-36.9172
6.010666667e+07,-34.6026
6.048000000e+07,-53.2864
6.085333333e+07,-71.7133
6.122666667e+07,-74.0806
6.160000000e+07,-68.4989
6.197333333e+07,-72.9923
6.234666667e+07,-63.8697
6.272000000e+07,-53.3193
6.309333333e+07,-60.3732
6.346666667e+07,-72.9599
6.384000000e+07,-70.2697
6.421333333e+07,-68.5594
6.458666667e+07,-66.3378
6.496000000e+07,-67.3868
6.533333333e+07,-55.5755
6.570666667e+07,-58.3331
6.608000000e+07,-78.0785
6.645333333e+07,-71.4944
6.682666667e+07,-74.2453
6.720000000e+07,-70.4821
6.757333333e+07,-69.8846
6.794666667e+07,-56.7448
6.832000000e+07,-55.9707
6.869333333e+07,-62.7389
6.906666667e+07,-66.0601
6.944000000e+07,-70.099
6.981333333e+07,-69.4406
7.018666667e+07,-65.0289
7.056000000e+07,-57.6348
7.093333333e+07,-55.0429
7.130666667e+07,-58.7103
7.168000000e+07,-67.2227
7.205333333e+07,-63.9154
7.242666667e+07,-73.9353
7.280000000e+07,-67.9938
7.317333333e+07,-64.8243
7.354666667e+07,-57.3812
7.392000000e+07,-58.7357
7.429333333e+07,-68.85
7.466666667e+07,-63.4036
7.504000000e+07,-63.3046
7.541333333e+07,-74.1728
7.578666667e+07,-63.6484
7.616000000e+07,-55.9026
7.653333333e+07,-55.7027
7.690666667e+07,-64.6087
7.728000000e+07,-70.5037
7.765333333e+07,-67.8988
7.802666667e+07,-68.4839
7.840000000e+07,-66.7856
7.877333333e+07,-58.3789
7.914666667e+07,-54.7096
7.952000000e+07,-62.675
7.989333333e+07,-74.4308
8.026666667e+07,-66.4585
8.064000000e+07,-65.1581
8.101333333e+07,-63.8127
8.138666667e+07,-61.5366
8.176000000e+07,-57.6622
8.213333333e+07,-59.6293
8.250666667e+07,-73.6688
8.288000000e+07,-71.3504
8.325333333e+07,-69.0004
8.362666667e+07,-59.6904
8.400000000e+07,-52.9023
8.437333333e+07,-53.4934
8.474666667e+07,-52.7481
8.512000000e+07,-74.0605
8.549333333e+07,-75.8183
8.586666667e+07,-70.2648
8.624000000e+07,-67.5443
8.661333333e+07,-67.9224
8.698666667e+07,-57.2641
8.736000000e+07,-53.8835
8.773333333e+07,-68.0497
8.810666667e+07,-65.6452
8.848000000e+07,-72.0308
8.885333333e+07,-69.141
8.922666667e+07,-67.0614
8.960000000e+07,-69.6874
8.997333333e+07,-57.1589
9.034666667e+07,-61.0259
9.072000000e+07,-77.6239
9.109333333e+07,-71.9181
9.146666667e+07,-73.7681
9.184000000e+07,-68.838
9.221333333e+07,-65.6928
9.258666667e+07,-54.6527
9.296000000e+07,-56.6402
9.333333333e+07,-71.2408
9.370666667e+07,-75.4224
9.408000000e+07,-76.7009
9.445333333e+07,-71.0885
9.482666667e+07,-68.7166
9.520000000e+07,-53.0918
9.557333333e+07,-52.1803
9.594666667e+07,-54.1435
9.632000000e+07,-73.4309
9.669333333e+07,-69.4598
9.706666667e+07,-66.5361
9.744000000e+07,-72.2529
9.781333333e+07,-59.5724
9.818666667e+07,-54.7417
9.856000000e+07,-61.0393
9.893333333e+07,-67.5436
9.930666667e+07,-66.2836
9.968000000e+07,-67.4431
1.000533333e+08,-70.1993
1.004266667e+08,-63.5401
1.008000000e+08,-52.771
1.011733333e+08,-55.1727
1.015466667e+08,-64.2589
1.019200000e+08,-69.7843
1.022933333e+08,-65.124
1.026666667e+08,-65.6532
1.030400000e+08,-68.6699
1.034133333e+08,-54.2899
1.037866667e+08,-54.323
1.041600000e+08,-63.9179
1.045333333e+08,-66.1087
1.049066667e+08,-71.6919
1.052800000e+08,-66.4211
1.056533333e+08,-65.6791
1.060266667e+08,-53.0556
1.064000000e+08,-51.0575
1.067733333e+08,-57.0689
1.071466667e+08,-63.8842
1.075200000e+08,-67.7534
1.078933333e+08,-51.2324
1.082666667e+08,-54.3818
1.086400000e+08,-62.9947
1.090133333e+08,-54.0797
1.093866667e+08,-54.8905
1.097600000e+08,-69.9355
1.101333333e+08,-64.6367
1.105066667e+08,-66.9673
1.108800000e+08,-64.9156
1.112533333e+08,-68.1685
1.116266667e+08,-51.8703
1.120000000e+08,-50.3531
1.123733333e+08,-67.6787
1.127466667e+08,-67.5389
1.131200000e+08,-72.4837
1.134933333e+08,-62.9151
1.138666667e+08,-70.0808
1.142400000e+08,-55.5691
1.146133333e+08,-52.3459
1.149866667e+08,-64.0328
1.153600000e+08,-69.3301
1.157333333e+08,-69.5008
1.161066667e+08,-71.9295
1.164800000e+08,-69.7738
1.168533333e+08,-59.8631
1.172266667e+08,-50.177
1.176000000e+08,-54.6678
1.179733333e+08,-71.3323
1.183466667e+08,-68.569
1.187200000e+08,-67.7871
1.190933333e+08,-70.3327
1.194666667e+08,-61.9882
1.198400000e+08,-36.3059
1.202133333e+08,-37.061
1.205866667e+08,-63.1909
1.209600000e+08,-64.4035
1.213333333e+08,-66.2545
1.217066667e+08,-67.8268
1.220800000e+08,-68.8621
1.224533333e+08,-52.6154
1.228266667e+08,-50.5349
1.232000000e+08,-63.8222
1.235733333e+08,-70.8977
1.239466667e+08,-71.3415
1.243200000e+08,-67.3353
1.246933333e+08,-70.467
1.250666667e+08,-62.6
1.254400000e+08,-53.0196
1.258133333e+08,-60.2572
1.261866667e+08,-69.5596
1.265600000e+08,-69.2388
1.269333333e+08,-66.3602
1.273066667e+08,-67.0534
1.276800000e+08,-70.3659
1.280533333e+08,-49.5565
1.284266667e+08,-51.8517
1.288000000e+08,-66.7964
1.291733333e+08,-68.5652
1.295466667e+08,-62.1712
1.299200000e+08,-65.3352
1.302933333e+08,-64.5571
1.306666667e+08,-51.6849
1.310400000e+08,-51.9395
1.314133333e+08,-63.6601
1.317866667e+08,-53.1806
1.321600000e+08,-51.0416
1.325333333e+08,-64.5147
1.329066667e+08,-67.3821
1.332800000e+08,-53.4853
1.336533333e+08,-50.7422
1.340266667e+08,-54.0693
1.344000000e+08,-63.6114
1.347733333e+08,-65.7273
1.351466667e+08,-63.5634
1.355200000e+08,-69.9544
1.358933333e+08,-63.3317
1.362666667e+08,-53.6347
1.366400000e+08,-54.1487
1.370133333e+08,-63.642
1.373866667e+08,-67.6704
1.377600000e+08,-68.7335
1.381333333e+08,-63.1685
1.385066667e+08,-70.1625
1.388800000e+08,-50.5445
1.392533333e+08,-49.209
1.396266667e+08,-67.1407
1.400000000e+08,-64.9917
1.403733333e+08,-65.1443
1.407466667e+08,-65.6921
1.411200000e+08,-66.1216
1.414933333e+08,-55.7535
1.418666667e+08,-52.1614
1.422400000e+08,-61.1634
1.426133333e+08,-66.3533
1.429866667e+08,-67.8
1.433600000e+08,-63.1245
1.437333333e+08,-55.2905
1.441066667e+08,-57.1665
1.444800000e+08,-49.9861
1.448533333e+08,-52.575
1.452266667e+08,-67.1488
1.456000000e+08,-66.4897
1.459733333e+08,-67.452
1.463466667e+08,-67.1111
1.467200000e+08,-68.496
1.470933333e+08,-51.9667
1.474666667e+08,-51.6479
1.478400000e+08,-71.823
1.482133333e+08,-68.5452
1.485866667e+08,-64.6714
1.489600000e+08,-68.5894
1.493333333e+08,-69.8354
1.497066667e+08,-51.5793
1.500800000e+08,-48.5811
1.504533333e+08,-69.2597
1.508266667e+08,-75.4758
1.512000000e+08,-73.352
1.515733333e+08,-66.531
1.519466667e+08,-68.176
1.523200000e+08,-71.2648
1.526933333e+08,-53.0736
1.530666667e+08,-59.0662
1.534400000e+08,-62.6321
1.538133333e+08,-71.1996
1.541866667e+08,-67.2284
1.545600000e+08,-68.4246
1.549333333e+08,-66.1646
1.553066667e+08,-47.7852
1.556800000e+08,-49.2654
1.560533333e+08,-50.2393
1.564266667e+08,-60.8382
1.568000000e+08,-67.3924
1.571733333e+08,-66.5829
1.575466667e+08,-68.845
1.579200000e+08,-53.2982
1.582933333e+08,-52.8464
1.586666667e+08,-59.569
1.590400000e+08,-66.2753
1.594133333e+08,-64.9183
1.597866667e+08,-69.2556
1.601600000e+08,-65.4041
1.605333333e+08,-52.6744
1.609066667e+08,-48.8133
1.612800000e+08,-53.0458
1.616533333e+08,-62.7744
1.620266667e+08,-65.4003
1.624000000e+08,-64.1653
1.627733333e+08,-63.165
1.631466667e+08,-65.1489
1.635200000e+08,-53.1686
1.638933333e+08,-54.2466
1.642666667e+08,-64.8649
1.646400000e+08,-64.9758
1.650133333e+08,-63.5471
1.653866667e+08,-61.0613
1.657600000e+08,-62.2404
1.661333333e+08,-50.3477
1.665066667e+08,-49.7069
1.668800000e+08,-59.6978
1.672533333e+08,-64.0344
1.676266667e+08,-61.1114
1.680000000e+08,-63.0878
1.683733333e+08,-63.3789
1.687466667e+08,-57.7414
1.691200000e+08,-54.2964
1.694933333e+08,-60.5379
1.698666667e+08,-63.3574
1.702400000e+08,-64.5054
1.706133333e+08,-69.7007
1.709866667e+08,-64.9217
1.713600000e+08,-56.2925
1.717333333e+08,-47.1465
1.721066667e+08,-48.1826
1.724800000e+08,-65.1393
1.728533333e+08,-68.1534
1.732266667e+08,-66.0181
1.736000000e+08,-63.8082
1.739733333e+08,-66.5303
1.743466667e+08,-53.0834
1.747200000e+08,-52.0502
1.750933333e+08,-63.9629
1.754666667e+08,-64.8107
1.758400000e+08,-63.3796
1.762133333e+08,-67.9409
1.765866667e+08,-69.6257
1.769600000e+08,-52.5494
1.773333333e+08,-47.9025
1.777066667e+08,-63.9614
1.780800000e+08,-69.0046
1.784533333e+08,-66.2721
1.788266667e+08,-63.7441
1.792000000e+08,-68.4695
1.795733333e+08,-55.1586
1.799466667e+08,-40.9088
1.803200000e+08,-45.476
1.806933333e+08,-70.0617
1.810666667e+08,-64.6256
1.814400000e+08,-74.4846
1.818133333e+08,-65.5824
1.821866667e+08,-71.6136
1.825600000e+08,-47.6287
1.829333333e+08,-48.8488
1.833066667e+08,-64.6209
1.836800000e+08,-65.5497
1.840533333e+08,-65.9206
1.844266667e+08,-67.4967
1.848000000e+08,-71.798
1.851733333e+08,-55.1249
1.855466667e+08,-53.1177
1.859200000e+08,-62.5062
1.862933333e+08,-67.0884
1.866666667e+08,-68.1512
1.870400000e+08,-69.5993
1.874133333e+08,-67.291
1.877866667e+08,-54.0845
1.881600000e+08,-48.1031
1.885333333e+08,-52.6236
1.889066667e+08,-61.3927
1.892800000e+08,-65.984
1.896533333e+08,-65.5618
1.900266667e+08,-66.4719
1.904000000e+08,-65.2382
1.907733333e+08,-52.9459
1.911466667e+08,-54.1609
1.915200000e+08,-53.5477
1.918933333e+08,-50.686
1.922666667e+08,-69.0963
1.926400000e+08,-67.2422
1.930133333e+08,-63.9345
1.933866667e+08,-49.446
1.937600000e+08,-49.2516
1.941333333e+08,-59.0416
1.945066667e+08,-66.2996
1.948800000e+08,-61.2997
1.952533333e+08,-61.8157
1.956266667e+08,-66.0337
1.960000000e+08,-57.7019
1.963733333e+08,-52.7322
1.967466667e+08,-56.5086
1.971200000e+08,-63.363
1.974933333e+08,-63.4809
1.978666667e+08,-68.854
1.982400000e+08,-63.1986
1.986133333e+08,-56.6094
1.989866667e+08,-47.7948
1.993600000e+08,-48.0221
1.997333333e+08,-60.981
2.001066667e+08,-63.6985
2.004800000e+08,-67.8974
2.008533333e+08,-63.147
2.012266667e+08,-66.8836
2.016000000e+08,-54.275
2.019733333e+08,-52.2824
2.023466667e+08,-66.1391
2.027200000e+08,-63.5753
2.030933333e+08,-63.4064
2.034666667e+08,-63.764
2.038400000e+08,-50.4155
2.042133333e+08,-49.8316
2.045866667e+08,-47.0283
2.049600000e+08,-58.3037
2.053333333e+08,-63.5218
2.057066667e+08,-61.3946
2.060800000e+08,-68.1895
2.064533333e+08,-68.9482
2.068266667e+08,-63.0047
2.072000000e+08,-52.8641
2.075733333e+08,-55.5627
2.079466667e+08,-66.5038
2.083200000e+08,-70.8546
2.086933333e+08,-69.7344
2.090666667e+08,-71.0548
2.094400000e+08,-66.4778
2.098133333e+08,-46.0189
2.101866667e+08,-46.1907
2.105600000e+08,-61.6416
2.109333333e+08,-63.2748
2.113066667e+08,-60.8999
2.116800000e+08,-63.5446
2.120533333e+08,-68.04
2.124266667e+08,-56.0907
2.128000000e+08,-53.4427
2.131733333e+08,-62.1235
2.135466667e+08,-62.5026
2.139200000e+08,-71.3909
2.142933333e+08,-67.0069
2.146666667e+08,-61.4445
2.150400000e+08,-55.9969
2.154133333e+08,-46.8262
2.157866667e+08,-50.4866
2.161600000e+08,-57.4819
2.165333333e+08,-63.694
2.169066667e+08,-67.2915
2.172800000e+08,-66.2203
2.176533333e+08,-65.3324
2.180266667e+08,-53.7072
2.184000000e+08,-55.7157
2.187733333e+08,-62.5542
2.191466667e+08,-66.3563
2.195200000e+08,-70.2227
2.198933333e+08,-64.1161
2.202666667e+08,-61.4778
2.206400000e+08,-48.3009
2.210133333e+08,-48.1036
2.213866667e+08,-56.8273
2.217600000e+08,-64.128
2.221333333e+08,-62.1162
2.225066667e+08,-67.8644
2.228800000e+08,-65.1373
2.232533333e+08,-56.8633
2.236266667e+08,-53.555
2.240000000e+08,-56.7416
2.243733333e+08,-61.6048
2.247466667e+08,-63.3867
2.251200000e+08,-65.8201
2.254933333e+08,-62.3918
2.258666667e+08,-61.5429
2.262400000e+08,-47.7884
2.266133333e+08,-47.5751
2.269866667e+08,-61.2055
2.273600000e+08,-62.1948
2.277333333e+08,-49.138
2.281066667e+08,-47.4113
2.284800000e+08,-63.8913
2.288533333e+08,-56.0351
2.292266667e+08,-53.8239
2.296000000e+08,-64.6031
2.299733333e+08,-65.4775
2.303466667e+08,-63.5772
2.307200000e+08,-63.823
2.310933333e+08,-64.8231
2.314666667e+08,-52.1616
2.318400000e+08,-46.8772
2.322133333e+08,-53.3543
2.325866667e+08,-64.5546
2.329600000e+08,-67.3323
2.333333333e+08,-65.5789
2.337066667e+08,-64.1761
2.340800000e+08,-63.3058
2.344533333e+08,-53.6499
2.348266667e+08,-55.6842
2.352000000e+08,-68.496
2.355733333e+08,-66.4277
2.359466667e+08,-66.5938
2.363200000e+08,-69.2771
2.366933333e+08,-66.266
2.370666667e+08,-47.3267
2.374400000e+08,-46.465
2.378133333e+08,-68.0621
2.381866667e+08,-66.4292
2.385600000e+08,-66.6135
2.389333333e+08,-66.3583
2.393066667e+08,-60.6819
2.396800000e+08,-49.4027
2.400533333e+08,-50.3047
2.404266667e+08,-61.3249
2.408000000e+08,-67.5261
2.411733333e+08,-68.2811
2.415466667e+08,-66.9562
2.419200000e+08,-71.3459
2.422933333e+08,-59.7014
2.426666667e+08,-47.0642
2.430400000e+08,-52.7013
2.434133333e+08,-72.3152
2.437866667e+08,-65.9427
2.441600000e+08,-67.4384
2.445333333e+08,-72.2896
2.449066667e+08,-69.0971
2.452800000e+08,-54.348
2.456533333e+08,-56.4954
2.460266667e+08,-66.7625
2.464000000e+08,-69.4943
2.467733333e+08,-68.8768
2.471466667e+08,-71.4413
2.475200000e+08,-67.4039
2.478933333e+08,-48.7601
2.482666667e+08,-47.7524
2.486400000e+08,-55.5481
2.490133333e+08,-63.4469
2.493866667e+08,-62.9928
2.497600000e+08,-68.3898
2.501333333e+08,-63.4148
2.505066667e+08,-58.7814
2.508800000e+08,-53.4181
2.512533333e+08,-57.221
2.516266667e+08,-55.6575
2.520000000e+08,-47.5522
2.523733333e+08,-54.0018
2.527466667e+08,-65.5585
2.531200000e+08,-64.0254
2.534933333e+08,-48.7176
2.538666667e+08,-49.1368
2.542400000e+08,-61.1392
2.546133333e+08,-64.6183
2.549866667e+08,-62.2643
2.553600000e+08,-66.2853
2.557333333e+08,-67.1565
2.561066667e+08,-56.0465
2.564800000e+08,-54.9081
2.568533333e+08,-65.6266
2.572266667e+08,-68.5033
2.576000000e+08,-64.3202
2.579733333e+08,-67.6459
2.583466667e+08,-62.0031
2.587200000e+08,-53.6231
2.590933333e+08,-48.7531
2.594666667e+08,-53.595
2.598400000e+08,-65.6357
2.602133333e+08,-62.3755
2.605866667e+08,-63.8014
2.609600000e+08,-65.1862
2.613333333e+08,-63.2251
2.617066667e+08,-53.392
2.620800000e+08,-53.566
2.624533333e+08,-67.7362
2.628266667e+08,-65.3116
2.632000000e+08,-67.4208
2.635733333e+08,-54.8708
2.639466667e+08,-55.6662
2.643200000e+08,-49.4828
2.646933333e+08,-47.7604
2.650666667e+08,-66.4462
2.654400000e+08,-61.9967
2.658133333e+08,-62.6103
2.661866667e+08,-64.3747
2.665600000e+08,-73.9799
2.669333333e+08,-58.3343
2.673066667e+08,-53.4693
2.676800000e+08,-66.1981
2.680533333e+08,-68.6703
2.684266667e+08,-65.5506
2.688000000e+08,-67.4528
2.691733333e+08,-68.0011
2.695466667e+08,-62.0308
2.699200000e+08,-46.147
2.702933333e+08,-49.5036
2.706666667e+08,-72.7275
2.710400000e+08,-69.5442
2.714133333e+08,-67.8632
2.717866667e+08,-69.2262
2.721600000e+08,-71.4907
2.725333333e+08,-53.1926
2.729066667e+08,-53.8361
2.732800000e+08,-67.0114
2.736533333e+08,-73.6867
2.740266667e+08,-66.1065
2.744000000e+08,-70.0249
2.747733333e+08,-69.7904
2.751466667e+08,-51.3508
2.755200000e+08,-49.3048
2.758933333e+08,-47.1507
2.762666667e+08,-50.3792
2.766400000e+08,-68.1613
2.770133333e+08,-65.6506
2.773866667e+08,-68.111
2.777600000e+08,-62.2197
2.781333333e+08,-54.4811
2.785066667e+08,-58.3224
2.788800000e+08,-68.5518
2.792533333e+08,-71.6047
2.796266667e+08,-68.4874
2.800000000e+08,-69.6853

