1/tek0138NRM.csv

Model,MDO3104
Firmware Version,1.30

Waveform Type,RF_FD
Point Format,Y
Horizontal Units,Hz
Horizontal Scale,2.8e+07
,
Sample Interval,373333
Record Length,751
Gating,0.133155792277% to 100.0%
Probe Attenuation,1
Vertical Units,dBm
Vertical Offset,0
Vertical Scale,10
Vertical Position,0
Center Frequency,1.4e+08
Span,2.8e+08
Reference Level,-15
Label,
FREQUENCY,FD NORM
0.000000000e+00,-64.2936
3.733333333e+05,-73.2656
7.466666667e+05,-78.4121
1.120000000e+06,-78.3494
1.493333333e+06,-72.0165
1.866666667e+06,-69.9107
2.240000000e+06,-72.9971
2.613333333e+06,-67.6537
2.986666667e+06,-68.5522
3.360000000e+06,-62.9741
3.733333333e+06,-64.7512
4.106666667e+06,-69.3773
4.480000000e+06,-70.6962
4.853333333e+06,-73.0281
5.226666667e+06,-66.7121
5.600000000e+06,-74.0957
5.973333333e+06,-67.726
6.346666667e+06,-69.614
6.720000000e+06,-70.1869
7.093333333e+06,-71.2809
7.466666667e+06,-69.7351
7.840000000e+06,-67.2285
8.213333333e+06,-67.3419
8.586666667e+06,-71.1154
8.960000000e+06,-75.4039
9.333333333e+06,-70.7014
9.706666667e+06,-72.6203
1.008000000e+07,-75.5089
1.045333333e+07,-68.6451
1.082666667e+07,-68.3559
1.120000000e+07,-69.0145
1.157333333e+07,-68.4627
1.194666667e+07,-65.4004
1.232000000e+07,-67.1566
1.269333333e+07,-70.3625
1.306666667e+07,-68.0719
1.344000000e+07,-70.003
1.381333333e+07,-69.7354
1.418666667e+07,-71.4003
1.456000000e+07,-71.3558
1.493333333e+07,-71.1835
1.530666667e+07,-69.0769
1.568000000e+07,-66.5216
1.605333333e+07,-67.9864
1.642666667e+07,-71.7025
1.680000000e+07,-68.8558
1.717333333e+07,-67.5962
1.754666667e+07,-68.526
1.792000000e+07,-68.1806
1.829333333e+07,-69.5147
1.866666667e+07,-73.4166
1.904000000e+07,-66.6223
1.941333333e+07,-67.9468
1.978666667e+07,-70.5325
2.016000000e+07,-74.2194
2.053333333e+07,-69.3138
2.090666667e+07,-69.7704
2.128000000e+07,-69.0655
2.165333333e+07,-70.0196
2.202666667e+07,-71.3274
2.240000000e+07,-69.5276
2.277333333e+07,-67.012
2.314666667e+07,-65.7894
2.352000000e+07,-67.8804
2.389333333e+07,-74.7429
2.426666667e+07,-68.6667
2.464000000e+07,-62.4145
2.501333333e+07,-53.9361
2.538666667e+07,-70.1713
2.576000000e+07,-65.4427
2.613333333e+07,-63.2012
2.650666667e+07,-67.5916
2.688000000e+07,-76.4806
2.725333333e+07,-68.6933
2.762666667e+07,-69.0036
2.800000000e+07,-69.5727
2.837333333e+07,-73.8482
2.874666667e+07,-71.505
2.912000000e+07,-75.7786
2.949333333e+07,-73.0231
2.986666667e+07,-71.7967
3.024000000e+07,-72.19
3.061333333e+07,-71.126
3.098666667e+07,-78.3551
3.136000000e+07,-72.8195
3.173333333e+07,-69.3816
3.210666667e+07,-66.5451
3.248000000e+07,-66.2135
3.285333333e+07,-70.616
3.322666667e+07,-69.2303
3.360000000e+07,-71.0148
3.397333333e+07,-81.888
3.434666667e+07,-79.2688
3.472000000e+07,-72.4423
3.509333333e+07,-73.9516
3.546666667e+07,-76.1118
3.584000000e+07,-61.0738
3.621333333e+07,-61.7594
3.658666667e+07,-79.6665
3.696000000e+07,-77.0871
3.733333333e+07,-78.6129
3.770666667e+07,-70.1233
3.808000000e+07,-70.2448
3.845333333e+07,-76.5125
3.882666667e+07,-78.7089
3.920000000e+07,-73.4923
3.957333333e+07,-70.9709
3.994666667e+07,-80.8493
4.032000000e+07,-75.5677
4.069333333e+07,-73.6161
4.106666667e+07,-71.7437
4.144000000e+07,-70.5466
4.181333333e+07,-70.7378
4.218666667e+07,-83.8097
4.256000000e+07,-83.2603
4.293333333e+07,-81.4292
4.330666667e+07,-78.644
4.368000000e+07,-72.9417
4.405333333e+07,-75.4538
4.442666667e+07,-86.2395
4.480000000e+07,-74.3862
4.517333333e+07,-79.3343
4.554666667e+07,-82.798
4.592000000e+07,-76.1429
4.629333333e+07,-78.7537
4.666666667e+07,-72.7572
4.704000000e+07,-73.3978
4.741333333e+07,-72.5081
4.778666667e+07,-66.0412
4.816000000e+07,-65.0313
4.853333333e+07,-76.0455
4.890666667e+07,-77.2794
4.928000000e+07,-80.665
4.965333333e+07,-81.5401
5.002666667e+07,-79.21
5.040000000e+07,-77.3633
5.077333333e+07,-76.96
5.114666667e+07,-73.1507
5.152000000e+07,-81.2111
5.189333333e+07,-85.5428
5.226666667e+07,-82.3152
5.264000000e+07,-77.9496
5.301333333e+07,-77.904
5.338666667e+07,-76.4213
5.376000000e+07,-73.8449
5.413333333e+07,-71.8426
5.450666667e+07,-72.8584
5.488000000e+07,-71.9768
5.525333333e+07,-72.7688
5.562666667e+07,-71.0075
5.600000000e+07,-79.412
5.637333333e+07,-76.5274
5.674666667e+07,-83.7066
5.712000000e+07,-76.3871
5.749333333e+07,-74.6813
5.786666667e+07,-83.4351
5.824000000e+07,-75.6551
5.861333333e+07,-76.4285
5.898666667e+07,-76.0499
5.936000000e+07,-77.1175
5.973333333e+07,-37.5373
6.010666667e+07,-35.2142
6.048000000e+07,-53.3762
6.085333333e+07,-76.13
6.122666667e+07,-65.9235
6.160000000e+07,-67.9539
6.197333333e+07,-78.2349
6.234666667e+07,-79.045
6.272000000e+07,-75.2203
6.309333333e+07,-71.3229
6.346666667e+07,-71.4274
6.384000000e+07,-73.2775
6.421333333e+07,-72.1939
6.458666667e+07,-71.659
6.496000000e+07,-73.0064
6.533333333e+07,-71.0461
6.570666667e+07,-72.7774
6.608000000e+07,-71.237
6.645333333e+07,-70.8822
6.682666667e+07,-72.0711
6.720000000e+07,-76.809
6.757333333e+07,-69.9454
6.794666667e+07,-73.965
6.832000000e+07,-74.2754
6.869333333e+07,-73.925
6.906666667e+07,-75.3851
6.944000000e+07,-71.1551
6.981333333e+07,-70.6289
7.018666667e+07,-73.8927
7.056000000e+07,-75.1798
7.093333333e+07,-69.5829
7.130666667e+07,-65.0986
7.168000000e+07,-71.3765
7.205333333e+07,-64.9414
7.242666667e+07,-68.3541
7.280000000e+07,-67.7345
7.317333333e+07,-71.6209
7.354666667e+07,-75.1255
7.392000000e+07,-69.2365
7.429333333e+07,-68.5682
7.466666667e+07,-73.9967
7.504000000e+07,-73.0349
7.541333333e+07,-74.622
7.578666667e+07,-68.1576
7.616000000e+07,-72.8806
7.653333333e+07,-72.247
7.690666667e+07,-71.4036
7.728000000e+07,-76.4555
7.765333333e+07,-73.172
7.802666667e+07,-70.9566
7.840000000e+07,-71.2511
7.877333333e+07,-77.726
7.914666667e+07,-80.9174
7.952000000e+07,-68.1883
7.989333333e+07,-66.8764
8.026666667e+07,-79.8675
8.064000000e+07,-65.6583
8.101333333e+07,-67.467
8.138666667e+07,-74.4744
8.176000000e+07,-72.5748
8.213333333e+07,-70.8458
8.250666667e+07,-73.8617
8.288000000e+07,-64.8035
8.325333333e+07,-70.5261
8.362666667e+07,-65.047
8.400000000e+07,-54.4186
8.437333333e+07,-63.801
8.474666667e+07,-69.4261
8.512000000e+07,-71.2448
8.549333333e+07,-75.2219
8.586666667e+07,-72.3688
8.624000000e+07,-70.9359
8.661333333e+07,-69.4879
8.698666667e+07,-75.5547
8.736000000e+07,-71.0547
8.773333333e+07,-69.6246
8.810666667e+07,-72.3479
8.848000000e+07,-77.674
8.885333333e+07,-69.714
8.922666667e+07,-71.637
8.960000000e+07,-65.0861
8.997333333e+07,-55.1903
9.034666667e+07,-63.4483
9.072000000e+07,-76.648
9.109333333e+07,-81.1143
9.146666667e+07,-75.7121
9.184000000e+07,-74.5027
9.221333333e+07,-68.9825
9.258666667e+07,-68.4725
9.296000000e+07,-73.1753
9.333333333e+07,-76.2748
9.370666667e+07,-73.0283
9.408000000e+07,-70.6664
9.445333333e+07,-70.7571
9.482666667e+07,-70.9802
9.520000000e+07,-67.8981
9.557333333e+07,-70.0659
9.594666667e+07,-53.6292
9.632000000e+07,-54.7654
9.669333333e+07,-67.6923
9.706666667e+07,-68.7766
9.744000000e+07,-70.2386
9.781333333e+07,-69.165
9.818666667e+07,-76.6402
9.856000000e+07,-75.7326
9.893333333e+07,-75.2113
9.930666667e+07,-74.8174
9.968000000e+07,-71.414
1.000533333e+08,-72.4331
1.004266667e+08,-78.2652
1.008000000e+08,-68.9301
1.011733333e+08,-71.4836
1.015466667e+08,-73.8796
1.019200000e+08,-74.8816
1.022933333e+08,-75.6102
1.026666667e+08,-70.4181
1.030400000e+08,-69.9258
1.034133333e+08,-70.6611
1.037866667e+08,-72.9305
1.041600000e+08,-74.4638
1.045333333e+08,-70.7502
1.049066667e+08,-67.5405
1.052800000e+08,-66.4048
1.056533333e+08,-77.9366
1.060266667e+08,-76.8497
1.064000000e+08,-66.6913
1.067733333e+08,-67.2794
1.071466667e+08,-76.832
1.075200000e+08,-68.6339
1.078933333e+08,-53.2793
1.082666667e+08,-55.7905
1.086400000e+08,-69.8499
1.090133333e+08,-71.6054
1.093866667e+08,-75.7829
1.097600000e+08,-68.9979
1.101333333e+08,-71.4206
1.105066667e+08,-67.9984
1.108800000e+08,-71.6615
1.112533333e+08,-71.8574
1.116266667e+08,-69.5713
1.120000000e+08,-74.9146
1.123733333e+08,-71.7534
1.127466667e+08,-72.3256
1.131200000e+08,-71.9826
1.134933333e+08,-69.8677
1.138666667e+08,-69.3029
1.142400000e+08,-69.3097
1.146133333e+08,-74.2426
1.149866667e+08,-70.2779
1.153600000e+08,-72.9843
1.157333333e+08,-77.1573
1.161066667e+08,-72.7148
1.164800000e+08,-75.0095
1.168533333e+08,-77.4531
1.172266667e+08,-74.4218
1.176000000e+08,-74.3072
1.179733333e+08,-75.6718
1.183466667e+08,-72.5455
1.187200000e+08,-71.4175
1.190933333e+08,-66.9537
1.194666667e+08,-60.3222
1.198400000e+08,-38.0131
1.202133333e+08,-38.9942
1.205866667e+08,-74.7571
1.209600000e+08,-72.1185
1.213333333e+08,-70.6016
1.217066667e+08,-75.8789
1.220800000e+08,-77.8658
1.224533333e+08,-73.2396
1.228266667e+08,-75.259
1.232000000e+08,-71.2855
1.235733333e+08,-73.4666
1.239466667e+08,-76.3605
1.243200000e+08,-78.2018
1.246933333e+08,-69.7346
1.250666667e+08,-69.0257
1.254400000e+08,-77.8783
1.258133333e+08,-79.3021
1.261866667e+08,-75.1821
1.265600000e+08,-70.1849
1.269333333e+08,-69.9505
1.273066667e+08,-73.1114
1.276800000e+08,-70.7532
1.280533333e+08,-69.5254
1.284266667e+08,-70.7861
1.288000000e+08,-72.5205
1.291733333e+08,-76.0703
1.295466667e+08,-76.7705
1.299200000e+08,-71.9651
1.302933333e+08,-74.8997
1.306666667e+08,-70.7691
1.310400000e+08,-69.2376
1.314133333e+08,-71.2825
1.317866667e+08,-50.8239
1.321600000e+08,-50.269
1.325333333e+08,-77.5271
1.329066667e+08,-77.0036
1.332800000e+08,-70.9089
1.336533333e+08,-70.8871
1.340266667e+08,-80.7572
1.344000000e+08,-75.0688
1.347733333e+08,-85.3139
1.351466667e+08,-75.5594
1.355200000e+08,-74.8244
1.358933333e+08,-75.7992
1.362666667e+08,-70.3108
1.366400000e+08,-69.0491
1.370133333e+08,-71.1481
1.373866667e+08,-70.6492
1.377600000e+08,-69.6835
1.381333333e+08,-69.2979
1.385066667e+08,-71.2097
1.388800000e+08,-69.9223
1.392533333e+08,-74.6639
1.396266667e+08,-68.8189
1.400000000e+08,-71.3512
1.403733333e+08,-88.4324
1.407466667e+08,-70.0617
1.411200000e+08,-66.5249
1.414933333e+08,-70.1105
1.418666667e+08,-72.3719
1.422400000e+08,-73.6767
1.426133333e+08,-70.8757
1.429866667e+08,-66.101
1.433600000e+08,-68.6301
1.437333333e+08,-66.3999
1.441066667e+08,-55.507
1.444800000e+08,-59.637
1.448533333e+08,-71.0545
1.452266667e+08,-70.1597
1.456000000e+08,-69.3672
1.459733333e+08,-69.6387
1.463466667e+08,-72.6836
1.467200000e+08,-69.3989
1.470933333e+08,-69.6145
1.474666667e+08,-71.7288
1.478400000e+08,-73.5259
1.482133333e+08,-69.1923
1.485866667e+08,-69.7512
1.489600000e+08,-71.122
1.493333333e+08,-71.4566
1.497066667e+08,-70.9752
1.500800000e+08,-73.8317
1.504533333e+08,-73.2417
1.508266667e+08,-75.5413
1.512000000e+08,-80.2821
1.515733333e+08,-68.0885
1.519466667e+08,-68.1906
1.523200000e+08,-65.9164
1.526933333e+08,-63.9108
1.530666667e+08,-67.6048
1.534400000e+08,-65.927
1.538133333e+08,-69.6598
1.541866667e+08,-67.6267
1.545600000e+08,-67.767
1.549333333e+08,-70.9165
1.553066667e+08,-70.9225
1.556800000e+08,-55.5444
1.560533333e+08,-50.3286
1.564266667e+08,-61.447
1.568000000e+08,-68.5568
1.571733333e+08,-65.156
1.575466667e+08,-72.3358
1.579200000e+08,-66.1779
1.582933333e+08,-68.9568
1.586666667e+08,-72.7985
1.590400000e+08,-65.333
1.594133333e+08,-66.5239
1.597866667e+08,-73.2798
1.601600000e+08,-73.2039
1.605333333e+08,-72.8502
1.609066667e+08,-76.8276
1.612800000e+08,-73.7319
1.616533333e+08,-70.6194
1.620266667e+08,-71.4791
1.624000000e+08,-71.6108
1.627733333e+08,-75.042
1.631466667e+08,-69.1119
1.635200000e+08,-69.205
1.638933333e+08,-64.035
1.642666667e+08,-64.0152
1.646400000e+08,-69.0139
1.650133333e+08,-70.0241
1.653866667e+08,-78.3709
1.657600000e+08,-71.8536
1.661333333e+08,-70.4635
1.665066667e+08,-71.9453
1.668800000e+08,-80.5266
1.672533333e+08,-72.434
1.676266667e+08,-72.1583
1.680000000e+08,-69.8872
1.683733333e+08,-69.1929
1.687466667e+08,-69.1114
1.691200000e+08,-69.9685
1.694933333e+08,-63.3071
1.698666667e+08,-64.9918
1.702400000e+08,-66.6777
1.706133333e+08,-67.7285
1.709866667e+08,-73.0285
1.713600000e+08,-70.3531
1.717333333e+08,-72.4724
1.721066667e+08,-74.7289
1.724800000e+08,-72.9631
1.728533333e+08,-75.6408
1.732266667e+08,-76.5334
1.736000000e+08,-69.0003
1.739733333e+08,-73.0266
1.743466667e+08,-66.1922
1.747200000e+08,-72.4777
1.750933333e+08,-72.4831
1.754666667e+08,-79.1171
1.758400000e+08,-74.1742
1.762133333e+08,-70.0936
1.765866667e+08,-71.4643
1.769600000e+08,-70.4718
1.773333333e+08,-68.1664
1.777066667e+08,-71.1263
1.780800000e+08,-70.5065
1.784533333e+08,-76.8331
1.788266667e+08,-75.8152
1.792000000e+08,-77.3027
1.795733333e+08,-58.3959
1.799466667e+08,-44.78
1.803200000e+08,-50.2949
1.806933333e+08,-71.1684
1.810666667e+08,-68.9127
1.814400000e+08,-77.66
1.818133333e+08,-74.6395
1.821866667e+08,-72.4635
1.825600000e+08,-74.5364
1.829333333e+08,-68.3278
1.833066667e+08,-66.9348
1.836800000e+08,-69.8701
1.840533333e+08,-67.432
1.844266667e+08,-69.7736
1.848000000e+08,-73.062
1.851733333e+08,-77.4861
1.855466667e+08,-68.0242
1.859200000e+08,-68.7635
1.862933333e+08,-69.7242
1.866666667e+08,-71.2655
1.870400000e+08,-73.4733
1.874133333e+08,-66.9327
1.877866667e+08,-70.5367
1.881600000e+08,-70.8359
1.885333333e+08,-73.1128
1.889066667e+08,-72.2509
1.892800000e+08,-79.5651
1.896533333e+08,-78.1212
1.900266667e+08,-78.3208
1.904000000e+08,-69.6842
1.907733333e+08,-68.831
1.911466667e+08,-66.6923
1.915200000e+08,-63.2607
1.918933333e+08,-54.9769
1.922666667e+08,-52.8022
1.926400000e+08,-72.8098
1.930133333e+08,-70.9051
1.933866667e+08,-68.4372
1.937600000e+08,-60.6892
1.941333333e+08,-60.5871
1.945066667e+08,-71.9664
1.948800000e+08,-72.8648
1.952533333e+08,-77.7225
1.956266667e+08,-69.6774
1.960000000e+08,-70.1889
1.963733333e+08,-70.4061
1.967466667e+08,-74.2671
1.971200000e+08,-71.1638
1.974933333e+08,-73.3845
1.978666667e+08,-69.3275
1.982400000e+08,-71.4314
1.986133333e+08,-69.2578
1.989866667e+08,-76.5074
1.993600000e+08,-76.7897
1.997333333e+08,-70.8447
2.001066667e+08,-68.4227
2.004800000e+08,-73.1188
2.008533333e+08,-75.8453
2.012266667e+08,-74.7441
2.016000000e+08,-73.1603
2.019733333e+08,-72.9576
2.023466667e+08,-72.207
2.027200000e+08,-70.9699
2.030933333e+08,-70.0061
2.034666667e+08,-69.3505
2.038400000e+08,-49.2895
2.042133333e+08,-49.8871
2.045866667e+08,-68.0379
2.049600000e+08,-72.0564
2.053333333e+08,-75.9216
2.057066667e+08,-68.7966
2.060800000e+08,-67.9764
2.064533333e+08,-67.9061
2.068266667e+08,-70.9865
2.072000000e+08,-80.5533
2.075733333e+08,-74.0981
2.079466667e+08,-66.112
2.083200000e+08,-67.0358
2.086933333e+08,-72.0806
2.090666667e+08,-67.4679
2.094400000e+08,-65.8723
2.098133333e+08,-65.2589
2.101866667e+08,-69.6041
2.105600000e+08,-75.1627
2.109333333e+08,-68.9422
2.113066667e+08,-70.0483
2.116800000e+08,-67.2607
2.120533333e+08,-67.607
2.124266667e+08,-64.9165
2.128000000e+08,-69.3009
2.131733333e+08,-76.3168
2.135466667e+08,-68.1576
2.139200000e+08,-64.5709
2.142933333e+08,-65.2066
2.146666667e+08,-73.036
2.150400000e+08,-72.5882
2.154133333e+08,-65.3026
2.157866667e+08,-66.8769
2.161600000e+08,-65.1434
2.165333333e+08,-67.0097
2.169066667e+08,-68.2086
2.172800000e+08,-66.9019
2.176533333e+08,-65.4706
2.180266667e+08,-71.9525
2.184000000e+08,-75.2776
2.187733333e+08,-66.1704
2.191466667e+08,-66.3236
2.195200000e+08,-67.8343
2.198933333e+08,-76.3579
2.202666667e+08,-76.6508
2.206400000e+08,-66.8397
2.210133333e+08,-68.1268
2.213866667e+08,-70.7814
2.217600000e+08,-68.4805
2.221333333e+08,-67.2429
2.225066667e+08,-67.206
2.228800000e+08,-71.3903
2.232533333e+08,-67.49
2.236266667e+08,-66.5048
2.240000000e+08,-68.0431
2.243733333e+08,-68.8676
2.247466667e+08,-65.4597
2.251200000e+08,-63.7744
2.254933333e+08,-68.352
2.258666667e+08,-67.1739
2.262400000e+08,-68.5598
2.266133333e+08,-70.1882
2.269866667e+08,-70.5571
2.273600000e+08,-73.9445
2.277333333e+08,-50.5007
2.281066667e+08,-48.2179
2.284800000e+08,-63.4515
2.288533333e+08,-71.5857
2.292266667e+08,-72.9145
2.296000000e+08,-75.2518
2.299733333e+08,-70.2817
2.303466667e+08,-70.4903
2.307200000e+08,-76.502
2.310933333e+08,-65.4194
2.314666667e+08,-66.0665
2.318400000e+08,-68.9968
2.322133333e+08,-69.0101
2.325866667e+08,-72.4976
2.329600000e+08,-69.3163
2.333333333e+08,-72.4964
2.337066667e+08,-72.2225
2.340800000e+08,-77.5293
2.344533333e+08,-69.4417
2.348266667e+08,-75.782
2.352000000e+08,-82.3357
2.355733333e+08,-75.5029
2.359466667e+08,-71.6427
2.363200000e+08,-77.0763
2.366933333e+08,-79.7768
2.370666667e+08,-73.5076
2.374400000e+08,-72.0377
2.378133333e+08,-73.5236
2.381866667e+08,-72.4255
2.385600000e+08,-71.9537
2.389333333e+08,-69.0765
2.393066667e+08,-68.8792
2.396800000e+08,-49.0046
2.400533333e+08,-43.1489
2.404266667e+08,-46.8962
2.408000000e+08,-76.2292
2.411733333e+08,-78.419
2.415466667e+08,-72.4507
2.419200000e+08,-73.3473
2.422933333e+08,-75.178
2.426666667e+08,-70.9922
2.430400000e+08,-70.6942
2.434133333e+08,-80.2637
2.437866667e+08,-73.8324
2.441600000e+08,-72.6321
2.445333333e+08,-71.4277
2.449066667e+08,-79.6804
2.452800000e+08,-76.8159
2.456533333e+08,-75.0192
2.460266667e+08,-73.7807
2.464000000e+08,-75.8534
2.467733333e+08,-75.6755
2.471466667e+08,-71.1787
2.475200000e+08,-71.2099
2.478933333e+08,-72.9201
2.482666667e+08,-73.4584
2.486400000e+08,-74.6534
2.490133333e+08,-73.7874
2.493866667e+08,-74.5437
2.497600000e+08,-69.0509
2.501333333e+08,-69.5378
2.505066667e+08,-78.1088
2.508800000e+08,-82.1113
2.512533333e+08,-70.3593
2.516266667e+08,-57.1883
2.520000000e+08,-48.1216
2.523733333e+08,-55.5665
2.527466667e+08,-68.1832
2.531200000e+08,-76.6847
2.534933333e+08,-78.4635
2.538666667e+08,-71.0709
2.542400000e+08,-71.4149
2.546133333e+08,-78.0122
2.549866667e+08,-74.9375
2.553600000e+08,-74.74
2.557333333e+08,-75.3433
2.561066667e+08,-70.8461
2.564800000e+08,-71.9188
2.568533333e+08,-77.6289
2.572266667e+08,-76.1773
2.576000000e+08,-75.2352
2.579733333e+08,-70.4638
2.583466667e+08,-70.0227
2.587200000e+08,-71.2999
2.590933333e+08,-72.5173
2.594666667e+08,-71.6174
2.598400000e+08,-70.2572
2.602133333e+08,-76.6257
2.605866667e+08,-76.2238
2.609600000e+08,-72.6614
2.613333333e+08,-73.7518
2.617066667e+08,-76.0612
2.620800000e+08,-76.7241
2.624533333e+08,-76.033
2.628266667e+08,-81.7538
2.632000000e+08,-69.4931
2.635733333e+08,-69.0255
2.639466667e+08,-57.3861
2.643200000e+08,-55.2184
2.646933333e+08,-65.7865
2.650666667e+08,-73.4375
2.654400000e+08,-72.8792
2.658133333e+08,-68.7295
2.661866667e+08,-66.5509
2.665600000e+08,-69.7969
2.669333333e+08,-70.0492
2.673066667e+08,-71.3514
2.676800000e+08,-70.552
2.680533333e+08,-69.6227
2.684266667e+08,-72.8545
2.688000000e+08,-73.6698
2.691733333e+08,-76.8357
2.695466667e+08,-72.035
2.699200000e+08,-57.2166
2.702933333e+08,-60.9024
2.706666667e+08,-77.9974
2.710400000e+08,-68.2851
2.714133333e+08,-68.3793
2.717866667e+08,-69.2123
2.721600000e+08,-70.9438
2.725333333e+08,-70.9967
2.729066667e+08,-70.6594
2.732800000e+08,-75.677
2.736533333e+08,-71.8189
2.740266667e+08,-79.6445
2.744000000e+08,-80.1258
2.747733333e+08,-69.9208
2.751466667e+08,-70.6288
2.755200000e+08,-70.6931
2.758933333e+08,-47.3737
2.762666667e+08,-49.6614
2.766400000e+08,-67.8581
2.770133333e+08,-72.772
2.773866667e+08,-72.6274
2.777600000e+08,-71.1989
2.781333333e+08,-69.2166
2.785066667e+08,-73.1757
2.788800000e+08,-76.0316
2.792533333e+08,-71.4348
2.796266667e+08,-67.6422
2.800000000e+08,-65.6959

