63pt74/tek0003NRM.csv

Model,MDO3104
Firmware Version,1.30

Waveform Type,RF_FD
Point Format,Y
Horizontal Units,Hz
Horizontal Scale,2.8e+07
,
Sample Interval,373333
Record Length,751
Gating,0.133155792277% to 100.0%
Probe Attenuation,1
Vertical Units,dBm
Vertical Offset,0
Vertical Scale,10
Vertical Position,0
Center Frequency,1.4e+08
Span,2.8e+08
Reference Level,-15
Label,
FREQUENCY,FD NORM
0.000000000e+00,-65.7211
3.733333333e+05,-75.1127
7.466666667e+05,-79.1377
1.120000000e+06,-76.5359
1.493333333e+06,-73.4461
1.866666667e+06,-72.9232
2.240000000e+06,-72.23
2.613333333e+06,-71.638
2.986666667e+06,-67.666
3.360000000e+06,-59.0206
3.733333333e+06,-59.0059
4.106666667e+06,-66.539
4.480000000e+06,-66.0331
4.853333333e+06,-69.9867
5.226666667e+06,-64.1523
5.600000000e+06,-67.0062
5.973333333e+06,-68.3363
6.346666667e+06,-72.1493
6.720000000e+06,-69.7677
7.093333333e+06,-69.0304
7.466666667e+06,-70.3356
7.840000000e+06,-68.9297
8.213333333e+06,-67.6958
8.586666667e+06,-73.0542
8.960000000e+06,-66.7166
9.333333333e+06,-69.9155
9.706666667e+06,-75.8535
1.008000000e+07,-74.8897
1.045333333e+07,-69.4031
1.082666667e+07,-68.2666
1.120000000e+07,-69.0392
1.157333333e+07,-68.8236
1.194666667e+07,-59.3954
1.232000000e+07,-62.1306
1.269333333e+07,-63.7373
1.306666667e+07,-66.6766
1.344000000e+07,-68.0528
1.381333333e+07,-65.9868
1.418666667e+07,-71.2278
1.456000000e+07,-69.1334
1.493333333e+07,-69.7151
1.530666667e+07,-68.0179
1.568000000e+07,-78.2833
1.605333333e+07,-69.3855
1.642666667e+07,-65.9391
1.680000000e+07,-66.4627
1.717333333e+07,-74.9122
1.754666667e+07,-72.0403
1.792000000e+07,-56.3015
1.829333333e+07,-60.5662
1.866666667e+07,-73.5603
1.904000000e+07,-66.1086
1.941333333e+07,-64.7185
1.978666667e+07,-65.4725
2.016000000e+07,-64.8457
2.053333333e+07,-69.8995
2.090666667e+07,-72.3973
2.128000000e+07,-70.3918
2.165333333e+07,-62.9047
2.202666667e+07,-61.4657
2.240000000e+07,-67.7506
2.277333333e+07,-68.29
2.314666667e+07,-65.243
2.352000000e+07,-72.5359
2.389333333e+07,-64.9158
2.426666667e+07,-66.722
2.464000000e+07,-61.3441
2.501333333e+07,-53.8265
2.538666667e+07,-58.3285
2.576000000e+07,-70.8975
2.613333333e+07,-65.2507
2.650666667e+07,-69.5167
2.688000000e+07,-64.7535
2.725333333e+07,-59.1402
2.762666667e+07,-61.1965
2.800000000e+07,-70.3062
2.837333333e+07,-75.4183
2.874666667e+07,-79.0074
2.912000000e+07,-74.5462
2.949333333e+07,-69.3401
2.986666667e+07,-49.072
3.024000000e+07,-50.5465
3.061333333e+07,-75.411
3.098666667e+07,-74.3908
3.136000000e+07,-71.8544
3.173333333e+07,-75.6991
3.210666667e+07,-72.3812
3.248000000e+07,-60.259
3.285333333e+07,-59.4623
3.322666667e+07,-73.1933
3.360000000e+07,-73.4926
3.397333333e+07,-73.1472
3.434666667e+07,-81.2953
3.472000000e+07,-74.5396
3.509333333e+07,-62.1962
3.546666667e+07,-57.975
3.584000000e+07,-50.1822
3.621333333e+07,-50.8664
3.658666667e+07,-73.6976
3.696000000e+07,-74.8851
3.733333333e+07,-74.4865
3.770666667e+07,-67.7482
3.808000000e+07,-60.6481
3.845333333e+07,-65.688
3.882666667e+07,-66.9644
3.920000000e+07,-77.3262
3.957333333e+07,-79.1864
3.994666667e+07,-67.6027
4.032000000e+07,-66.649
4.069333333e+07,-59.2291
4.106666667e+07,-63.5139
4.144000000e+07,-66.563
4.181333333e+07,-55.2122
4.218666667e+07,-54.5726
4.256000000e+07,-68.6948
4.293333333e+07,-69.0113
4.330666667e+07,-59.8947
4.368000000e+07,-61.0737
4.405333333e+07,-62.1683
4.442666667e+07,-68.6505
4.480000000e+07,-70.6266
4.517333333e+07,-73.9142
4.554666667e+07,-68.7391
4.592000000e+07,-60.0404
4.629333333e+07,-58.5295
4.666666667e+07,-58.9203
4.704000000e+07,-65.9906
4.741333333e+07,-66.8511
4.778666667e+07,-38.4494
4.816000000e+07,-37.7565
4.853333333e+07,-65.3298
4.890666667e+07,-64.0538
4.928000000e+07,-58.5078
4.965333333e+07,-66.6139
5.002666667e+07,-69.8924
5.040000000e+07,-72.3266
5.077333333e+07,-69.4363
5.114666667e+07,-69.8817
5.152000000e+07,-61.5778
5.189333333e+07,-54.9306
5.226666667e+07,-59.1396
5.264000000e+07,-66.3809
5.301333333e+07,-71.2125
5.338666667e+07,-78.2612
5.376000000e+07,-51.1256
5.413333333e+07,-49.2637
5.450666667e+07,-57.1945
5.488000000e+07,-59.7345
5.525333333e+07,-72.8115
5.562666667e+07,-73.0256
5.600000000e+07,-69.2696
5.637333333e+07,-68.7292
5.674666667e+07,-77.6192
5.712000000e+07,-52.8134
5.749333333e+07,-52.8921
5.786666667e+07,-73.1963
5.824000000e+07,-72.4884
5.861333333e+07,-72.4243
5.898666667e+07,-73.5417
5.936000000e+07,-70.4381
5.973333333e+07,-38.7457
6.010666667e+07,-36.3536
6.048000000e+07,-53.29
6.085333333e+07,-70.2966
6.122666667e+07,-70.2012
6.160000000e+07,-71.4297
6.197333333e+07,-72.8019
6.234666667e+07,-58.148
6.272000000e+07,-52.4913
6.309333333e+07,-62.3911
6.346666667e+07,-71.0021
6.384000000e+07,-76.0872
6.421333333e+07,-74.5184
6.458666667e+07,-69.4728
6.496000000e+07,-66.3163
6.533333333e+07,-55.2889
6.570666667e+07,-50.487
6.608000000e+07,-46.5172
6.645333333e+07,-63.5682
6.682666667e+07,-68.1089
6.720000000e+07,-69.3015
6.757333333e+07,-66.3527
6.794666667e+07,-55.8488
6.832000000e+07,-57.204
6.869333333e+07,-69.2857
6.906666667e+07,-69.308
6.944000000e+07,-69.1957
6.981333333e+07,-72.7396
7.018666667e+07,-67.0434
7.056000000e+07,-56.068
7.093333333e+07,-55.4091
7.130666667e+07,-59.5376
7.168000000e+07,-46.9804
7.205333333e+07,-41.1513
7.242666667e+07,-53.0487
7.280000000e+07,-71.7448
7.317333333e+07,-61.2245
7.354666667e+07,-58.4323
7.392000000e+07,-58.7731
7.429333333e+07,-62.6117
7.466666667e+07,-72.1026
7.504000000e+07,-65.7314
7.541333333e+07,-66.1718
7.578666667e+07,-60.4541
7.616000000e+07,-56.6247
7.653333333e+07,-57.8223
7.690666667e+07,-62.992
7.728000000e+07,-69.7239
7.765333333e+07,-54.1908
7.802666667e+07,-48.3519
7.840000000e+07,-59.2287
7.877333333e+07,-62.7314
7.914666667e+07,-55.0719
7.952000000e+07,-57.6551
7.989333333e+07,-69.9283
8.026666667e+07,-71.4644
8.064000000e+07,-69.4911
8.101333333e+07,-66.6681
8.138666667e+07,-62.4853
8.176000000e+07,-55.5374
8.213333333e+07,-56.528
8.250666667e+07,-67.2114
8.288000000e+07,-68.3655
8.325333333e+07,-72.8282
8.362666667e+07,-51.4119
8.400000000e+07,-42.8203
8.437333333e+07,-49.4651
8.474666667e+07,-53.1188
8.512000000e+07,-68.2195
8.549333333e+07,-71.622
8.586666667e+07,-71.4996
8.624000000e+07,-80.3194
8.661333333e+07,-77.4722
8.698666667e+07,-58.6601
8.736000000e+07,-53.3821
8.773333333e+07,-64.7623
8.810666667e+07,-70.676
8.848000000e+07,-73.3884
8.885333333e+07,-70.5889
8.922666667e+07,-72.2975
8.960000000e+07,-67.575
8.997333333e+07,-60.9555
9.034666667e+07,-67.5467
9.072000000e+07,-74.9161
9.109333333e+07,-73.5742
9.146666667e+07,-75.2416
9.184000000e+07,-70.6531
9.221333333e+07,-69.5709
9.258666667e+07,-52.923
9.296000000e+07,-55.1344
9.333333333e+07,-78.7848
9.370666667e+07,-72.1275
9.408000000e+07,-66.8
9.445333333e+07,-68.3229
9.482666667e+07,-67.8798
9.520000000e+07,-52.6812
9.557333333e+07,-52.6285
9.594666667e+07,-44.0149
9.632000000e+07,-47.3592
9.669333333e+07,-65.1322
9.706666667e+07,-65.6389
9.744000000e+07,-69.9434
9.781333333e+07,-56.0549
9.818666667e+07,-54.0977
9.856000000e+07,-63.5584
9.893333333e+07,-66.9939
9.930666667e+07,-67.653
9.968000000e+07,-65.1624
1.000533333e+08,-64.1962
1.004266667e+08,-57.5048
1.008000000e+08,-52.9167
1.011733333e+08,-57.4729
1.015466667e+08,-65.0163
1.019200000e+08,-56.998
1.022933333e+08,-60.2514
1.026666667e+08,-65.3595
1.030400000e+08,-59.737
1.034133333e+08,-55.2998
1.037866667e+08,-59.4905
1.041600000e+08,-64.2492
1.045333333e+08,-64.8911
1.049066667e+08,-64.5495
1.052800000e+08,-64.114
1.056533333e+08,-62.5267
1.060266667e+08,-55.4446
1.064000000e+08,-52.9495
1.067733333e+08,-54.2069
1.071466667e+08,-61.5451
1.075200000e+08,-68.8632
1.078933333e+08,-50.4574
1.082666667e+08,-52.944
1.086400000e+08,-59.9524
1.090133333e+08,-55.0943
1.093866667e+08,-53.9444
1.097600000e+08,-63.8914
1.101333333e+08,-72.0705
1.105066667e+08,-72.9745
1.108800000e+08,-64.866
1.112533333e+08,-61.6248
1.116266667e+08,-53.9395
1.120000000e+08,-50.2864
1.123733333e+08,-60.3158
1.127466667e+08,-65.9895
1.131200000e+08,-68.1081
1.134933333e+08,-67.8098
1.138666667e+08,-57.4094
1.142400000e+08,-58.9216
1.146133333e+08,-52.9363
1.149866667e+08,-60.2438
1.153600000e+08,-71.0811
1.157333333e+08,-80.3449
1.161066667e+08,-75.2784
1.164800000e+08,-71.2293
1.168533333e+08,-64.6112
1.172266667e+08,-50.4126
1.176000000e+08,-53.8705
1.179733333e+08,-69.4211
1.183466667e+08,-72.7949
1.187200000e+08,-71.9884
1.190933333e+08,-72.0689
1.194666667e+08,-65.3101
1.198400000e+08,-35.0677
1.202133333e+08,-35.7835
1.205866667e+08,-67.5651
1.209600000e+08,-67.6356
1.213333333e+08,-69.0859
1.217066667e+08,-70.7851
1.220800000e+08,-67.8401
1.224533333e+08,-50.4915
1.228266667e+08,-48.7192
1.232000000e+08,-64.663
1.235733333e+08,-74.8116
1.239466667e+08,-74.4605
1.243200000e+08,-73.9862
1.246933333e+08,-68.6721
1.250666667e+08,-55.4949
1.254400000e+08,-51.1226
1.258133333e+08,-56.9161
1.261866667e+08,-55.9417
1.265600000e+08,-73.491
1.269333333e+08,-70.5681
1.273066667e+08,-63.9119
1.276800000e+08,-58.853
1.280533333e+08,-49.6855
1.284266667e+08,-55.719
1.288000000e+08,-60.0722
1.291733333e+08,-62.8437
1.295466667e+08,-65.3669
1.299200000e+08,-67.6674
1.302933333e+08,-62.0162
1.306666667e+08,-52.3311
1.310400000e+08,-54.4504
1.314133333e+08,-60.6925
1.317866667e+08,-47.3134
1.321600000e+08,-46.5159
1.325333333e+08,-66.6702
1.329066667e+08,-62.8495
1.332800000e+08,-51.4169
1.336533333e+08,-51.7117
1.340266667e+08,-52.8379
1.344000000e+08,-59.5446
1.347733333e+08,-61.2645
1.351466667e+08,-62.3681
1.355200000e+08,-65.9982
1.358933333e+08,-57.9634
1.362666667e+08,-55.8455
1.366400000e+08,-53.9166
1.370133333e+08,-62.2832
1.373866667e+08,-70.5973
1.377600000e+08,-62.8774
1.381333333e+08,-60.2628
1.385066667e+08,-60.7915
1.388800000e+08,-55.6926
1.392533333e+08,-50.7789
1.396266667e+08,-60.9037
1.400000000e+08,-61.7541
1.403733333e+08,-60.7511
1.407466667e+08,-64.8472
1.411200000e+08,-63.9274
1.414933333e+08,-61.1472
1.418666667e+08,-52.1709
1.422400000e+08,-55.4808
1.426133333e+08,-68.1685
1.429866667e+08,-69.4092
1.433600000e+08,-69.8491
1.437333333e+08,-49.9087
1.441066667e+08,-46.8298
1.444800000e+08,-48.5765
1.448533333e+08,-49.9474
1.452266667e+08,-65.7197
1.456000000e+08,-67.8709
1.459733333e+08,-66.3044
1.463466667e+08,-63.1881
1.467200000e+08,-67.7705
1.470933333e+08,-51.5806
1.474666667e+08,-51.0719
1.478400000e+08,-80.2565
1.482133333e+08,-80.691
1.485866667e+08,-71.3808
1.489600000e+08,-73.8874
1.493333333e+08,-80.2519
1.497066667e+08,-48.8179
1.500800000e+08,-45.6508
1.504533333e+08,-59.9205
1.508266667e+08,-67.7274
1.512000000e+08,-71.2415
1.515733333e+08,-68.6776
1.519466667e+08,-66.71
1.523200000e+08,-58.4483
1.526933333e+08,-50.9808
1.530666667e+08,-59.2285
1.534400000e+08,-72.2163
1.538133333e+08,-71.5022
1.541866667e+08,-68.2566
1.545600000e+08,-66.0686
1.549333333e+08,-59.2399
1.553066667e+08,-47.6003
1.556800000e+08,-45.4141
1.560533333e+08,-40.8104
1.564266667e+08,-54.0425
1.568000000e+08,-66.3567
1.571733333e+08,-71.1646
1.575466667e+08,-70.0879
1.579200000e+08,-51.439
1.582933333e+08,-52.1044
1.586666667e+08,-63.1604
1.590400000e+08,-69.0064
1.594133333e+08,-66.9773
1.597866667e+08,-62.4041
1.601600000e+08,-61.2078
1.605333333e+08,-51.2103
1.609066667e+08,-49.6582
1.612800000e+08,-54.6596
1.616533333e+08,-58.9876
1.620266667e+08,-57.7375
1.624000000e+08,-65.5889
1.627733333e+08,-63.1866
1.631466667e+08,-57.2463
1.635200000e+08,-53.1897
1.638933333e+08,-54.8783
1.642666667e+08,-63.8557
1.646400000e+08,-63.3725
1.650133333e+08,-64.5603
1.653866667e+08,-66.6815
1.657600000e+08,-57.5244
1.661333333e+08,-52.6626
1.665066667e+08,-49.7802
1.668800000e+08,-54.3943
1.672533333e+08,-63.4596
1.676266667e+08,-58.513
1.680000000e+08,-46.2001
1.683733333e+08,-51.5741
1.687466667e+08,-57.5305
1.691200000e+08,-53.0537
1.694933333e+08,-54.5945
1.698666667e+08,-63.5063
1.702400000e+08,-64.0367
1.706133333e+08,-65.9194
1.709866667e+08,-63.1863
1.713600000e+08,-59.7098
1.717333333e+08,-48.4774
1.721066667e+08,-48.6197
1.724800000e+08,-61.8328
1.728533333e+08,-70.4613
1.732266667e+08,-66.1963
1.736000000e+08,-63.1123
1.739733333e+08,-62.9432
1.743466667e+08,-54.244
1.747200000e+08,-51.7349
1.750933333e+08,-63.4268
1.754666667e+08,-65.2846
1.758400000e+08,-70.8614
1.762133333e+08,-72.2872
1.765866667e+08,-68.47
1.769600000e+08,-53.7636
1.773333333e+08,-46.6646
1.777066667e+08,-54.6862
1.780800000e+08,-68.211
1.784533333e+08,-66.2846
1.788266667e+08,-65.7924
1.792000000e+08,-67.2741
1.795733333e+08,-50.1604
1.799466667e+08,-36.8442
1.803200000e+08,-41.7603
1.806933333e+08,-81.0747
1.810666667e+08,-71.1858
1.814400000e+08,-70.8966
1.818133333e+08,-77.3033
1.821866667e+08,-63.0516
1.825600000e+08,-46.5438
1.829333333e+08,-48.2066
1.833066667e+08,-66.4477
1.836800000e+08,-69.2427
1.840533333e+08,-63.2945
1.844266667e+08,-63.6883
1.848000000e+08,-65.5042
1.851733333e+08,-52.2903
1.855466667e+08,-51.6018
1.859200000e+08,-59.0661
1.862933333e+08,-60.96
1.866666667e+08,-67.0481
1.870400000e+08,-68.8521
1.874133333e+08,-65.1114
1.877866667e+08,-50.6769
1.881600000e+08,-47.9624
1.885333333e+08,-56.5308
1.889066667e+08,-60.1266
1.892800000e+08,-65.068
1.896533333e+08,-64.0832
1.900266667e+08,-58.9855
1.904000000e+08,-56.8066
1.907733333e+08,-52.0994
1.911466667e+08,-57.4007
1.915200000e+08,-59.6928
1.918933333e+08,-44.5307
1.922666667e+08,-45.1094
1.926400000e+08,-63.9274
1.930133333e+08,-59.2877
1.933866667e+08,-49.586
1.937600000e+08,-49.7484
1.941333333e+08,-51.7628
1.945066667e+08,-62.4376
1.948800000e+08,-62.0245
1.952533333e+08,-61.872
1.956266667e+08,-61.1769
1.960000000e+08,-56.2735
1.963733333e+08,-54.1848
1.967466667e+08,-54.4608
1.971200000e+08,-64.5988
1.974933333e+08,-66.716
1.978666667e+08,-65.2919
1.982400000e+08,-61.5534
1.986133333e+08,-55.5
1.989866667e+08,-50.0749
1.993600000e+08,-48.584
1.997333333e+08,-58.0473
2.001066667e+08,-64.7578
2.004800000e+08,-65.0831
2.008533333e+08,-63.9437
2.012266667e+08,-63.7154
2.016000000e+08,-59.2509
2.019733333e+08,-54.2771
2.023466667e+08,-64.5246
2.027200000e+08,-62.9226
2.030933333e+08,-64.5278
2.034666667e+08,-63.9403
2.038400000e+08,-50.0536
2.042133333e+08,-50.1995
2.045866667e+08,-46.7665
2.049600000e+08,-52.8071
2.053333333e+08,-61.3556
2.057066667e+08,-61.8783
2.060800000e+08,-68.7689
2.064533333e+08,-69.1552
2.068266667e+08,-62.8307
2.072000000e+08,-51.3917
2.075733333e+08,-53.3085
2.079466667e+08,-66.383
2.083200000e+08,-66.9682
2.086933333e+08,-64.7307
2.090666667e+08,-70.4578
2.094400000e+08,-62.1005
2.098133333e+08,-46.7216
2.101866667e+08,-47.009
2.105600000e+08,-66.3195
2.109333333e+08,-67.4419
2.113066667e+08,-64.043
2.116800000e+08,-66.1127
2.120533333e+08,-62.4762
2.124266667e+08,-52.3922
2.128000000e+08,-50.3086
2.131733333e+08,-59.4096
2.135466667e+08,-61.3167
2.139200000e+08,-62.3839
2.142933333e+08,-60.1809
2.146666667e+08,-62.0225
2.150400000e+08,-52.5116
2.154133333e+08,-47.0888
2.157866667e+08,-48.6732
2.161600000e+08,-46.8335
2.165333333e+08,-60.7216
2.169066667e+08,-60.9675
2.172800000e+08,-62.8193
2.176533333e+08,-59.938
2.180266667e+08,-51.7151
2.184000000e+08,-57.0292
2.187733333e+08,-61.2637
2.191466667e+08,-59.9281
2.195200000e+08,-61.7888
2.198933333e+08,-62.3024
2.202666667e+08,-60.2136
2.206400000e+08,-48.3588
2.210133333e+08,-50.3241
2.213866667e+08,-53.4818
2.217600000e+08,-61.4593
2.221333333e+08,-60.4622
2.225066667e+08,-62.1056
2.228800000e+08,-61.959
2.232533333e+08,-55.3827
2.236266667e+08,-54.7649
2.240000000e+08,-58.5552
2.243733333e+08,-62.0726
2.247466667e+08,-63.1133
2.251200000e+08,-63.4649
2.254933333e+08,-61.5852
2.258666667e+08,-55.3909
2.262400000e+08,-52.3505
2.266133333e+08,-48.3918
2.269866667e+08,-56.5691
2.273600000e+08,-62.2377
2.277333333e+08,-52.8749
2.281066667e+08,-50.1057
2.284800000e+08,-62.1594
2.288533333e+08,-58.4472
2.292266667e+08,-55.0969
2.296000000e+08,-62.4939
2.299733333e+08,-66.0774
2.303466667e+08,-65.1247
2.307200000e+08,-60.9064
2.310933333e+08,-60.186
2.314666667e+08,-56.0864
2.318400000e+08,-46.7308
2.322133333e+08,-49.8767
2.325866667e+08,-61.5833
2.329600000e+08,-68.6955
2.333333333e+08,-65.6042
2.337066667e+08,-68.874
2.340800000e+08,-63.4382
2.344533333e+08,-53.3887
2.348266667e+08,-54.0367
2.352000000e+08,-69.9721
2.355733333e+08,-76.1061
2.359466667e+08,-70.175
2.363200000e+08,-68.9212
2.366933333e+08,-66.7793
2.370666667e+08,-46.9436
2.374400000e+08,-45.5158
2.378133333e+08,-65.5005
2.381866667e+08,-71.8964
2.385600000e+08,-74.6587
2.389333333e+08,-72.9083
2.393066667e+08,-70.3024
2.396800000e+08,-56.6516
2.400533333e+08,-45.9462
2.404266667e+08,-48.9491
2.408000000e+08,-70.8394
2.411733333e+08,-78.1783
2.415466667e+08,-75.2761
2.419200000e+08,-70.1189
2.422933333e+08,-57.0947
2.426666667e+08,-46.3082
2.430400000e+08,-53.0718
2.434133333e+08,-66.4978
2.437866667e+08,-73.7368
2.441600000e+08,-70.4762
2.445333333e+08,-68.0533
2.449066667e+08,-65.6105
2.452800000e+08,-52.7981
2.456533333e+08,-55.3821
2.460266667e+08,-71.6462
2.464000000e+08,-71.0146
2.467733333e+08,-68.5876
2.471466667e+08,-65.4343
2.475200000e+08,-62.6339
2.478933333e+08,-48.3084
2.482666667e+08,-48.2264
2.486400000e+08,-56.4057
2.490133333e+08,-64.6179
2.493866667e+08,-65.8987
2.497600000e+08,-63.4763
2.501333333e+08,-65.4801
2.505066667e+08,-55.7022
2.508800000e+08,-54.201
2.512533333e+08,-60.0328
2.516266667e+08,-51.2539
2.520000000e+08,-42.8575
2.523733333e+08,-51.7091
2.527466667e+08,-62.4031
2.531200000e+08,-55.788
2.534933333e+08,-50.4781
2.538666667e+08,-50.1938
2.542400000e+08,-56.6547
2.546133333e+08,-62.6101
2.549866667e+08,-64.1303
2.553600000e+08,-63.2481
2.557333333e+08,-58.695
2.561066667e+08,-56.2448
2.564800000e+08,-56.6817
2.568533333e+08,-59.8715
2.572266667e+08,-66.6717
2.576000000e+08,-59.9572
2.579733333e+08,-57.9645
2.583466667e+08,-59.0558
2.587200000e+08,-53.09
2.590933333e+08,-48.8367
2.594666667e+08,-50.2676
2.598400000e+08,-62.3373
2.602133333e+08,-64.9942
2.605866667e+08,-63.4579
2.609600000e+08,-65.8772
2.613333333e+08,-61.7294
2.617066667e+08,-55.9867
2.620800000e+08,-54.5284
2.624533333e+08,-68.9558
2.628266667e+08,-70.2424
2.632000000e+08,-65.5103
2.635733333e+08,-62.4047
2.639466667e+08,-50.3334
2.643200000e+08,-50.6724
2.646933333e+08,-48.0648
2.650666667e+08,-63.3878
2.654400000e+08,-68.6286
2.658133333e+08,-74.2206
2.661866667e+08,-69.0214
2.665600000e+08,-71.5671
2.669333333e+08,-61.9892
2.673066667e+08,-53.0549
2.676800000e+08,-62.6692
2.680533333e+08,-73.3883
2.684266667e+08,-72.1402
2.688000000e+08,-73.6881
2.691733333e+08,-71.1601
2.695466667e+08,-64.3066
2.699200000e+08,-48.6409
2.702933333e+08,-51.8451
2.706666667e+08,-80.8288
2.710400000e+08,-73.5291
2.714133333e+08,-66.117
2.717866667e+08,-67.1937
2.721600000e+08,-77.5661
2.725333333e+08,-52.9214
2.729066667e+08,-53.7127
2.732800000e+08,-75.0639
2.736533333e+08,-73.0183
2.740266667e+08,-70.7244
2.744000000e+08,-75.3184
2.747733333e+08,-63.5521
2.751466667e+08,-48.9791
2.755200000e+08,-47.6249
2.758933333e+08,-42.0748
2.762666667e+08,-44.184
2.766400000e+08,-67.8918
2.770133333e+08,-67.9042
2.773866667e+08,-63.5105
2.777600000e+08,-57.2077
2.781333333e+08,-54.5836
2.785066667e+08,-63.2245
2.788800000e+08,-62.588
2.792533333e+08,-69.2582
2.796266667e+08,-68.6609
2.800000000e+08,-65.4028

