81pt45/tek0098NRM.csv

Model,MDO3104
Firmware Version,1.30

Waveform Type,RF_FD
Point Format,Y
Horizontal Units,Hz
Horizontal Scale,2.8e+07
,
Sample Interval,373333
Record Length,751
Gating,0.133155792277% to 100.0%
Probe Attenuation,1
Vertical Units,dBm
Vertical Offset,0
Vertical Scale,10
Vertical Position,0
Center Frequency,1.4e+08
Span,2.8e+08
Reference Level,-15
Label,
FREQUENCY,FD NORM
0.000000000e+00,-67.2541
3.733333333e+05,-76.4475
7.466666667e+05,-79.8413
1.120000000e+06,-78.6798
1.493333333e+06,-71.351
1.866666667e+06,-70.1843
2.240000000e+06,-72.8571
2.613333333e+06,-66.4999
2.986666667e+06,-67.9321
3.360000000e+06,-59.2393
3.733333333e+06,-60.4704
4.106666667e+06,-64.8958
4.480000000e+06,-63.4003
4.853333333e+06,-73.6695
5.226666667e+06,-68.1304
5.600000000e+06,-73.1651
5.973333333e+06,-75.1039
6.346666667e+06,-73.7629
6.720000000e+06,-80.6838
7.093333333e+06,-71.8495
7.466666667e+06,-71.0171
7.840000000e+06,-65.9287
8.213333333e+06,-65.845
8.586666667e+06,-74.4888
8.960000000e+06,-68.9413
9.333333333e+06,-73.57
9.706666667e+06,-73.5277
1.008000000e+07,-74.4772
1.045333333e+07,-72.5508
1.082666667e+07,-69.7015
1.120000000e+07,-67.1841
1.157333333e+07,-67.992
1.194666667e+07,-68.0082
1.232000000e+07,-70.2752
1.269333333e+07,-71.8845
1.306666667e+07,-74.2483
1.344000000e+07,-65.635
1.381333333e+07,-66.1477
1.418666667e+07,-67.8722
1.456000000e+07,-69.247
1.493333333e+07,-71.2163
1.530666667e+07,-65.499
1.568000000e+07,-65.3537
1.605333333e+07,-63.4725
1.642666667e+07,-65.7348
1.680000000e+07,-79.0725
1.717333333e+07,-78.0512
1.754666667e+07,-71.7887
1.792000000e+07,-66.2057
1.829333333e+07,-65.9531
1.866666667e+07,-64.8076
1.904000000e+07,-65.8873
1.941333333e+07,-73.2195
1.978666667e+07,-73.7638
2.016000000e+07,-74.0438
2.053333333e+07,-74.0401
2.090666667e+07,-67.5503
2.128000000e+07,-70.8243
2.165333333e+07,-78.3552
2.202666667e+07,-69.4173
2.240000000e+07,-68.5528
2.277333333e+07,-69.1468
2.314666667e+07,-73.596
2.352000000e+07,-70.613
2.389333333e+07,-66.614
2.426666667e+07,-67.6466
2.464000000e+07,-56.0377
2.501333333e+07,-53.0641
2.538666667e+07,-67.8639
2.576000000e+07,-65.852
2.613333333e+07,-65.417
2.650666667e+07,-68.5402
2.688000000e+07,-68.2888
2.725333333e+07,-62.2171
2.762666667e+07,-69.3331
2.800000000e+07,-70.7104
2.837333333e+07,-69.0413
2.874666667e+07,-73.7922
2.912000000e+07,-74.0072
2.949333333e+07,-67.8433
2.986666667e+07,-59.4601
3.024000000e+07,-60.961
3.061333333e+07,-73.7357
3.098666667e+07,-73.2072
3.136000000e+07,-75.0946
3.173333333e+07,-74.5553
3.210666667e+07,-71.1892
3.248000000e+07,-61.3654
3.285333333e+07,-60.1923
3.322666667e+07,-79.8878
3.360000000e+07,-80.1364
3.397333333e+07,-74.1069
3.434666667e+07,-74.2362
3.472000000e+07,-74.9494
3.509333333e+07,-61.3935
3.546666667e+07,-57.4614
3.584000000e+07,-61.2473
3.621333333e+07,-61.7588
3.658666667e+07,-73.7212
3.696000000e+07,-69.4087
3.733333333e+07,-72.75
3.770666667e+07,-72.1649
3.808000000e+07,-59.1991
3.845333333e+07,-62.6411
3.882666667e+07,-74.1318
3.920000000e+07,-73.3889
3.957333333e+07,-73.7588
3.994666667e+07,-68.9132
4.032000000e+07,-68.2185
4.069333333e+07,-58.9875
4.106666667e+07,-60.3599
4.144000000e+07,-65.9112
4.181333333e+07,-71.1743
4.218666667e+07,-73.9953
4.256000000e+07,-71.0976
4.293333333e+07,-71.8564
4.330666667e+07,-59.9566
4.368000000e+07,-59.5277
4.405333333e+07,-64.7477
4.442666667e+07,-73.258
4.480000000e+07,-79.1103
4.517333333e+07,-80.0237
4.554666667e+07,-71.5746
4.592000000e+07,-61.1599
4.629333333e+07,-57.5894
4.666666667e+07,-57.2596
4.704000000e+07,-65.3693
4.741333333e+07,-73.4124
4.778666667e+07,-61.4689
4.816000000e+07,-60.1935
4.853333333e+07,-71.6924
4.890666667e+07,-61.2317
4.928000000e+07,-58.157
4.965333333e+07,-72.5454
5.002666667e+07,-71.9006
5.040000000e+07,-72.0567
5.077333333e+07,-65.9981
5.114666667e+07,-66.8561
5.152000000e+07,-59.2911
5.189333333e+07,-55.451
5.226666667e+07,-62.4705
5.264000000e+07,-70.8763
5.301333333e+07,-73.0665
5.338666667e+07,-72.1742
5.376000000e+07,-69.9841
5.413333333e+07,-70.2776
5.450666667e+07,-55.332
5.488000000e+07,-57.3288
5.525333333e+07,-77.4282
5.562666667e+07,-74.1936
5.600000000e+07,-77.3649
5.637333333e+07,-83.0342
5.674666667e+07,-72.3887
5.712000000e+07,-54.2859
5.749333333e+07,-54.5616
5.786666667e+07,-70.0673
5.824000000e+07,-75.7158
5.861333333e+07,-78.0927
5.898666667e+07,-77.8854
5.936000000e+07,-75.0735
5.973333333e+07,-36.0853
6.010666667e+07,-33.8177
6.048000000e+07,-52.3402
6.085333333e+07,-72.5854
6.122666667e+07,-73.8205
6.160000000e+07,-72.6534
6.197333333e+07,-71.0223
6.234666667e+07,-59.5826
6.272000000e+07,-52.364
6.309333333e+07,-63.5632
6.346666667e+07,-69.8262
6.384000000e+07,-72.8035
6.421333333e+07,-75.9077
6.458666667e+07,-71.961
6.496000000e+07,-68.6582
6.533333333e+07,-54.1831
6.570666667e+07,-57.1299
6.608000000e+07,-69.4815
6.645333333e+07,-75.0497
6.682666667e+07,-72.2817
6.720000000e+07,-71.1493
6.757333333e+07,-66.4553
6.794666667e+07,-54.3964
6.832000000e+07,-55.4848
6.869333333e+07,-62.9528
6.906666667e+07,-65.2773
6.944000000e+07,-65.362
6.981333333e+07,-67.8634
7.018666667e+07,-66.9219
7.056000000e+07,-56.7023
7.093333333e+07,-55.1141
7.130666667e+07,-59.4289
7.168000000e+07,-63.8961
7.205333333e+07,-60.398
7.242666667e+07,-71.6958
7.280000000e+07,-76.9902
7.317333333e+07,-59.6081
7.354666667e+07,-56.6457
7.392000000e+07,-57.2717
7.429333333e+07,-67.5167
7.466666667e+07,-67.143
7.504000000e+07,-66.6618
7.541333333e+07,-68.016
7.578666667e+07,-61.9002
7.616000000e+07,-56.7801
7.653333333e+07,-56.2147
7.690666667e+07,-64.741
7.728000000e+07,-66.0961
7.765333333e+07,-66.9344
7.802666667e+07,-69.4926
7.840000000e+07,-67.3057
7.877333333e+07,-57.5369
7.914666667e+07,-55.2946
7.952000000e+07,-59.7423
7.989333333e+07,-69.6308
8.026666667e+07,-67.2826
8.064000000e+07,-67.3535
8.101333333e+07,-67.0659
8.138666667e+07,-60.6179
8.176000000e+07,-53.6476
8.213333333e+07,-55.2799
8.250666667e+07,-70.1277
8.288000000e+07,-72.0084
8.325333333e+07,-69.2997
8.362666667e+07,-60.4085
8.400000000e+07,-53.7894
8.437333333e+07,-54.2745
8.474666667e+07,-53.1752
8.512000000e+07,-67.2432
8.549333333e+07,-66.2985
8.586666667e+07,-66.1166
8.624000000e+07,-73.5268
8.661333333e+07,-71.9948
8.698666667e+07,-59.277
8.736000000e+07,-53.5758
8.773333333e+07,-62.3164
8.810666667e+07,-76.3282
8.848000000e+07,-70.826
8.885333333e+07,-75.4889
8.922666667e+07,-72.648
8.960000000e+07,-58.8449
8.997333333e+07,-47.7023
9.034666667e+07,-55.1141
9.072000000e+07,-70.9445
9.109333333e+07,-70.8244
9.146666667e+07,-75.8541
9.184000000e+07,-68.991
9.221333333e+07,-71.8994
9.258666667e+07,-53.1707
9.296000000e+07,-54.8478
9.333333333e+07,-72.569
9.370666667e+07,-70.707
9.408000000e+07,-69.1403
9.445333333e+07,-68.8858
9.482666667e+07,-65.1247
9.520000000e+07,-51.8495
9.557333333e+07,-51.7315
9.594666667e+07,-53.03
9.632000000e+07,-55.0621
9.669333333e+07,-68.0849
9.706666667e+07,-70.4063
9.744000000e+07,-69.6191
9.781333333e+07,-57.8198
9.818666667e+07,-55.4214
9.856000000e+07,-59.1737
9.893333333e+07,-67.5591
9.930666667e+07,-70.5299
9.968000000e+07,-71.3579
1.000533333e+08,-69.5053
1.004266667e+08,-58.4892
1.008000000e+08,-52.2852
1.011733333e+08,-54.3186
1.015466667e+08,-66.3341
1.019200000e+08,-67.8411
1.022933333e+08,-67.7963
1.026666667e+08,-68.41
1.030400000e+08,-66.4157
1.034133333e+08,-55.3634
1.037866667e+08,-58.3991
1.041600000e+08,-65.2496
1.045333333e+08,-69.068
1.049066667e+08,-80.2011
1.052800000e+08,-72.4076
1.056533333e+08,-66.4012
1.060266667e+08,-53.6474
1.064000000e+08,-51.5339
1.067733333e+08,-54.2837
1.071466667e+08,-67.6358
1.075200000e+08,-68.2461
1.078933333e+08,-52.2477
1.082666667e+08,-53.8189
1.086400000e+08,-58.7779
1.090133333e+08,-54.3949
1.093866667e+08,-55.0112
1.097600000e+08,-65.6616
1.101333333e+08,-78.3681
1.105066667e+08,-71.7939
1.108800000e+08,-68.1887
1.112533333e+08,-70.2914
1.116266667e+08,-53.2596
1.120000000e+08,-50.6373
1.123733333e+08,-59.7672
1.127466667e+08,-69.163
1.131200000e+08,-67.0405
1.134933333e+08,-67.1439
1.138666667e+08,-64.333
1.142400000e+08,-57.6244
1.146133333e+08,-52.3929
1.149866667e+08,-59.5342
1.153600000e+08,-69.098
1.157333333e+08,-68.7613
1.161066667e+08,-67.9792
1.164800000e+08,-67.3874
1.168533333e+08,-63.6475
1.172266667e+08,-49.9306
1.176000000e+08,-55.2359
1.179733333e+08,-70.8711
1.183466667e+08,-72.6513
1.187200000e+08,-67.1485
1.190933333e+08,-68.2594
1.194666667e+08,-63.6872
1.198400000e+08,-36.2572
1.202133333e+08,-37.1587
1.205866667e+08,-70.3701
1.209600000e+08,-71.0419
1.213333333e+08,-70.1086
1.217066667e+08,-72.3298
1.220800000e+08,-70.5762
1.224533333e+08,-51.1673
1.228266667e+08,-49.3296
1.232000000e+08,-69.1469
1.235733333e+08,-68.2495
1.239466667e+08,-72.1754
1.243200000e+08,-67.6273
1.246933333e+08,-66.2101
1.250666667e+08,-58.0014
1.254400000e+08,-52.2422
1.258133333e+08,-64.3414
1.261866667e+08,-69.7273
1.265600000e+08,-69.7258
1.269333333e+08,-68.8595
1.273066667e+08,-66.8936
1.276800000e+08,-60.8428
1.280533333e+08,-49.9686
1.284266667e+08,-53.8554
1.288000000e+08,-64.3337
1.291733333e+08,-64.8431
1.295466667e+08,-65.1707
1.299200000e+08,-63.5606
1.302933333e+08,-62.1861
1.306666667e+08,-52.3658
1.310400000e+08,-53.7476
1.314133333e+08,-62.2522
1.317866667e+08,-49.9644
1.321600000e+08,-49.6884
1.325333333e+08,-70.1327
1.329066667e+08,-65.2312
1.332800000e+08,-52.3898
1.336533333e+08,-51.4329
1.340266667e+08,-53.3718
1.344000000e+08,-64.975
1.347733333e+08,-65.2499
1.351466667e+08,-66.6026
1.355200000e+08,-61.6582
1.358933333e+08,-58.6351
1.362666667e+08,-54.8514
1.366400000e+08,-53.6855
1.370133333e+08,-66.7351
1.373866667e+08,-67.1653
1.377600000e+08,-66.107
1.381333333e+08,-66.2833
1.385066667e+08,-60.5046
1.388800000e+08,-53.5946
1.392533333e+08,-50.0123
1.396266667e+08,-58.6277
1.400000000e+08,-64.3905
1.403733333e+08,-63.4513
1.407466667e+08,-68.7596
1.411200000e+08,-63.0978
1.414933333e+08,-57.9252
1.418666667e+08,-51.2012
1.422400000e+08,-55.6199
1.426133333e+08,-67.1638
1.429866667e+08,-66.8882
1.433600000e+08,-77.4834
1.437333333e+08,-63.1237
1.441066667e+08,-54.1912
1.444800000e+08,-48.4551
1.448533333e+08,-50.0486
1.452266667e+08,-69.4737
1.456000000e+08,-64.2651
1.459733333e+08,-64.7627
1.463466667e+08,-66.1311
1.467200000e+08,-64.8603
1.470933333e+08,-51.4409
1.474666667e+08,-51.0444
1.478400000e+08,-68.573
1.482133333e+08,-79.5384
1.485866667e+08,-74.9906
1.489600000e+08,-70.8085
1.493333333e+08,-68.3795
1.497066667e+08,-51.532
1.500800000e+08,-48.0749
1.504533333e+08,-61.1052
1.508266667e+08,-68.1686
1.512000000e+08,-75.0191
1.515733333e+08,-67.7534
1.519466667e+08,-67.7468
1.523200000e+08,-60.1524
1.526933333e+08,-51.5755
1.530666667e+08,-58.6346
1.534400000e+08,-64.8817
1.538133333e+08,-68.158
1.541866667e+08,-67.6641
1.545600000e+08,-69.5732
1.549333333e+08,-63.0071
1.553066667e+08,-48.3102
1.556800000e+08,-50.5904
1.560533333e+08,-49.7904
1.564266667e+08,-62.8293
1.568000000e+08,-71.0801
1.571733333e+08,-66.3565
1.575466667e+08,-65.3932
1.579200000e+08,-52.1194
1.582933333e+08,-51.8344
1.586666667e+08,-64.0463
1.590400000e+08,-64.9124
1.594133333e+08,-70.7973
1.597866667e+08,-67.4009
1.601600000e+08,-63.4261
1.605333333e+08,-52.5129
1.609066667e+08,-50.029
1.612800000e+08,-53.5527
1.616533333e+08,-64.0979
1.620266667e+08,-67.0971
1.624000000e+08,-67.1296
1.627733333e+08,-65.3494
1.631466667e+08,-60.7897
1.635200000e+08,-53.972
1.638933333e+08,-57.0821
1.642666667e+08,-65.9865
1.646400000e+08,-67.0724
1.650133333e+08,-67.6741
1.653866667e+08,-64.2483
1.657600000e+08,-62.4284
1.661333333e+08,-52.0805
1.665066667e+08,-49.7993
1.668800000e+08,-57.6624
1.672533333e+08,-63.0582
1.676266667e+08,-62.3513
1.680000000e+08,-56.6182
1.683733333e+08,-62.3081
1.687466667e+08,-57.5577
1.691200000e+08,-53.2818
1.694933333e+08,-56.7049
1.698666667e+08,-61.7608
1.702400000e+08,-65.1345
1.706133333e+08,-65.748
1.709866667e+08,-63.6254
1.713600000e+08,-56.4546
1.717333333e+08,-47.6675
1.721066667e+08,-48.3026
1.724800000e+08,-64.2816
1.728533333e+08,-64.8442
1.732266667e+08,-65.7799
1.736000000e+08,-66.5066
1.739733333e+08,-62.5355
1.743466667e+08,-53.7349
1.747200000e+08,-52.6055
1.750933333e+08,-67.7794
1.754666667e+08,-68.9577
1.758400000e+08,-68.9837
1.762133333e+08,-71.4538
1.765866667e+08,-66.111
1.769600000e+08,-52.0457
1.773333333e+08,-47.0319
1.777066667e+08,-59.6638
1.780800000e+08,-66.2472
1.784533333e+08,-73.7882
1.788266667e+08,-71.445
1.792000000e+08,-69.534
1.795733333e+08,-62.7131
1.799466667e+08,-55.0001
1.803200000e+08,-59.3594
1.806933333e+08,-64.8898
1.810666667e+08,-71.2863
1.814400000e+08,-70.0607
1.818133333e+08,-72.3222
1.821866667e+08,-68.9111
1.825600000e+08,-46.7688
1.829333333e+08,-47.9134
1.833066667e+08,-64.8591
1.836800000e+08,-72.3595
1.840533333e+08,-69.129
1.844266667e+08,-69.843
1.848000000e+08,-67.0221
1.851733333e+08,-51.9396
1.855466667e+08,-51.3006
1.859200000e+08,-63.5719
1.862933333e+08,-63.6697
1.866666667e+08,-65.7603
1.870400000e+08,-67.2263
1.874133333e+08,-63.1991
1.877866667e+08,-51.4492
1.881600000e+08,-47.238
1.885333333e+08,-53.7677
1.889066667e+08,-60.5282
1.892800000e+08,-63.9136
1.896533333e+08,-69.5474
1.900266667e+08,-65.3338
1.904000000e+08,-61.2436
1.907733333e+08,-53.7657
1.911466667e+08,-57.2309
1.915200000e+08,-61.7931
1.918933333e+08,-54.1054
1.922666667e+08,-52.6328
1.926400000e+08,-59.2611
1.930133333e+08,-61.2798
1.933866667e+08,-48.9605
1.937600000e+08,-50.1027
1.941333333e+08,-58.1372
1.945066667e+08,-59.8819
1.948800000e+08,-64.7597
1.952533333e+08,-63.351
1.956266667e+08,-62.7109
1.960000000e+08,-57.6184
1.963733333e+08,-54.8873
1.967466667e+08,-56.0015
1.971200000e+08,-65.7197
1.974933333e+08,-69.8114
1.978666667e+08,-63.2971
1.982400000e+08,-59.1861
1.986133333e+08,-57.9063
1.989866667e+08,-48.7868
1.993600000e+08,-48.2533
1.997333333e+08,-62.0644
2.001066667e+08,-63.6375
2.004800000e+08,-67.1036
2.008533333e+08,-64.9126
2.012266667e+08,-64.7244
2.016000000e+08,-55.9703
2.019733333e+08,-52.7482
2.023466667e+08,-65.3091
2.027200000e+08,-68.6147
2.030933333e+08,-65.7151
2.034666667e+08,-60.5998
2.038400000e+08,-48.7087
2.042133333e+08,-50.5951
2.045866667e+08,-46.9341
2.049600000e+08,-54.6966
2.053333333e+08,-67.3332
2.057066667e+08,-63.2896
2.060800000e+08,-69.5304
2.064533333e+08,-63.3587
2.068266667e+08,-63.6956
2.072000000e+08,-52.3055
2.075733333e+08,-54.4038
2.079466667e+08,-62.6213
2.083200000e+08,-64.405
2.086933333e+08,-66.5788
2.090666667e+08,-66.6694
2.094400000e+08,-72.7021
2.098133333e+08,-46.8362
2.101866667e+08,-46.6574
2.105600000e+08,-67.6649
2.109333333e+08,-65.2555
2.113066667e+08,-64.5534
2.116800000e+08,-66.0414
2.120533333e+08,-69.2124
2.124266667e+08,-55.0128
2.128000000e+08,-51.3868
2.131733333e+08,-60.4779
2.135466667e+08,-63.376
2.139200000e+08,-69.3862
2.142933333e+08,-65.8236
2.146666667e+08,-65.4224
2.150400000e+08,-51.8382
2.154133333e+08,-45.8016
2.157866667e+08,-53.0209
2.161600000e+08,-55.5157
2.165333333e+08,-62.4548
2.169066667e+08,-64.0296
2.172800000e+08,-66.7258
2.176533333e+08,-58.9617
2.180266667e+08,-51.5118
2.184000000e+08,-54.9077
2.187733333e+08,-60.4289
2.191466667e+08,-65.3977
2.195200000e+08,-66.4536
2.198933333e+08,-63.8713
2.202666667e+08,-60.0299
2.206400000e+08,-47.4878
2.210133333e+08,-48.0902
2.213866667e+08,-55.2527
2.217600000e+08,-63.8399
2.221333333e+08,-60.0541
2.225066667e+08,-60.5688
2.228800000e+08,-66.4371
2.232533333e+08,-54.1603
2.236266667e+08,-53.7827
2.240000000e+08,-56.097
2.243733333e+08,-62.9273
2.247466667e+08,-68.3935
2.251200000e+08,-62.5944
2.254933333e+08,-65.0848
2.258666667e+08,-55.2801
2.262400000e+08,-49.1914
2.266133333e+08,-48.4876
2.269866667e+08,-58.0725
2.273600000e+08,-67.1726
2.277333333e+08,-50.9459
2.281066667e+08,-48.0773
2.284800000e+08,-60.8614
2.288533333e+08,-55.2494
2.292266667e+08,-53.4975
2.296000000e+08,-61.863
2.299733333e+08,-71.1169
2.303466667e+08,-69.1925
2.307200000e+08,-68.6492
2.310933333e+08,-62.5958
2.314666667e+08,-52.9596
2.318400000e+08,-47.334
2.322133333e+08,-52.5651
2.325866667e+08,-61.8372
2.329600000e+08,-72.184
2.333333333e+08,-69.8548
2.337066667e+08,-69.0008
2.340800000e+08,-63.0424
2.344533333e+08,-53.0009
2.348266667e+08,-53.8363
2.352000000e+08,-67.9181
2.355733333e+08,-71.4081
2.359466667e+08,-70.4156
2.363200000e+08,-72.365
2.366933333e+08,-66.2586
2.370666667e+08,-48.3334
2.374400000e+08,-46.8767
2.378133333e+08,-67.6833
2.381866667e+08,-71.8158
2.385600000e+08,-66.5312
2.389333333e+08,-73.2694
2.393066667e+08,-70.6474
2.396800000e+08,-54.8577
2.400533333e+08,-51.1845
2.404266667e+08,-52.4868
2.408000000e+08,-73.3022
2.411733333e+08,-70.5409
2.415466667e+08,-69.2281
2.419200000e+08,-66.547
2.422933333e+08,-57.5399
2.426666667e+08,-46.3284
2.430400000e+08,-52.3648
2.434133333e+08,-66.6632
2.437866667e+08,-69.5889
2.441600000e+08,-66.1081
2.445333333e+08,-66.5847
2.449066667e+08,-65.7192
2.452800000e+08,-53.2866
2.456533333e+08,-55.6787
2.460266667e+08,-72.3249
2.464000000e+08,-66.6579
2.467733333e+08,-66.4461
2.471466667e+08,-67.0416
2.475200000e+08,-65.1112
2.478933333e+08,-48.134
2.482666667e+08,-47.6881
2.486400000e+08,-55.446
2.490133333e+08,-63.2694
2.493866667e+08,-66.9306
2.497600000e+08,-67.5893
2.501333333e+08,-68.1243
2.505066667e+08,-56.3474
2.508800000e+08,-53.9628
2.512533333e+08,-58.4254
2.516266667e+08,-54.8701
2.520000000e+08,-47.5235
2.523733333e+08,-56.6624
2.527466667e+08,-67.3799
2.531200000e+08,-56.7108
2.534933333e+08,-49.0413
2.538666667e+08,-50.5959
2.542400000e+08,-60.1149
2.546133333e+08,-67.1598
2.549866667e+08,-67.7385
2.553600000e+08,-64.9379
2.557333333e+08,-62.995
2.561066667e+08,-55.498
2.564800000e+08,-55.3952
2.568533333e+08,-60.1717
2.572266667e+08,-67.5209
2.576000000e+08,-66.9596
2.579733333e+08,-66.9325
2.583466667e+08,-59.9823
2.587200000e+08,-53.1767
2.590933333e+08,-48.5533
2.594666667e+08,-50.8435
2.598400000e+08,-63.0673
2.602133333e+08,-65.7621
2.605866667e+08,-65.3389
2.609600000e+08,-64.5603
2.613333333e+08,-64.2162
2.617066667e+08,-54.7291
2.620800000e+08,-54.5439
2.624533333e+08,-66.7863
2.628266667e+08,-68.8232
2.632000000e+08,-65.7493
2.635733333e+08,-65.6224
2.639466667e+08,-58.4923
2.643200000e+08,-50.263
2.646933333e+08,-47.8037
2.650666667e+08,-64.5742
2.654400000e+08,-68.6151
2.658133333e+08,-69.4987
2.661866667e+08,-70.202
2.665600000e+08,-73.1774
2.669333333e+08,-60.8293
2.673066667e+08,-53.4035
2.676800000e+08,-61.819
2.680533333e+08,-70.5175
2.684266667e+08,-69.4777
2.688000000e+08,-78.0978
2.691733333e+08,-69.4452
2.695466667e+08,-57.7425
2.699200000e+08,-44.9584
2.702933333e+08,-48.6033
2.706666667e+08,-74.1493
2.710400000e+08,-69.5709
2.714133333e+08,-71.244
2.717866667e+08,-70.2527
2.721600000e+08,-72.8813
2.725333333e+08,-53.8419
2.729066667e+08,-54.4327
2.732800000e+08,-71.6138
2.736533333e+08,-65.3959
2.740266667e+08,-67.0253
2.744000000e+08,-63.9047
2.747733333e+08,-66.3797
2.751466667e+08,-50.2261
2.755200000e+08,-48.2859
2.758933333e+08,-47.71
2.762666667e+08,-50.4874
2.766400000e+08,-63.6278
2.770133333e+08,-67.7274
2.773866667e+08,-67.4572
2.777600000e+08,-57.6438
2.781333333e+08,-52.8113
2.785066667e+08,-60.2025
2.788800000e+08,-66.1411
2.792533333e+08,-64.4256
2.796266667e+08,-63.9472
2.800000000e+08,-66.0375

