81pt45/tek0006NRM.csv

Model,MDO3104
Firmware Version,1.30

Waveform Type,RF_FD
Point Format,Y
Horizontal Units,Hz
Horizontal Scale,2.8e+07
,
Sample Interval,373333
Record Length,751
Gating,0.133155792277% to 100.0%
Probe Attenuation,1
Vertical Units,dBm
Vertical Offset,0
Vertical Scale,10
Vertical Position,0
Center Frequency,1.4e+08
Span,2.8e+08
Reference Level,-15
Label,
FREQUENCY,FD NORM
0.000000000e+00,-62.0142
3.733333333e+05,-70.7587
7.466666667e+05,-80.2101
1.120000000e+06,-80.649
1.493333333e+06,-71.1262
1.866666667e+06,-67.1225
2.240000000e+06,-70.3732
2.613333333e+06,-66.3959
2.986666667e+06,-73.0198
3.360000000e+06,-59.1853
3.733333333e+06,-60.6727
4.106666667e+06,-63.6411
4.480000000e+06,-61.3999
4.853333333e+06,-70.6985
5.226666667e+06,-72.9478
5.600000000e+06,-73.4581
5.973333333e+06,-68.0816
6.346666667e+06,-69.6424
6.720000000e+06,-72.4223
7.093333333e+06,-70.6867
7.466666667e+06,-73.0621
7.840000000e+06,-65.6527
8.213333333e+06,-63.1925
8.586666667e+06,-73.8384
8.960000000e+06,-72.0806
9.333333333e+06,-70.0217
9.706666667e+06,-70.5328
1.008000000e+07,-73.2829
1.045333333e+07,-71.5274
1.082666667e+07,-64.2126
1.120000000e+07,-66.5162
1.157333333e+07,-67.1991
1.194666667e+07,-62.8011
1.232000000e+07,-66.2922
1.269333333e+07,-74.1988
1.306666667e+07,-72.3968
1.344000000e+07,-66.6925
1.381333333e+07,-64.5684
1.418666667e+07,-67.1322
1.456000000e+07,-65.2181
1.493333333e+07,-71.0232
1.530666667e+07,-67.9407
1.568000000e+07,-70.3329
1.605333333e+07,-71.1188
1.642666667e+07,-68.509
1.680000000e+07,-68.2323
1.717333333e+07,-67.8142
1.754666667e+07,-67.307
1.792000000e+07,-78.0531
1.829333333e+07,-65.5273
1.866666667e+07,-67.3759
1.904000000e+07,-68.2366
1.941333333e+07,-66.4426
1.978666667e+07,-67.7359
2.016000000e+07,-65.7777
2.053333333e+07,-70.5101
2.090666667e+07,-64.9691
2.128000000e+07,-71.2158
2.165333333e+07,-67.5403
2.202666667e+07,-65.6027
2.240000000e+07,-65.6028
2.277333333e+07,-63.7773
2.314666667e+07,-74.1783
2.352000000e+07,-64.2699
2.389333333e+07,-66.2351
2.426666667e+07,-61.9309
2.464000000e+07,-55.1548
2.501333333e+07,-51.0194
2.538666667e+07,-57.4552
2.576000000e+07,-68.3339
2.613333333e+07,-69.7308
2.650666667e+07,-68.6758
2.688000000e+07,-70.3305
2.725333333e+07,-62.0538
2.762666667e+07,-64.9477
2.800000000e+07,-70.4701
2.837333333e+07,-70.9051
2.874666667e+07,-73.8517
2.912000000e+07,-75.5174
2.949333333e+07,-73.0352
2.986666667e+07,-59.6426
3.024000000e+07,-61.383
3.061333333e+07,-75.7109
3.098666667e+07,-73.7299
3.136000000e+07,-70.3428
3.173333333e+07,-77.7188
3.210666667e+07,-73.7431
3.248000000e+07,-60.6079
3.285333333e+07,-59.9045
3.322666667e+07,-74.2859
3.360000000e+07,-74.9383
3.397333333e+07,-76.1463
3.434666667e+07,-73.5862
3.472000000e+07,-71.7086
3.509333333e+07,-61.3992
3.546666667e+07,-58.5447
3.584000000e+07,-60.8744
3.621333333e+07,-61.2301
3.658666667e+07,-71.4418
3.696000000e+07,-71.4672
3.733333333e+07,-74.3178
3.770666667e+07,-63.1391
3.808000000e+07,-58.7315
3.845333333e+07,-68.9733
3.882666667e+07,-68.2518
3.920000000e+07,-71.7548
3.957333333e+07,-68.9592
3.994666667e+07,-70.5105
4.032000000e+07,-65.9161
4.069333333e+07,-57.1585
4.106666667e+07,-62.4275
4.144000000e+07,-63.6545
4.181333333e+07,-66.2173
4.218666667e+07,-71.1257
4.256000000e+07,-68.3401
4.293333333e+07,-65.2819
4.330666667e+07,-61.3513
4.368000000e+07,-62.2443
4.405333333e+07,-62.4698
4.442666667e+07,-73.2084
4.480000000e+07,-71.8181
4.517333333e+07,-70.2106
4.554666667e+07,-70.0028
4.592000000e+07,-61.157
4.629333333e+07,-60.1893
4.666666667e+07,-58.4904
4.704000000e+07,-64.2387
4.741333333e+07,-71.9015
4.778666667e+07,-62.7801
4.816000000e+07,-61.4846
4.853333333e+07,-63.9576
4.890666667e+07,-62.394
4.928000000e+07,-59.0712
4.965333333e+07,-65.4277
5.002666667e+07,-69.1615
5.040000000e+07,-68.4072
5.077333333e+07,-68.941
5.114666667e+07,-67.2939
5.152000000e+07,-62.6349
5.189333333e+07,-56.1938
5.226666667e+07,-61.159
5.264000000e+07,-68.4865
5.301333333e+07,-76.2813
5.338666667e+07,-72.8743
5.376000000e+07,-75.3928
5.413333333e+07,-68.3925
5.450666667e+07,-55.5498
5.488000000e+07,-57.4737
5.525333333e+07,-72.5708
5.562666667e+07,-72.615
5.600000000e+07,-73.6661
5.637333333e+07,-75.7063
5.674666667e+07,-74.0711
5.712000000e+07,-53.2524
5.749333333e+07,-53.1402
5.786666667e+07,-68.7733
5.824000000e+07,-75.6042
5.861333333e+07,-80.3058
5.898666667e+07,-77.0322
5.936000000e+07,-71.1564
5.973333333e+07,-36.1116
6.010666667e+07,-33.8312
6.048000000e+07,-52.6938
6.085333333e+07,-67.9726
6.122666667e+07,-68.188
6.160000000e+07,-73.491
6.197333333e+07,-71.9752
6.234666667e+07,-59.0544
6.272000000e+07,-52.5051
6.309333333e+07,-63.3716
6.346666667e+07,-68.407
6.384000000e+07,-67.8463
6.421333333e+07,-67.1455
6.458666667e+07,-67.9695
6.496000000e+07,-63.1532
6.533333333e+07,-53.5471
6.570666667e+07,-61.065
6.608000000e+07,-65.6803
6.645333333e+07,-78.9218
6.682666667e+07,-68.7854
6.720000000e+07,-66.4585
6.757333333e+07,-64.7022
6.794666667e+07,-56.9194
6.832000000e+07,-59.1712
6.869333333e+07,-62.3804
6.906666667e+07,-65.5241
6.944000000e+07,-64.7052
6.981333333e+07,-69.242
7.018666667e+07,-66.0558
7.056000000e+07,-56.9819
7.093333333e+07,-56.2404
7.130666667e+07,-61.3032
7.168000000e+07,-64.901
7.205333333e+07,-60.6876
7.242666667e+07,-68.0826
7.280000000e+07,-65.3513
7.317333333e+07,-60.2006
7.354666667e+07,-58.6757
7.392000000e+07,-57.9784
7.429333333e+07,-63.0818
7.466666667e+07,-67.0526
7.504000000e+07,-68.0944
7.541333333e+07,-68.3289
7.578666667e+07,-62.0453
7.616000000e+07,-57.252
7.653333333e+07,-56.5517
7.690666667e+07,-60.2144
7.728000000e+07,-69.826
7.765333333e+07,-71.0671
7.802666667e+07,-66.9149
7.840000000e+07,-67.6921
7.877333333e+07,-62.4407
7.914666667e+07,-54.9859
7.952000000e+07,-57.7462
7.989333333e+07,-66.4952
8.026666667e+07,-65.7499
8.064000000e+07,-66.91
8.101333333e+07,-65.087
8.138666667e+07,-61.8041
8.176000000e+07,-55.9126
8.213333333e+07,-56.1582
8.250666667e+07,-66.7146
8.288000000e+07,-67.1456
8.325333333e+07,-70.5043
8.362666667e+07,-67.096
8.400000000e+07,-54.6276
8.437333333e+07,-54.215
8.474666667e+07,-52.6269
8.512000000e+07,-69.1648
8.549333333e+07,-74.1029
8.586666667e+07,-67.7881
8.624000000e+07,-64.8558
8.661333333e+07,-70.3876
8.698666667e+07,-59.4915
8.736000000e+07,-52.8873
8.773333333e+07,-61.2254
8.810666667e+07,-67.4768
8.848000000e+07,-68.5538
8.885333333e+07,-69.5374
8.922666667e+07,-75.6624
8.960000000e+07,-58.7716
8.997333333e+07,-47.3406
9.034666667e+07,-53.7121
9.072000000e+07,-73.2208
9.109333333e+07,-73.1934
9.146666667e+07,-74.1378
9.184000000e+07,-75.0205
9.221333333e+07,-63.936
9.258666667e+07,-52.8794
9.296000000e+07,-56.2767
9.333333333e+07,-78.1506
9.370666667e+07,-74.1181
9.408000000e+07,-66.5459
9.445333333e+07,-67.4992
9.482666667e+07,-65.3215
9.520000000e+07,-52.4672
9.557333333e+07,-52.6591
9.594666667e+07,-52.1132
9.632000000e+07,-54.0469
9.669333333e+07,-69.8586
9.706666667e+07,-68.4565
9.744000000e+07,-63.2907
9.781333333e+07,-54.9756
9.818666667e+07,-53.3349
9.856000000e+07,-61.9214
9.893333333e+07,-69.3371
9.930666667e+07,-68.7427
9.968000000e+07,-69.1954
1.000533333e+08,-65.2831
1.004266667e+08,-56.4625
1.008000000e+08,-53.2609
1.011733333e+08,-55.4038
1.015466667e+08,-59.5133
1.019200000e+08,-61.6529
1.022933333e+08,-69.0075
1.026666667e+08,-67.9618
1.030400000e+08,-59.8376
1.034133333e+08,-55.0247
1.037866667e+08,-58.269
1.041600000e+08,-60.8163
1.045333333e+08,-63.8036
1.049066667e+08,-65.8079
1.052800000e+08,-64.6794
1.056533333e+08,-62.9283
1.060266667e+08,-56.1084
1.064000000e+08,-53.5968
1.067733333e+08,-53.9427
1.071466667e+08,-61.0768
1.075200000e+08,-67.4977
1.078933333e+08,-51.2898
1.082666667e+08,-53.1595
1.086400000e+08,-58.3641
1.090133333e+08,-55.8829
1.093866667e+08,-53.962
1.097600000e+08,-63.8245
1.101333333e+08,-68.0239
1.105066667e+08,-75.5871
1.108800000e+08,-66.1644
1.112533333e+08,-61.6562
1.116266667e+08,-55.0795
1.120000000e+08,-49.9305
1.123733333e+08,-61.1833
1.127466667e+08,-67.1902
1.131200000e+08,-66.0826
1.134933333e+08,-65.7502
1.138666667e+08,-65.1694
1.142400000e+08,-63.3833
1.146133333e+08,-52.1946
1.149866667e+08,-58.7281
1.153600000e+08,-71.3512
1.157333333e+08,-69.7656
1.161066667e+08,-66.4082
1.164800000e+08,-69.5249
1.168533333e+08,-68.2445
1.172266667e+08,-50.4082
1.176000000e+08,-53.3258
1.179733333e+08,-67.662
1.183466667e+08,-66.557
1.187200000e+08,-71.1228
1.190933333e+08,-68.7244
1.194666667e+08,-63.1857
1.198400000e+08,-36.0967
1.202133333e+08,-36.8895
1.205866667e+08,-74.3432
1.209600000e+08,-75.6518
1.213333333e+08,-68.9528
1.217066667e+08,-67.7935
1.220800000e+08,-72.4881
1.224533333e+08,-51.7247
1.228266667e+08,-49.6265
1.232000000e+08,-66.2096
1.235733333e+08,-66.3714
1.239466667e+08,-69.2047
1.243200000e+08,-67.9327
1.246933333e+08,-64.1539
1.250666667e+08,-55.0921
1.254400000e+08,-51.4257
1.258133333e+08,-65.6355
1.261866667e+08,-68.7382
1.265600000e+08,-68.1676
1.269333333e+08,-71.2971
1.273066667e+08,-65.3112
1.276800000e+08,-57.4008
1.280533333e+08,-49.9193
1.284266667e+08,-59.6219
1.288000000e+08,-61.1284
1.291733333e+08,-67.4846
1.295466667e+08,-65.2591
1.299200000e+08,-65.3156
1.302933333e+08,-58.9489
1.306666667e+08,-51.8763
1.310400000e+08,-55.9008
1.314133333e+08,-57.5233
1.317866667e+08,-50.0506
1.321600000e+08,-49.4658
1.325333333e+08,-62.9585
1.329066667e+08,-65.136
1.332800000e+08,-53.3563
1.336533333e+08,-53.806
1.340266667e+08,-53.406
1.344000000e+08,-60.5953
1.347733333e+08,-62.5619
1.351466667e+08,-65.0739
1.355200000e+08,-61.216
1.358933333e+08,-56.2064
1.362666667e+08,-55.0754
1.366400000e+08,-54.5488
1.370133333e+08,-59.2997
1.373866667e+08,-63.8234
1.377600000e+08,-64.566
1.381333333e+08,-67.9037
1.385066667e+08,-62.2151
1.388800000e+08,-57.4243
1.392533333e+08,-50.2581
1.396266667e+08,-57.2998
1.400000000e+08,-62.2903
1.403733333e+08,-65.9858
1.407466667e+08,-67.8258
1.411200000e+08,-61.2387
1.414933333e+08,-59.7272
1.418666667e+08,-51.5316
1.422400000e+08,-55.0939
1.426133333e+08,-67.6204
1.429866667e+08,-72.7039
1.433600000e+08,-69.5461
1.437333333e+08,-63.7557
1.441066667e+08,-56.4423
1.444800000e+08,-49.1035
1.448533333e+08,-50.3327
1.452266667e+08,-64.2066
1.456000000e+08,-66.6636
1.459733333e+08,-69.5581
1.463466667e+08,-67.7908
1.467200000e+08,-65.1059
1.470933333e+08,-51.7132
1.474666667e+08,-50.6224
1.478400000e+08,-67.8481
1.482133333e+08,-71.1768
1.485866667e+08,-76.5726
1.489600000e+08,-68.9823
1.493333333e+08,-75.1623
1.497066667e+08,-52.1823
1.500800000e+08,-48.3
1.504533333e+08,-69.4989
1.508266667e+08,-66.9211
1.512000000e+08,-73.5046
1.515733333e+08,-66.0117
1.519466667e+08,-67.8442
1.523200000e+08,-58.7151
1.526933333e+08,-51.4359
1.530666667e+08,-60.328
1.534400000e+08,-76.6504
1.538133333e+08,-69.1256
1.541866667e+08,-68.5503
1.545600000e+08,-70.6856
1.549333333e+08,-57.5071
1.553066667e+08,-48.2687
1.556800000e+08,-53.0653
1.560533333e+08,-49.9848
1.564266667e+08,-64.6707
1.568000000e+08,-62.9362
1.571733333e+08,-65.4176
1.575466667e+08,-59.7912
1.579200000e+08,-52.0742
1.582933333e+08,-53.2201
1.586666667e+08,-59.1296
1.590400000e+08,-62.1616
1.594133333e+08,-64.7722
1.597866667e+08,-65.3205
1.601600000e+08,-60.1291
1.605333333e+08,-50.2689
1.609066667e+08,-49.2944
1.612800000e+08,-53.6721
1.616533333e+08,-61.6627
1.620266667e+08,-61.9013
1.624000000e+08,-60.4766
1.627733333e+08,-60.685
1.631466667e+08,-57.8438
1.635200000e+08,-54.597
1.638933333e+08,-55.4502
1.642666667e+08,-59.5868
1.646400000e+08,-63.3303
1.650133333e+08,-63.7536
1.653866667e+08,-61.572
1.657600000e+08,-55.8582
1.661333333e+08,-51.8957
1.665066667e+08,-49.7086
1.668800000e+08,-53.4367
1.672533333e+08,-61.7879
1.676266667e+08,-60.1572
1.680000000e+08,-62.5066
1.683733333e+08,-63.6348
1.687466667e+08,-58.0403
1.691200000e+08,-54.0077
1.694933333e+08,-55.1108
1.698666667e+08,-64.4437
1.702400000e+08,-67.2913
1.706133333e+08,-70.0298
1.709866667e+08,-62.294
1.713600000e+08,-55.4259
1.717333333e+08,-49.0826
1.721066667e+08,-48.2339
1.724800000e+08,-58.8986
1.728533333e+08,-66.4159
1.732266667e+08,-67.4547
1.736000000e+08,-64.886
1.739733333e+08,-59.2327
1.743466667e+08,-57.6012
1.747200000e+08,-53.6787
1.750933333e+08,-68.5214
1.754666667e+08,-70.0197
1.758400000e+08,-70.8763
1.762133333e+08,-67.7748
1.765866667e+08,-62.7237
1.769600000e+08,-56.4152
1.773333333e+08,-47.5088
1.777066667e+08,-57.0129
1.780800000e+08,-73.7716
1.784533333e+08,-73.5066
1.788266667e+08,-70.9534
1.792000000e+08,-66.3801
1.795733333e+08,-65.368
1.799466667e+08,-55.1886
1.803200000e+08,-60.5738
1.806933333e+08,-74.5745
1.810666667e+08,-72.3744
1.814400000e+08,-72.035
1.818133333e+08,-70.6446
1.821866667e+08,-64.424
1.825600000e+08,-46.8283
1.829333333e+08,-48.1687
1.833066667e+08,-68.8192
1.836800000e+08,-63.2985
1.840533333e+08,-63.9883
1.844266667e+08,-69.3734
1.848000000e+08,-63.6966
1.851733333e+08,-51.9116
1.855466667e+08,-51.4637
1.859200000e+08,-72.1038
1.862933333e+08,-65.7696
1.866666667e+08,-64.225
1.870400000e+08,-67.4769
1.874133333e+08,-61.1355
1.877866667e+08,-49.969
1.881600000e+08,-47.4499
1.885333333e+08,-57.4675
1.889066667e+08,-57.188
1.892800000e+08,-58.5982
1.896533333e+08,-63.2858
1.900266667e+08,-65.0661
1.904000000e+08,-57.0852
1.907733333e+08,-54.108
1.911466667e+08,-57.8392
1.915200000e+08,-62.1991
1.918933333e+08,-53.6087
1.922666667e+08,-52.0492
1.926400000e+08,-61.2013
1.930133333e+08,-56.3212
1.933866667e+08,-50.2776
1.937600000e+08,-53.7637
1.941333333e+08,-57.174
1.945066667e+08,-57.7393
1.948800000e+08,-60.4189
1.952533333e+08,-66.8996
1.956266667e+08,-67.1556
1.960000000e+08,-57.4136
1.963733333e+08,-55.008
1.967466667e+08,-55.0156
1.971200000e+08,-64.249
1.974933333e+08,-67.7142
1.978666667e+08,-64.2791
1.982400000e+08,-59.9512
1.986133333e+08,-55.2054
1.989866667e+08,-51.3863
1.993600000e+08,-48.6729
1.997333333e+08,-56.7446
2.001066667e+08,-58.9958
2.004800000e+08,-63.648
2.008533333e+08,-66.4142
2.012266667e+08,-60.439
2.016000000e+08,-59.4936
2.019733333e+08,-53.0337
2.023466667e+08,-63.1848
2.027200000e+08,-62.6604
2.030933333e+08,-62.9722
2.034666667e+08,-63.1219
2.038400000e+08,-50.2438
2.042133333e+08,-51.4699
2.045866667e+08,-46.8494
2.049600000e+08,-53.9245
2.053333333e+08,-64.8721
2.057066667e+08,-73.9878
2.060800000e+08,-75.2575
2.064533333e+08,-72.7458
2.068266667e+08,-74.2855
2.072000000e+08,-53.0011
2.075733333e+08,-56.2032
2.079466667e+08,-66.0492
2.083200000e+08,-64.7833
2.086933333e+08,-63.2349
2.090666667e+08,-64.1882
2.094400000e+08,-68.8842
2.098133333e+08,-46.5807
2.101866667e+08,-46.6814
2.105600000e+08,-70.8882
2.109333333e+08,-76.8201
2.113066667e+08,-68.6602
2.116800000e+08,-75.4585
2.120533333e+08,-62.6263
2.124266667e+08,-54.3233
2.128000000e+08,-52.0958
2.131733333e+08,-65.7028
2.135466667e+08,-70.1387
2.139200000e+08,-74.026
2.142933333e+08,-60.5318
2.146666667e+08,-60.3391
2.150400000e+08,-51.8799
2.154133333e+08,-46.2508
2.157866667e+08,-56.2102
2.161600000e+08,-56.9624
2.165333333e+08,-66.2506
2.169066667e+08,-58.1275
2.172800000e+08,-60.9833
2.176533333e+08,-56.8473
2.180266667e+08,-53.1057
2.184000000e+08,-60.3349
2.187733333e+08,-64.2811
2.191466667e+08,-65.6377
2.195200000e+08,-66.4022
2.198933333e+08,-61.2795
2.202666667e+08,-56.7582
2.206400000e+08,-47.508
2.210133333e+08,-49.6038
2.213866667e+08,-52.7076
2.217600000e+08,-59.4705
2.221333333e+08,-59.7768
2.225066667e+08,-63.6865
2.228800000e+08,-63.5039
2.232533333e+08,-56.2063
2.236266667e+08,-55.987
2.240000000e+08,-55.2293
2.243733333e+08,-59.7583
2.247466667e+08,-65.3353
2.251200000e+08,-60.4857
2.254933333e+08,-60.7532
2.258666667e+08,-53.1083
2.262400000e+08,-51.347
2.266133333e+08,-48.6293
2.269866667e+08,-55.8949
2.273600000e+08,-59.1448
2.277333333e+08,-50.0415
2.281066667e+08,-47.6427
2.284800000e+08,-58.0789
2.288533333e+08,-58.4633
2.292266667e+08,-55.8451
2.296000000e+08,-59.1707
2.299733333e+08,-64.5009
2.303466667e+08,-66.8989
2.307200000e+08,-65.0164
2.310933333e+08,-61.6527
2.314666667e+08,-56.4665
2.318400000e+08,-47.7566
2.322133333e+08,-50.2303
2.325866667e+08,-62.6808
2.329600000e+08,-65.9818
2.333333333e+08,-70.8606
2.337066667e+08,-67.3927
2.340800000e+08,-62.4
2.344533333e+08,-53.8506
2.348266667e+08,-54.0641
2.352000000e+08,-66.3879
2.355733333e+08,-67.4018
2.359466667e+08,-69.4878
2.363200000e+08,-65.7143
2.366933333e+08,-66.8898
2.370666667e+08,-48.3239
2.374400000e+08,-46.6154
2.378133333e+08,-64.2708
2.381866667e+08,-74.594
2.385600000e+08,-72.5102
2.389333333e+08,-75.8187
2.393066667e+08,-70.2087
2.396800000e+08,-52.2022
2.400533333e+08,-43.8088
2.404266667e+08,-49.574
2.408000000e+08,-73.9024
2.411733333e+08,-73.8295
2.415466667e+08,-80.9995
2.419200000e+08,-75.1578
2.422933333e+08,-54.9578
2.426666667e+08,-46.1366
2.430400000e+08,-53.2513
2.434133333e+08,-66.8228
2.437866667e+08,-68.3665
2.441600000e+08,-68.1793
2.445333333e+08,-65.5096
2.449066667e+08,-64.4844
2.452800000e+08,-54.0956
2.456533333e+08,-57.016
2.460266667e+08,-68.1118
2.464000000e+08,-68.847
2.467733333e+08,-65.3086
2.471466667e+08,-64.8799
2.475200000e+08,-58.9533
2.478933333e+08,-47.6892
2.482666667e+08,-47.9443
2.486400000e+08,-56.5287
2.490133333e+08,-60.698
2.493866667e+08,-62.3044
2.497600000e+08,-63.7274
2.501333333e+08,-61.5896
2.505066667e+08,-55.0704
2.508800000e+08,-53.5415
2.512533333e+08,-62.0703
2.516266667e+08,-53.6795
2.520000000e+08,-47.0629
2.523733333e+08,-55.3719
2.527466667e+08,-63.8059
2.531200000e+08,-53.7226
2.534933333e+08,-50.1491
2.538666667e+08,-51.427
2.542400000e+08,-55.5933
2.546133333e+08,-59.4733
2.549866667e+08,-62.083
2.553600000e+08,-62.4659
2.557333333e+08,-62.9494
2.561066667e+08,-56.5714
2.564800000e+08,-57.1193
2.568533333e+08,-58.9748
2.572266667e+08,-65.947
2.576000000e+08,-67.7946
2.579733333e+08,-68.9441
2.583466667e+08,-60.4773
2.587200000e+08,-54.1877
2.590933333e+08,-48.9274
2.594666667e+08,-49.7243
2.598400000e+08,-59.2414
2.602133333e+08,-60.8395
2.605866667e+08,-65.5139
2.609600000e+08,-65.883
2.613333333e+08,-59.2446
2.617066667e+08,-56.3963
2.620800000e+08,-54.7423
2.624533333e+08,-64.3989
2.628266667e+08,-65.5126
2.632000000e+08,-72.1433
2.635733333e+08,-65.3991
2.639466667e+08,-57.7669
2.643200000e+08,-51.7716
2.646933333e+08,-47.4926
2.650666667e+08,-59.1731
2.654400000e+08,-70.9134
2.658133333e+08,-70.0912
2.661866667e+08,-73.8672
2.665600000e+08,-74.8764
2.669333333e+08,-66.05
2.673066667e+08,-54.3032
2.676800000e+08,-62.374
2.680533333e+08,-76.5438
2.684266667e+08,-71.7705
2.688000000e+08,-78.1988
2.691733333e+08,-74.4935
2.695466667e+08,-60.3027
2.699200000e+08,-45.2323
2.702933333e+08,-48.7635
2.706666667e+08,-69.7849
2.710400000e+08,-71.5761
2.714133333e+08,-71.3269
2.717866667e+08,-78.7988
2.721600000e+08,-77.3959
2.725333333e+08,-54.7546
2.729066667e+08,-55.3661
2.732800000e+08,-65.8094
2.736533333e+08,-66.1596
2.740266667e+08,-76.759
2.744000000e+08,-69.6828
2.747733333e+08,-61.5339
2.751466667e+08,-49.7378
2.755200000e+08,-48.4653
2.758933333e+08,-48.3527
2.762666667e+08,-51.4504
2.766400000e+08,-66.0485
2.770133333e+08,-67.1838
2.773866667e+08,-66.5078
2.777600000e+08,-59.0647
2.781333333e+08,-55.2202
2.785066667e+08,-62.8068
2.788800000e+08,-64.547
2.792533333e+08,-65.8777
2.796266667e+08,-63.9926
2.800000000e+08,-64.6772

