81pt45/tek0038NRM.csv

Model,MDO3104
Firmware Version,1.30

Waveform Type,RF_FD
Point Format,Y
Horizontal Units,Hz
Horizontal Scale,2.8e+07
,
Sample Interval,373333
Record Length,751
Gating,0.133155792277% to 100.0%
Probe Attenuation,1
Vertical Units,dBm
Vertical Offset,0
Vertical Scale,10
Vertical Position,0
Center Frequency,1.4e+08
Span,2.8e+08
Reference Level,-15
Label,
FREQUENCY,FD NORM
0.000000000e+00,-69.4881
3.733333333e+05,-76.5959
7.466666667e+05,-87.6465
1.120000000e+06,-81.4936
1.493333333e+06,-72.2812
1.866666667e+06,-69.5558
2.240000000e+06,-67.3639
2.613333333e+06,-65.9811
2.986666667e+06,-62.1399
3.360000000e+06,-58.7514
3.733333333e+06,-56.8289
4.106666667e+06,-58.2304
4.480000000e+06,-58.0809
4.853333333e+06,-57.0623
5.226666667e+06,-64.717
5.600000000e+06,-61.5251
5.973333333e+06,-63.1892
6.346666667e+06,-62.6513
6.720000000e+06,-63.5877
7.093333333e+06,-56.4949
7.466666667e+06,-58.6586
7.840000000e+06,-58.2161
8.213333333e+06,-54.8513
8.586666667e+06,-54.8648
8.960000000e+06,-56.0889
9.333333333e+06,-56.4899
9.706666667e+06,-55.1786
1.008000000e+07,-56.3299
1.045333333e+07,-53.3811
1.082666667e+07,-58.0258
1.120000000e+07,-58.5727
1.157333333e+07,-62.2308
1.194666667e+07,-58.0611
1.232000000e+07,-58.4983
1.269333333e+07,-60.3018
1.306666667e+07,-55.3865
1.344000000e+07,-51.827
1.381333333e+07,-51.5821
1.418666667e+07,-51.0757
1.456000000e+07,-52.0448
1.493333333e+07,-52.6516
1.530666667e+07,-49.4585
1.568000000e+07,-48.9415
1.605333333e+07,-50.3992
1.642666667e+07,-59.6117
1.680000000e+07,-52.926
1.717333333e+07,-53.889
1.754666667e+07,-55.4052
1.792000000e+07,-57.8729
1.829333333e+07,-54.5306
1.866666667e+07,-56.5081
1.904000000e+07,-51.8355
1.941333333e+07,-52.9144
1.978666667e+07,-51.1386
2.016000000e+07,-47.2477
2.053333333e+07,-47.1574
2.090666667e+07,-50.4319
2.128000000e+07,-50.7015
2.165333333e+07,-50.3873
2.202666667e+07,-51.283
2.240000000e+07,-52.7702
2.277333333e+07,-52.607
2.314666667e+07,-53.7517
2.352000000e+07,-56.0935
2.389333333e+07,-54.1277
2.426666667e+07,-54.4469
2.464000000e+07,-54.2834
2.501333333e+07,-53.1775
2.538666667e+07,-50.3014
2.576000000e+07,-49.9168
2.613333333e+07,-48.634
2.650666667e+07,-49.2229
2.688000000e+07,-50.8989
2.725333333e+07,-48.9423
2.762666667e+07,-47.3668
2.800000000e+07,-49.5841
2.837333333e+07,-52.0829
2.874666667e+07,-54.439
2.912000000e+07,-54.9444
2.949333333e+07,-54.2827
2.986666667e+07,-54.1793
3.024000000e+07,-56.7853
3.061333333e+07,-58.1205
3.098666667e+07,-53.3643
3.136000000e+07,-53.5827
3.173333333e+07,-51.3079
3.210666667e+07,-48.6965
3.248000000e+07,-47.8731
3.285333333e+07,-49.7572
3.322666667e+07,-52.0053
3.360000000e+07,-50.7027
3.397333333e+07,-52.1897
3.434666667e+07,-53.2778
3.472000000e+07,-51.5549
3.509333333e+07,-58.2406
3.546666667e+07,-58.3516
3.584000000e+07,-60.5225
3.621333333e+07,-61.7748
3.658666667e+07,-59.0644
3.696000000e+07,-58.0116
3.733333333e+07,-55.5162
3.770666667e+07,-57.3295
3.808000000e+07,-57.5873
3.845333333e+07,-55.0308
3.882666667e+07,-55.3958
3.920000000e+07,-53.449
3.957333333e+07,-51.9784
3.994666667e+07,-54.2689
4.032000000e+07,-56.6515
4.069333333e+07,-54.3617
4.106666667e+07,-56.5782
4.144000000e+07,-59.3502
4.181333333e+07,-59.9467
4.218666667e+07,-59.9014
4.256000000e+07,-68.7118
4.293333333e+07,-58.8833
4.330666667e+07,-56.9538
4.368000000e+07,-54.1051
4.405333333e+07,-54.9417
4.442666667e+07,-57.4539
4.480000000e+07,-59.5724
4.517333333e+07,-59.5969
4.554666667e+07,-58.9308
4.592000000e+07,-60.147
4.629333333e+07,-57.2011
4.666666667e+07,-63.3716
4.704000000e+07,-61.6659
4.741333333e+07,-63.2438
4.778666667e+07,-56.6843
4.816000000e+07,-57.9934
4.853333333e+07,-64.3541
4.890666667e+07,-63.7456
4.928000000e+07,-58.9978
4.965333333e+07,-72.4265
5.002666667e+07,-64.6617
5.040000000e+07,-67.6007
5.077333333e+07,-64.9938
5.114666667e+07,-60.5968
5.152000000e+07,-59.7211
5.189333333e+07,-53.6551
5.226666667e+07,-57.3076
5.264000000e+07,-57.8635
5.301333333e+07,-59.0839
5.338666667e+07,-58.1846
5.376000000e+07,-60.1819
5.413333333e+07,-60.0961
5.450666667e+07,-55.2032
5.488000000e+07,-56.507
5.525333333e+07,-52.2062
5.562666667e+07,-52.8841
5.600000000e+07,-52.3991
5.637333333e+07,-52.7973
5.674666667e+07,-51.2584
5.712000000e+07,-46.7422
5.749333333e+07,-47.2492
5.786666667e+07,-50.7457
5.824000000e+07,-50.4527
5.861333333e+07,-52.231
5.898666667e+07,-51.1522
5.936000000e+07,-52.2572
5.973333333e+07,-35.5795
6.010666667e+07,-33.1867
6.048000000e+07,-51.3961
6.085333333e+07,-51.3122
6.122666667e+07,-50.1101
6.160000000e+07,-48.3179
6.197333333e+07,-46.4379
6.234666667e+07,-46.4875
6.272000000e+07,-46.3669
6.309333333e+07,-44.073
6.346666667e+07,-44.381
6.384000000e+07,-45.1243
6.421333333e+07,-47.308
6.458666667e+07,-49.9242
6.496000000e+07,-50.2323
6.533333333e+07,-47.1506
6.570666667e+07,-50.7974
6.608000000e+07,-55.0697
6.645333333e+07,-52.3679
6.682666667e+07,-49.9755
6.720000000e+07,-46.2088
6.757333333e+07,-44.7577
6.794666667e+07,-44.7854
6.832000000e+07,-45.1616
6.869333333e+07,-47.7278
6.906666667e+07,-47.1813
6.944000000e+07,-46.7426
6.981333333e+07,-46.657
7.018666667e+07,-49.5901
7.056000000e+07,-53.0531
7.093333333e+07,-55.5527
7.130666667e+07,-58.9071
7.168000000e+07,-51.4893
7.205333333e+07,-51.5013
7.242666667e+07,-52.882
7.280000000e+07,-54.9001
7.317333333e+07,-54.5859
7.354666667e+07,-56.7986
7.392000000e+07,-52.7448
7.429333333e+07,-51.2618
7.466666667e+07,-49.8117
7.504000000e+07,-49.8689
7.541333333e+07,-50.573
7.578666667e+07,-53.6458
7.616000000e+07,-50.2344
7.653333333e+07,-49.1088
7.690666667e+07,-54.5913
7.728000000e+07,-57.7953
7.765333333e+07,-55.3138
7.802666667e+07,-58.5154
7.840000000e+07,-59.5336
7.877333333e+07,-54.7349
7.914666667e+07,-51.2366
7.952000000e+07,-51.2875
7.989333333e+07,-52.8839
8.026666667e+07,-53.3691
8.064000000e+07,-55.5222
8.101333333e+07,-55.321
8.138666667e+07,-55.4123
8.176000000e+07,-56.3343
8.213333333e+07,-62.0188
8.250666667e+07,-60.0883
8.288000000e+07,-63.1416
8.325333333e+07,-68.3363
8.362666667e+07,-52.8326
8.400000000e+07,-52.2101
8.437333333e+07,-54.4239
8.474666667e+07,-53.1949
8.512000000e+07,-63.218
8.549333333e+07,-66.8425
8.586666667e+07,-65.8319
8.624000000e+07,-60.1634
8.661333333e+07,-60.0725
8.698666667e+07,-54.0891
8.736000000e+07,-51.4333
8.773333333e+07,-62.0136
8.810666667e+07,-66.7191
8.848000000e+07,-59.9723
8.885333333e+07,-61.4201
8.922666667e+07,-66.0895
8.960000000e+07,-61.9172
8.997333333e+07,-59.5004
9.034666667e+07,-66.8021
9.072000000e+07,-68.1475
9.109333333e+07,-69.0842
9.146666667e+07,-65.9458
9.184000000e+07,-68.1267
9.221333333e+07,-70.5789
9.258666667e+07,-54.1385
9.296000000e+07,-56.7173
9.333333333e+07,-69.492
9.370666667e+07,-68.537
9.408000000e+07,-63.2336
9.445333333e+07,-63.804
9.482666667e+07,-69.5633
9.520000000e+07,-53.1399
9.557333333e+07,-51.8306
9.594666667e+07,-55.2995
9.632000000e+07,-56.7636
9.669333333e+07,-70.9573
9.706666667e+07,-67.7834
9.744000000e+07,-69.572
9.781333333e+07,-56.3891
9.818666667e+07,-53.7672
9.856000000e+07,-59.2039
9.893333333e+07,-70.5628
9.930666667e+07,-67.8835
9.968000000e+07,-74.9712
1.000533333e+08,-65.8457
1.004266667e+08,-62.696
1.008000000e+08,-52.3492
1.011733333e+08,-54.3782
1.015466667e+08,-65.0903
1.019200000e+08,-62.6029
1.022933333e+08,-64.82
1.026666667e+08,-64.1992
1.030400000e+08,-60.6155
1.034133333e+08,-55.0753
1.037866667e+08,-55.7885
1.041600000e+08,-70.0537
1.045333333e+08,-69.8654
1.049066667e+08,-67.5444
1.052800000e+08,-73.5374
1.056533333e+08,-61.6415
1.060266667e+08,-53.4776
1.064000000e+08,-50.875
1.067733333e+08,-54.2023
1.071466667e+08,-60.5866
1.075200000e+08,-64.4033
1.078933333e+08,-51.0437
1.082666667e+08,-54.0198
1.086400000e+08,-59.2652
1.090133333e+08,-52.947
1.093866667e+08,-53.5372
1.097600000e+08,-61.3005
1.101333333e+08,-67.8429
1.105066667e+08,-64.8245
1.108800000e+08,-62.0068
1.112533333e+08,-64.1908
1.116266667e+08,-52.8619
1.120000000e+08,-51.3857
1.123733333e+08,-59.9401
1.127466667e+08,-59.8088
1.131200000e+08,-67.7599
1.134933333e+08,-63.9921
1.138666667e+08,-64.2446
1.142400000e+08,-56.8997
1.146133333e+08,-52.6865
1.149866667e+08,-65.4208
1.153600000e+08,-65.4471
1.157333333e+08,-66.2867
1.161066667e+08,-67.1496
1.164800000e+08,-63.0246
1.168533333e+08,-58.6535
1.172266667e+08,-48.8345
1.176000000e+08,-53.2583
1.179733333e+08,-69.5733
1.183466667e+08,-73.2845
1.187200000e+08,-70.2375
1.190933333e+08,-70.8491
1.194666667e+08,-62.1696
1.198400000e+08,-36.0653
1.202133333e+08,-36.8009
1.205866667e+08,-68.2248
1.209600000e+08,-72.4594
1.213333333e+08,-69.19
1.217066667e+08,-79.0741
1.220800000e+08,-73.3097
1.224533333e+08,-51.0912
1.228266667e+08,-49.6894
1.232000000e+08,-67.3485
1.235733333e+08,-68.4601
1.239466667e+08,-64.9935
1.243200000e+08,-71.075
1.246933333e+08,-65.9706
1.250666667e+08,-58.081
1.254400000e+08,-52.1074
1.258133333e+08,-61.8519
1.261866667e+08,-64.4855
1.265600000e+08,-66.9683
1.269333333e+08,-67.1056
1.273066667e+08,-62.3047
1.276800000e+08,-60.243
1.280533333e+08,-51.0893
1.284266667e+08,-55.184
1.288000000e+08,-65.6213
1.291733333e+08,-66.7603
1.295466667e+08,-62.6721
1.299200000e+08,-61.6892
1.302933333e+08,-61.8776
1.306666667e+08,-52.6209
1.310400000e+08,-52.9695
1.314133333e+08,-61.9656
1.317866667e+08,-53.102
1.321600000e+08,-51.4486
1.325333333e+08,-65.8812
1.329066667e+08,-67.3716
1.332800000e+08,-52.6705
1.336533333e+08,-51.6334
1.340266667e+08,-54.4256
1.344000000e+08,-64.2668
1.347733333e+08,-66.7633
1.351466667e+08,-64.8899
1.355200000e+08,-60.9031
1.358933333e+08,-58.953
1.362666667e+08,-52.589
1.366400000e+08,-52.5997
1.370133333e+08,-65.7303
1.373866667e+08,-68.2718
1.377600000e+08,-68.3144
1.381333333e+08,-71.6823
1.385066667e+08,-66.8846
1.388800000e+08,-52.9732
1.392533333e+08,-50.4692
1.396266667e+08,-64.7816
1.400000000e+08,-63.747
1.403733333e+08,-69.7999
1.407466667e+08,-68.2917
1.411200000e+08,-65.8352
1.414933333e+08,-56.4626
1.418666667e+08,-52.6856
1.422400000e+08,-58.5561
1.426133333e+08,-65.1879
1.429866667e+08,-67.3756
1.433600000e+08,-77.227
1.437333333e+08,-57.238
1.441066667e+08,-53.0452
1.444800000e+08,-48.4793
1.448533333e+08,-50.5081
1.452266667e+08,-65.5188
1.456000000e+08,-66.1931
1.459733333e+08,-68.224
1.463466667e+08,-63.6047
1.467200000e+08,-71.9383
1.470933333e+08,-50.8962
1.474666667e+08,-50.4373
1.478400000e+08,-73.9049
1.482133333e+08,-67.72
1.485866667e+08,-68.4205
1.489600000e+08,-69.0982
1.493333333e+08,-69.7393
1.497066667e+08,-50.7639
1.500800000e+08,-47.9192
1.504533333e+08,-62.2717
1.508266667e+08,-66.2389
1.512000000e+08,-70.2473
1.515733333e+08,-66.9142
1.519466667e+08,-67.3847
1.523200000e+08,-57.8535
1.526933333e+08,-50.987
1.530666667e+08,-58.9523
1.534400000e+08,-67.4261
1.538133333e+08,-68.6546
1.541866667e+08,-76.6866
1.545600000e+08,-75.0221
1.549333333e+08,-61.7936
1.553066667e+08,-49.0127
1.556800000e+08,-51.1984
1.560533333e+08,-49.2076
1.564266667e+08,-61.6773
1.568000000e+08,-65.1273
1.571733333e+08,-67.9155
1.575466667e+08,-67.0574
1.579200000e+08,-51.2906
1.582933333e+08,-51.4238
1.586666667e+08,-66.5378
1.590400000e+08,-74.4171
1.594133333e+08,-61.5106
1.597866667e+08,-65.7184
1.601600000e+08,-68.2769
1.605333333e+08,-51.2676
1.609066667e+08,-48.9671
1.612800000e+08,-52.5893
1.616533333e+08,-63.0089
1.620266667e+08,-63.2585
1.624000000e+08,-66.5133
1.627733333e+08,-67.6576
1.631466667e+08,-61.7296
1.635200000e+08,-54.5583
1.638933333e+08,-57.3588
1.642666667e+08,-64.8143
1.646400000e+08,-63.1426
1.650133333e+08,-63.5385
1.653866667e+08,-62.6614
1.657600000e+08,-64.5592
1.661333333e+08,-52.0634
1.665066667e+08,-49.9471
1.668800000e+08,-58.2068
1.672533333e+08,-61.9347
1.676266667e+08,-62.3096
1.680000000e+08,-62.9573
1.683733333e+08,-60.7535
1.687466667e+08,-56.7156
1.691200000e+08,-53.2133
1.694933333e+08,-56.6497
1.698666667e+08,-63.5723
1.702400000e+08,-65.8949
1.706133333e+08,-63.6568
1.709866667e+08,-64.9594
1.713600000e+08,-56.0603
1.717333333e+08,-47.2956
1.721066667e+08,-48.0921
1.724800000e+08,-64.3916
1.728533333e+08,-68.4971
1.732266667e+08,-69.1389
1.736000000e+08,-64.4284
1.739733333e+08,-65.1616
1.743466667e+08,-54.3885
1.747200000e+08,-52.3084
1.750933333e+08,-70.2865
1.754666667e+08,-64.6968
1.758400000e+08,-63.4922
1.762133333e+08,-63.9962
1.765866667e+08,-68.5974
1.769600000e+08,-53.4881
1.773333333e+08,-47.3312
1.777066667e+08,-58.4987
1.780800000e+08,-66.7946
1.784533333e+08,-66.7232
1.788266667e+08,-65.6329
1.792000000e+08,-72.5639
1.795733333e+08,-62.857
1.799466667e+08,-50.0752
1.803200000e+08,-54.8631
1.806933333e+08,-69.7697
1.810666667e+08,-71.4649
1.814400000e+08,-68.3463
1.818133333e+08,-72.9772
1.821866667e+08,-64.6359
1.825600000e+08,-46.6573
1.829333333e+08,-47.8655
1.833066667e+08,-62.7652
1.836800000e+08,-67.8975
1.840533333e+08,-70.8489
1.844266667e+08,-67.2046
1.848000000e+08,-61.5281
1.851733333e+08,-53.4413
1.855466667e+08,-52.353
1.859200000e+08,-62.8641
1.862933333e+08,-64.3249
1.866666667e+08,-68.56
1.870400000e+08,-64.611
1.874133333e+08,-61.8771
1.877866667e+08,-51.7079
1.881600000e+08,-47.3087
1.885333333e+08,-52.1642
1.889066667e+08,-64.8378
1.892800000e+08,-64.0189
1.896533333e+08,-67.9998
1.900266667e+08,-64.4355
1.904000000e+08,-60.27
1.907733333e+08,-51.8732
1.911466667e+08,-54.3672
1.915200000e+08,-63.5495
1.918933333e+08,-54.0692
1.922666667e+08,-54.8531
1.926400000e+08,-65.2074
1.930133333e+08,-60.9575
1.933866667e+08,-48.4879
1.937600000e+08,-48.8514
1.941333333e+08,-54.4132
1.945066667e+08,-58.9306
1.948800000e+08,-62.7309
1.952533333e+08,-71.1663
1.956266667e+08,-58.7029
1.960000000e+08,-54.785
1.963733333e+08,-52.1565
1.967466667e+08,-54.8559
1.971200000e+08,-67.0035
1.974933333e+08,-65.7769
1.978666667e+08,-62.5404
1.982400000e+08,-62.2083
1.986133333e+08,-56.9835
1.989866667e+08,-49.2896
1.993600000e+08,-48.7574
1.997333333e+08,-56.3503
2.001066667e+08,-63.6305
2.004800000e+08,-62.8767
2.008533333e+08,-63.9935
2.012266667e+08,-60.019
2.016000000e+08,-54.1509
2.019733333e+08,-52.4223
2.023466667e+08,-63.1664
2.027200000e+08,-65.0115
2.030933333e+08,-66.3599
2.034666667e+08,-60.5973
2.038400000e+08,-46.5789
2.042133333e+08,-48.5537
2.045866667e+08,-46.7402
2.049600000e+08,-54.1623
2.053333333e+08,-62.6394
2.057066667e+08,-69.1189
2.060800000e+08,-73.8249
2.064533333e+08,-65.2119
2.068266667e+08,-62.253
2.072000000e+08,-51.087
2.075733333e+08,-54.0981
2.079466667e+08,-67.1296
2.083200000e+08,-65.5361
2.086933333e+08,-66.2548
2.090666667e+08,-66.8611
2.094400000e+08,-70.9367
2.098133333e+08,-46.1639
2.101866667e+08,-46.2889
2.105600000e+08,-65.8069
2.109333333e+08,-71.263
2.113066667e+08,-66.7099
2.116800000e+08,-61.0683
2.120533333e+08,-60.317
2.124266667e+08,-54.1566
2.128000000e+08,-52.0957
2.131733333e+08,-60.3304
2.135466667e+08,-58.9911
2.139200000e+08,-65.0467
2.142933333e+08,-72.4508
2.146666667e+08,-67.1236
2.150400000e+08,-53.4995
2.154133333e+08,-46.3795
2.157866667e+08,-52.7633
2.161600000e+08,-61.8717
2.165333333e+08,-66.3526
2.169066667e+08,-65.4193
2.172800000e+08,-65.0929
2.176533333e+08,-63.1493
2.180266667e+08,-55.138
2.184000000e+08,-58.0175
2.187733333e+08,-65.8988
2.191466667e+08,-62.9025
2.195200000e+08,-59.8274
2.198933333e+08,-63.6901
2.202666667e+08,-62.2632
2.206400000e+08,-47.3887
2.210133333e+08,-47.9991
2.213866667e+08,-55.4803
2.217600000e+08,-61.8087
2.221333333e+08,-59.5913
2.225066667e+08,-67.1878
2.228800000e+08,-61.0013
2.232533333e+08,-54.1409
2.236266667e+08,-52.2425
2.240000000e+08,-55.6482
2.243733333e+08,-65.9096
2.247466667e+08,-63.4998
2.251200000e+08,-64.8288
2.254933333e+08,-61.3245
2.258666667e+08,-56.3125
2.262400000e+08,-49.5923
2.266133333e+08,-48.6279
2.269866667e+08,-59.5086
2.273600000e+08,-61.4881
2.277333333e+08,-50.8564
2.281066667e+08,-49.4521
2.284800000e+08,-63.9629
2.288533333e+08,-55.5109
2.292266667e+08,-53.6211
2.296000000e+08,-61.4606
2.299733333e+08,-66.2351
2.303466667e+08,-64.8384
2.307200000e+08,-63.5786
2.310933333e+08,-58.5258
2.314666667e+08,-53.9909
2.318400000e+08,-46.8737
2.322133333e+08,-51.6547
2.325866667e+08,-63.5882
2.329600000e+08,-64.3417
2.333333333e+08,-62.2463
2.337066667e+08,-61.903
2.340800000e+08,-63.0946
2.344533333e+08,-52.9858
2.348266667e+08,-54.8076
2.352000000e+08,-69.6741
2.355733333e+08,-62.3959
2.359466667e+08,-70.771
2.363200000e+08,-65.1677
2.366933333e+08,-62.8384
2.370666667e+08,-47.0349
2.374400000e+08,-45.9807
2.378133333e+08,-67.0007
2.381866667e+08,-70.748
2.385600000e+08,-70.1051
2.389333333e+08,-69.8795
2.393066667e+08,-69.9068
2.396800000e+08,-53.7453
2.400533333e+08,-51.6303
2.404266667e+08,-52.646
2.408000000e+08,-71.7559
2.411733333e+08,-68.5237
2.415466667e+08,-70.0871
2.419200000e+08,-69.3289
2.422933333e+08,-57.6676
2.426666667e+08,-46.8051
2.430400000e+08,-52.7939
2.434133333e+08,-69.0823
2.437866667e+08,-60.572
2.441600000e+08,-61.1195
2.445333333e+08,-70.2311
2.449066667e+08,-63.1423
2.452800000e+08,-52.7569
2.456533333e+08,-54.1625
2.460266667e+08,-67.2678
2.464000000e+08,-67.9263
2.467733333e+08,-68.4806
2.471466667e+08,-67.7163
2.475200000e+08,-61.0787
2.478933333e+08,-47.1799
2.482666667e+08,-46.6416
2.486400000e+08,-55.0366
2.490133333e+08,-63.9434
2.493866667e+08,-66.5633
2.497600000e+08,-67.5617
2.501333333e+08,-68.2697
2.505066667e+08,-56.6557
2.508800000e+08,-54.4355
2.512533333e+08,-60.1477
2.516266667e+08,-59.7324
2.520000000e+08,-47.6519
2.523733333e+08,-53.5495
2.527466667e+08,-63.2431
2.531200000e+08,-57.7648
2.534933333e+08,-49.3103
2.538666667e+08,-50.8528
2.542400000e+08,-62.6576
2.546133333e+08,-62.1278
2.549866667e+08,-66.1599
2.553600000e+08,-65.7414
2.557333333e+08,-66.6427
2.561066667e+08,-54.7438
2.564800000e+08,-53.5616
2.568533333e+08,-64.956
2.572266667e+08,-69.6098
2.576000000e+08,-66.0558
2.579733333e+08,-64.1844
2.583466667e+08,-62.9389
2.587200000e+08,-53.3037
2.590933333e+08,-48.5206
2.594666667e+08,-50.6025
2.598400000e+08,-69.0495
2.602133333e+08,-62.8373
2.605866667e+08,-66.7743
2.609600000e+08,-70.7321
2.613333333e+08,-59.0649
2.617066667e+08,-53.5008
2.620800000e+08,-54.0524
2.624533333e+08,-65.8165
2.628266667e+08,-65.5587
2.632000000e+08,-66.4643
2.635733333e+08,-72.0249
2.639466667e+08,-57.0238
2.643200000e+08,-49.4302
2.646933333e+08,-47.5627
2.650666667e+08,-62.1743
2.654400000e+08,-66.6819
2.658133333e+08,-69.8041
2.661866667e+08,-69.0748
2.665600000e+08,-68.5208
2.669333333e+08,-62.9723
2.673066667e+08,-55.4371
2.676800000e+08,-66.6026
2.680533333e+08,-66.8179
2.684266667e+08,-68.0046
2.688000000e+08,-67.253
2.691733333e+08,-65.7659
2.695466667e+08,-63.8732
2.699200000e+08,-50.6353
2.702933333e+08,-54.44
2.706666667e+08,-68.6657
2.710400000e+08,-69.3827
2.714133333e+08,-64.842
2.717866667e+08,-65.5215
2.721600000e+08,-70.5561
2.725333333e+08,-53.4818
2.729066667e+08,-54.1064
2.732800000e+08,-70.5943
2.736533333e+08,-70.7501
2.740266667e+08,-70.1332
2.744000000e+08,-67.8398
2.747733333e+08,-66.0765
2.751466667e+08,-49.561
2.755200000e+08,-47.693
2.758933333e+08,-45.3297
2.762666667e+08,-47.4044
2.766400000e+08,-61.7533
2.770133333e+08,-67.628
2.773866667e+08,-63.0891
2.777600000e+08,-65.0197
2.781333333e+08,-55.191
2.785066667e+08,-62.204
2.788800000e+08,-66.8364
2.792533333e+08,-64.1147
2.796266667e+08,-66.8368
2.800000000e+08,-64.6376

