81pt45/tek0082NRM.csv

Model,MDO3104
Firmware Version,1.30

Waveform Type,RF_FD
Point Format,Y
Horizontal Units,Hz
Horizontal Scale,2.8e+07
,
Sample Interval,373333
Record Length,751
Gating,0.133155792277% to 100.0%
Probe Attenuation,1
Vertical Units,dBm
Vertical Offset,0
Vertical Scale,10
Vertical Position,0
Center Frequency,1.4e+08
Span,2.8e+08
Reference Level,-15
Label,
FREQUENCY,FD NORM
0.000000000e+00,-63.0802
3.733333333e+05,-71.2625
7.466666667e+05,-83.0243
1.120000000e+06,-76.4663
1.493333333e+06,-70.6361
1.866666667e+06,-67.4464
2.240000000e+06,-71.2401
2.613333333e+06,-64.3779
2.986666667e+06,-72.3765
3.360000000e+06,-62.0431
3.733333333e+06,-64.8403
4.106666667e+06,-62.6332
4.480000000e+06,-61.8166
4.853333333e+06,-65.971
5.226666667e+06,-66.0487
5.600000000e+06,-67.5234
5.973333333e+06,-69.694
6.346666667e+06,-73.1655
6.720000000e+06,-76.9559
7.093333333e+06,-81.7132
7.466666667e+06,-68.9882
7.840000000e+06,-63.9229
8.213333333e+06,-64.938
8.586666667e+06,-66.2471
8.960000000e+06,-68.0318
9.333333333e+06,-71.864
9.706666667e+06,-69.0322
1.008000000e+07,-67.8714
1.045333333e+07,-68.5061
1.082666667e+07,-68.8189
1.120000000e+07,-72.44
1.157333333e+07,-71.4462
1.194666667e+07,-61.7122
1.232000000e+07,-63.26
1.269333333e+07,-74.9611
1.306666667e+07,-72.1454
1.344000000e+07,-64.1798
1.381333333e+07,-72.0253
1.418666667e+07,-71.5648
1.456000000e+07,-71.961
1.493333333e+07,-69.9103
1.530666667e+07,-70.9541
1.568000000e+07,-64.8567
1.605333333e+07,-60.9363
1.642666667e+07,-62.8056
1.680000000e+07,-64.6315
1.717333333e+07,-65.5811
1.754666667e+07,-66.7565
1.792000000e+07,-67.2652
1.829333333e+07,-67.2876
1.866666667e+07,-73.8485
1.904000000e+07,-70.0192
1.941333333e+07,-69.1086
1.978666667e+07,-73.7168
2.016000000e+07,-71.9383
2.053333333e+07,-71.2959
2.090666667e+07,-64.1096
2.128000000e+07,-71.1835
2.165333333e+07,-68.3613
2.202666667e+07,-68.0069
2.240000000e+07,-65.4121
2.277333333e+07,-64.943
2.314666667e+07,-76.1415
2.352000000e+07,-67.4222
2.389333333e+07,-65.5591
2.426666667e+07,-64.1967
2.464000000e+07,-59.5034
2.501333333e+07,-52.8007
2.538666667e+07,-58.8597
2.576000000e+07,-65.3404
2.613333333e+07,-65.224
2.650666667e+07,-69.0393
2.688000000e+07,-67.777
2.725333333e+07,-60.0668
2.762666667e+07,-62.9998
2.800000000e+07,-69.175
2.837333333e+07,-69.8981
2.874666667e+07,-70.1356
2.912000000e+07,-68.2166
2.949333333e+07,-64.5922
2.986666667e+07,-60.108
3.024000000e+07,-63.5548
3.061333333e+07,-68.024
3.098666667e+07,-70.253
3.136000000e+07,-68.5108
3.173333333e+07,-69.8386
3.210666667e+07,-69.1437
3.248000000e+07,-62.0435
3.285333333e+07,-59.8303
3.322666667e+07,-68.8702
3.360000000e+07,-70.644
3.397333333e+07,-71.67
3.434666667e+07,-70.5079
3.472000000e+07,-67.4292
3.509333333e+07,-59.6583
3.546666667e+07,-58.4991
3.584000000e+07,-62.2649
3.621333333e+07,-60.7042
3.658666667e+07,-63.7862
3.696000000e+07,-69.4046
3.733333333e+07,-70.1607
3.770666667e+07,-61.6588
3.808000000e+07,-58.7513
3.845333333e+07,-68.7598
3.882666667e+07,-66.7282
3.920000000e+07,-73.3509
3.957333333e+07,-74.9017
3.994666667e+07,-74.9537
4.032000000e+07,-65.8403
4.069333333e+07,-59.4857
4.106666667e+07,-62.1322
4.144000000e+07,-65.5483
4.181333333e+07,-67.8822
4.218666667e+07,-67.5953
4.256000000e+07,-73.6987
4.293333333e+07,-66.7123
4.330666667e+07,-61.4221
4.368000000e+07,-60.4068
4.405333333e+07,-59.7244
4.442666667e+07,-67.9354
4.480000000e+07,-68.2486
4.517333333e+07,-71.2228
4.554666667e+07,-65.3329
4.592000000e+07,-60.4418
4.629333333e+07,-60.3933
4.666666667e+07,-57.0248
4.704000000e+07,-57.4029
4.741333333e+07,-58.8019
4.778666667e+07,-50.8527
4.816000000e+07,-51.471
4.853333333e+07,-56.3176
4.890666667e+07,-55.8911
4.928000000e+07,-60.1996
4.965333333e+07,-60.1647
5.002666667e+07,-62.85
5.040000000e+07,-60.1151
5.077333333e+07,-62.7652
5.114666667e+07,-65.7959
5.152000000e+07,-63.1631
5.189333333e+07,-56.4835
5.226666667e+07,-58.8599
5.264000000e+07,-61.3797
5.301333333e+07,-66.616
5.338666667e+07,-68.4347
5.376000000e+07,-62.0485
5.413333333e+07,-60.776
5.450666667e+07,-52.5859
5.488000000e+07,-53.3263
5.525333333e+07,-69.0598
5.562666667e+07,-67.0757
5.600000000e+07,-63.3027
5.637333333e+07,-65.9991
5.674666667e+07,-67.1528
5.712000000e+07,-53.4961
5.749333333e+07,-52.7333
5.786666667e+07,-65.121
5.824000000e+07,-70.2433
5.861333333e+07,-62.3988
5.898666667e+07,-58.3945
5.936000000e+07,-55.3017
5.973333333e+07,-34.7692
6.010666667e+07,-32.7742
6.048000000e+07,-53.7584
6.085333333e+07,-55.0745
6.122666667e+07,-56.2389
6.160000000e+07,-58.753
6.197333333e+07,-66.1662
6.234666667e+07,-59.3818
6.272000000e+07,-55.5313
6.309333333e+07,-59.9102
6.346666667e+07,-67.7614
6.384000000e+07,-67.4356
6.421333333e+07,-60.8746
6.458666667e+07,-62.8435
6.496000000e+07,-61.0887
6.533333333e+07,-52.8898
6.570666667e+07,-55.5037
6.608000000e+07,-58.6059
6.645333333e+07,-59.5467
6.682666667e+07,-61.1382
6.720000000e+07,-62.8454
6.757333333e+07,-67.9365
6.794666667e+07,-55.992
6.832000000e+07,-58.7975
6.869333333e+07,-59.887
6.906666667e+07,-73.2727
6.944000000e+07,-64.1848
6.981333333e+07,-64.2468
7.018666667e+07,-62.5165
7.056000000e+07,-55.6904
7.093333333e+07,-53.9031
7.130666667e+07,-59.4462
7.168000000e+07,-57.2559
7.205333333e+07,-57.1216
7.242666667e+07,-57.4261
7.280000000e+07,-59.0144
7.317333333e+07,-58.3727
7.354666667e+07,-60.5075
7.392000000e+07,-58.6717
7.429333333e+07,-65.1023
7.466666667e+07,-64.4734
7.504000000e+07,-62.0251
7.541333333e+07,-61.885
7.578666667e+07,-61.0899
7.616000000e+07,-60.5378
7.653333333e+07,-58.4129
7.690666667e+07,-64.7082
7.728000000e+07,-63.1537
7.765333333e+07,-63.1029
7.802666667e+07,-65.7667
7.840000000e+07,-60.9934
7.877333333e+07,-61.4649
7.914666667e+07,-54.0055
7.952000000e+07,-55.4892
7.989333333e+07,-64.6436
8.026666667e+07,-64.6976
8.064000000e+07,-62.7434
8.101333333e+07,-60.614
8.138666667e+07,-63.7563
8.176000000e+07,-54.5374
8.213333333e+07,-54.3191
8.250666667e+07,-66.5155
8.288000000e+07,-62.7693
8.325333333e+07,-64.7859
8.362666667e+07,-58.2646
8.400000000e+07,-53.0254
8.437333333e+07,-54.0434
8.474666667e+07,-52.3091
8.512000000e+07,-61.8409
8.549333333e+07,-66.5683
8.586666667e+07,-71.0783
8.624000000e+07,-69.3447
8.661333333e+07,-65.5542
8.698666667e+07,-57.583
8.736000000e+07,-53.765
8.773333333e+07,-65.0396
8.810666667e+07,-71.5091
8.848000000e+07,-67.1983
8.885333333e+07,-65.7486
8.922666667e+07,-65.0696
8.960000000e+07,-64.9247
8.997333333e+07,-55.2962
9.034666667e+07,-60.2052
9.072000000e+07,-67.7092
9.109333333e+07,-72.8564
9.146666667e+07,-72.5454
9.184000000e+07,-74.8791
9.221333333e+07,-65.4393
9.258666667e+07,-52.3864
9.296000000e+07,-54.456
9.333333333e+07,-66.9421
9.370666667e+07,-77.5226
9.408000000e+07,-76.6942
9.445333333e+07,-71.1738
9.482666667e+07,-67.668
9.520000000e+07,-51.6417
9.557333333e+07,-52.3138
9.594666667e+07,-50.0323
9.632000000e+07,-55.443
9.669333333e+07,-61.7524
9.706666667e+07,-61.0833
9.744000000e+07,-68.1872
9.781333333e+07,-55.9528
9.818666667e+07,-54.3452
9.856000000e+07,-65.8284
9.893333333e+07,-68.8034
9.930666667e+07,-67.3338
9.968000000e+07,-66.6243
1.000533333e+08,-63.791
1.004266667e+08,-56.492
1.008000000e+08,-52.4026
1.011733333e+08,-56.3247
1.015466667e+08,-58.7053
1.019200000e+08,-66.3972
1.022933333e+08,-64.5286
1.026666667e+08,-63.6632
1.030400000e+08,-59.5746
1.034133333e+08,-54.7981
1.037866667e+08,-58.8832
1.041600000e+08,-59.5839
1.045333333e+08,-72.4261
1.049066667e+08,-66.9762
1.052800000e+08,-67.3446
1.056533333e+08,-62.7409
1.060266667e+08,-55.7789
1.064000000e+08,-55.5213
1.067733333e+08,-56.6577
1.071466667e+08,-60.3788
1.075200000e+08,-59.9699
1.078933333e+08,-53.1892
1.082666667e+08,-60.1426
1.086400000e+08,-59.0337
1.090133333e+08,-54.8364
1.093866667e+08,-54.5384
1.097600000e+08,-69.5507
1.101333333e+08,-69.6414
1.105066667e+08,-70.0871
1.108800000e+08,-67.2679
1.112533333e+08,-60.9317
1.116266667e+08,-55.2878
1.120000000e+08,-49.8078
1.123733333e+08,-60.1462
1.127466667e+08,-69.8824
1.131200000e+08,-63.4349
1.134933333e+08,-66.4439
1.138666667e+08,-63.8653
1.142400000e+08,-63.247
1.146133333e+08,-51.8035
1.149866667e+08,-57.701
1.153600000e+08,-71.2025
1.157333333e+08,-68.6701
1.161066667e+08,-70.6897
1.164800000e+08,-67.4371
1.168533333e+08,-67.4079
1.172266667e+08,-50.3014
1.176000000e+08,-53.6758
1.179733333e+08,-68.1199
1.183466667e+08,-67.6543
1.187200000e+08,-70.6665
1.190933333e+08,-68.4114
1.194666667e+08,-58.0536
1.198400000e+08,-36.3646
1.202133333e+08,-37.0387
1.205866667e+08,-69.9584
1.209600000e+08,-71.7869
1.213333333e+08,-66.7992
1.217066667e+08,-72.4381
1.220800000e+08,-74.9504
1.224533333e+08,-50.1679
1.228266667e+08,-48.5575
1.232000000e+08,-63.0229
1.235733333e+08,-63.7528
1.239466667e+08,-71.371
1.243200000e+08,-69.2772
1.246933333e+08,-64.8292
1.250666667e+08,-53.8339
1.254400000e+08,-51.5081
1.258133333e+08,-65.7317
1.261866667e+08,-64.732
1.265600000e+08,-62.9636
1.269333333e+08,-67.3806
1.273066667e+08,-65.5014
1.276800000e+08,-56.0936
1.280533333e+08,-50.6938
1.284266667e+08,-59.2712
1.288000000e+08,-60.6523
1.291733333e+08,-63.4874
1.295466667e+08,-62.3837
1.299200000e+08,-64.0636
1.302933333e+08,-60.3233
1.306666667e+08,-51.1233
1.310400000e+08,-55.4005
1.314133333e+08,-57.3546
1.317866667e+08,-50.2621
1.321600000e+08,-49.2897
1.325333333e+08,-59.8404
1.329066667e+08,-61.2655
1.332800000e+08,-52.3008
1.336533333e+08,-53.0333
1.340266667e+08,-53.1559
1.344000000e+08,-60.214
1.347733333e+08,-63.441
1.351466667e+08,-64.4278
1.355200000e+08,-63.3569
1.358933333e+08,-57.366
1.362666667e+08,-55.6321
1.366400000e+08,-54.575
1.370133333e+08,-59.7648
1.373866667e+08,-65.8993
1.377600000e+08,-70.1338
1.381333333e+08,-65.6484
1.385066667e+08,-58.2339
1.388800000e+08,-55.1167
1.392533333e+08,-50.1296
1.396266667e+08,-56.2268
1.400000000e+08,-61.8775
1.403733333e+08,-62.4772
1.407466667e+08,-63.0772
1.411200000e+08,-63.1842
1.414933333e+08,-58.4164
1.418666667e+08,-52.7908
1.422400000e+08,-55.7444
1.426133333e+08,-64.3768
1.429866667e+08,-61.3449
1.433600000e+08,-61.9015
1.437333333e+08,-68.1714
1.441066667e+08,-52.1342
1.444800000e+08,-48.0022
1.448533333e+08,-49.0656
1.452266667e+08,-61.5812
1.456000000e+08,-62.4327
1.459733333e+08,-66.8602
1.463466667e+08,-61.6937
1.467200000e+08,-64.7579
1.470933333e+08,-51.9057
1.474666667e+08,-51.1522
1.478400000e+08,-73.4529
1.482133333e+08,-64.7393
1.485866667e+08,-65.9391
1.489600000e+08,-75.8356
1.493333333e+08,-75.6544
1.497066667e+08,-51.2535
1.500800000e+08,-47.6903
1.504533333e+08,-61.7314
1.508266667e+08,-69.3158
1.512000000e+08,-69.9978
1.515733333e+08,-68.0638
1.519466667e+08,-63.42
1.523200000e+08,-62.0731
1.526933333e+08,-52.7184
1.530666667e+08,-63.7241
1.534400000e+08,-68.864
1.538133333e+08,-70.6621
1.541866667e+08,-77.2977
1.545600000e+08,-67.6043
1.549333333e+08,-57.2139
1.553066667e+08,-49.1237
1.556800000e+08,-53.5661
1.560533333e+08,-50.1194
1.564266667e+08,-56.654
1.568000000e+08,-59.6178
1.571733333e+08,-65.4705
1.575466667e+08,-60.0146
1.579200000e+08,-51.4142
1.582933333e+08,-52.3845
1.586666667e+08,-58.5008
1.590400000e+08,-62.898
1.594133333e+08,-68.4465
1.597866667e+08,-68.2266
1.601600000e+08,-60.1921
1.605333333e+08,-49.7158
1.609066667e+08,-49.3001
1.612800000e+08,-52.7621
1.616533333e+08,-56.8584
1.620266667e+08,-62.5672
1.624000000e+08,-67.2295
1.627733333e+08,-64.3656
1.631466667e+08,-56.3717
1.635200000e+08,-53.6757
1.638933333e+08,-58.3655
1.642666667e+08,-62.7813
1.646400000e+08,-61.4316
1.650133333e+08,-62.928
1.653866667e+08,-62.3679
1.657600000e+08,-57.4956
1.661333333e+08,-52.6834
1.665066667e+08,-50.6248
1.668800000e+08,-53.261
1.672533333e+08,-59.4229
1.676266667e+08,-62.4528
1.680000000e+08,-57.8438
1.683733333e+08,-60.8051
1.687466667e+08,-59.9136
1.691200000e+08,-54.4125
1.694933333e+08,-56.3609
1.698666667e+08,-64.0019
1.702400000e+08,-69.6269
1.706133333e+08,-67.7563
1.709866667e+08,-71.0713
1.713600000e+08,-56.7389
1.717333333e+08,-49.2872
1.721066667e+08,-48.9433
1.724800000e+08,-58.902
1.728533333e+08,-61.9561
1.732266667e+08,-71.7069
1.736000000e+08,-67.2671
1.739733333e+08,-64.376
1.743466667e+08,-55.0507
1.747200000e+08,-52.1993
1.750933333e+08,-62.523
1.754666667e+08,-66.2216
1.758400000e+08,-69.8904
1.762133333e+08,-70.1681
1.765866667e+08,-75.9926
1.769600000e+08,-54.2947
1.773333333e+08,-47.2813
1.777066667e+08,-56.1527
1.780800000e+08,-71.4553
1.784533333e+08,-68.395
1.788266667e+08,-67.0688
1.792000000e+08,-66.6559
1.795733333e+08,-51.8155
1.799466667e+08,-39.4367
1.803200000e+08,-45.361
1.806933333e+08,-66.896
1.810666667e+08,-70.1785
1.814400000e+08,-69.668
1.818133333e+08,-69.0831
1.821866667e+08,-61.7475
1.825600000e+08,-46.7334
1.829333333e+08,-48.7294
1.833066667e+08,-63.2338
1.836800000e+08,-67.9778
1.840533333e+08,-66.4402
1.844266667e+08,-66.1448
1.848000000e+08,-67.4661
1.851733333e+08,-53.0752
1.855466667e+08,-52.6925
1.859200000e+08,-62.6508
1.862933333e+08,-67.8039
1.866666667e+08,-70.3918
1.870400000e+08,-65.9966
1.874133333e+08,-65.2814
1.877866667e+08,-51.8231
1.881600000e+08,-48.7916
1.885333333e+08,-57.7015
1.889066667e+08,-62.4308
1.892800000e+08,-62.2229
1.896533333e+08,-62.0451
1.900266667e+08,-60.3563
1.904000000e+08,-56.0646
1.907733333e+08,-53.9965
1.911466667e+08,-57.5193
1.915200000e+08,-60.5996
1.918933333e+08,-53.2373
1.922666667e+08,-51.1463
1.926400000e+08,-59.7752
1.930133333e+08,-56.1704
1.933866667e+08,-50.0204
1.937600000e+08,-50.6755
1.941333333e+08,-52.7368
1.945066667e+08,-62.3016
1.948800000e+08,-64.9506
1.952533333e+08,-62.9702
1.956266667e+08,-60.8691
1.960000000e+08,-55.2899
1.963733333e+08,-56.409
1.967466667e+08,-55.5905
1.971200000e+08,-62.9457
1.974933333e+08,-65.232
1.978666667e+08,-63.848
1.982400000e+08,-62.9866
1.986133333e+08,-54.0602
1.989866667e+08,-51.1327
1.993600000e+08,-48.5147
1.997333333e+08,-56.8189
2.001066667e+08,-61.2226
2.004800000e+08,-61.8078
2.008533333e+08,-62.8387
2.012266667e+08,-63.1555
2.016000000e+08,-58.2895
2.019733333e+08,-51.9388
2.023466667e+08,-64.601
2.027200000e+08,-62.6208
2.030933333e+08,-66.464
2.034666667e+08,-66.1843
2.038400000e+08,-46.5667
2.042133333e+08,-47.3516
2.045866667e+08,-46.6694
2.049600000e+08,-53.5299
2.053333333e+08,-67.1369
2.057066667e+08,-67.3454
2.060800000e+08,-65.6631
2.064533333e+08,-66.5359
2.068266667e+08,-61.4934
2.072000000e+08,-52.3443
2.075733333e+08,-53.5385
2.079466667e+08,-64.1623
2.083200000e+08,-64.2773
2.086933333e+08,-66.3999
2.090666667e+08,-65.8148
2.094400000e+08,-74.7704
2.098133333e+08,-45.5247
2.101866667e+08,-45.6223
2.105600000e+08,-69.3543
2.109333333e+08,-68.0799
2.113066667e+08,-62.8889
2.116800000e+08,-62.471
2.120533333e+08,-70.7861
2.124266667e+08,-55.0414
2.128000000e+08,-52.6006
2.131733333e+08,-60.36
2.135466667e+08,-65.8229
2.139200000e+08,-63.5646
2.142933333e+08,-65.4025
2.146666667e+08,-61.1534
2.150400000e+08,-52.5069
2.154133333e+08,-46.3425
2.157866667e+08,-57.1931
2.161600000e+08,-59.6792
2.165333333e+08,-59.8315
2.169066667e+08,-67.4804
2.172800000e+08,-60.4569
2.176533333e+08,-59.6464
2.180266667e+08,-54.5859
2.184000000e+08,-60.9849
2.187733333e+08,-62.2346
2.191466667e+08,-64.8858
2.195200000e+08,-67.7196
2.198933333e+08,-61.622
2.202666667e+08,-57.3491
2.206400000e+08,-48.6381
2.210133333e+08,-51.2131
2.213866667e+08,-54.9897
2.217600000e+08,-62.234
2.221333333e+08,-59.7414
2.225066667e+08,-59.8801
2.228800000e+08,-61.2097
2.232533333e+08,-53.9083
2.236266667e+08,-54.1666
2.240000000e+08,-56.8779
2.243733333e+08,-59.1278
2.247466667e+08,-62.829
2.251200000e+08,-61.914
2.254933333e+08,-59.7902
2.258666667e+08,-52.6386
2.262400000e+08,-51.1106
2.266133333e+08,-49.0087
2.269866667e+08,-54.4989
2.273600000e+08,-65.1755
2.277333333e+08,-52.896
2.281066667e+08,-48.7769
2.284800000e+08,-61.5432
2.288533333e+08,-56.4946
2.292266667e+08,-55.6911
2.296000000e+08,-60.998
2.299733333e+08,-62.3574
2.303466667e+08,-61.8666
2.307200000e+08,-63.146
2.310933333e+08,-58.0854
2.314666667e+08,-55.8468
2.318400000e+08,-46.8109
2.322133333e+08,-48.9485
2.325866667e+08,-59.2662
2.329600000e+08,-65.8387
2.333333333e+08,-68.7979
2.337066667e+08,-71.7124
2.340800000e+08,-72.7266
2.344533333e+08,-52.5795
2.348266667e+08,-53.1723
2.352000000e+08,-66.7201
2.355733333e+08,-77.8745
2.359466667e+08,-67.9885
2.363200000e+08,-65.9868
2.366933333e+08,-68.2204
2.370666667e+08,-47.5895
2.374400000e+08,-45.979
2.378133333e+08,-63.2748
2.381866667e+08,-72.5709
2.385600000e+08,-71.1667
2.389333333e+08,-73.6138
2.393066667e+08,-71.4124
2.396800000e+08,-52.9073
2.400533333e+08,-48.8801
2.404266667e+08,-53.833
2.408000000e+08,-69.2363
2.411733333e+08,-72.5724
2.415466667e+08,-66.6927
2.419200000e+08,-69.7526
2.422933333e+08,-55.5501
2.426666667e+08,-47.0723
2.430400000e+08,-55.3798
2.434133333e+08,-70.5588
2.437866667e+08,-79.627
2.441600000e+08,-68.1033
2.445333333e+08,-66.5155
2.449066667e+08,-63.5722
2.452800000e+08,-53.3734
2.456533333e+08,-56.0098
2.460266667e+08,-64.1581
2.464000000e+08,-66.092
2.467733333e+08,-69.1248
2.471466667e+08,-66.5672
2.475200000e+08,-58.4426
2.478933333e+08,-47.3938
2.482666667e+08,-47.9112
2.486400000e+08,-55.2839
2.490133333e+08,-60.9792
2.493866667e+08,-63.9146
2.497600000e+08,-64.2722
2.501333333e+08,-62.2339
2.505066667e+08,-55.9879
2.508800000e+08,-55.1167
2.512533333e+08,-58.2895
2.516266667e+08,-57.5428
2.520000000e+08,-49.4217
2.523733333e+08,-57.1096
2.527466667e+08,-62.3261
2.531200000e+08,-52.8331
2.534933333e+08,-50.1888
2.538666667e+08,-52.1044
2.542400000e+08,-56.6282
2.546133333e+08,-63.6945
2.549866667e+08,-60.2969
2.553600000e+08,-59.8114
2.557333333e+08,-59.3977
2.561066667e+08,-56.0071
2.564800000e+08,-55.9684
2.568533333e+08,-60.0015
2.572266667e+08,-66.7822
2.576000000e+08,-59.7577
2.579733333e+08,-60.2488
2.583466667e+08,-60.1646
2.587200000e+08,-54.8851
2.590933333e+08,-48.7995
2.594666667e+08,-49.6973
2.598400000e+08,-60.2616
2.602133333e+08,-66.7143
2.605866667e+08,-66.4838
2.609600000e+08,-65.3664
2.613333333e+08,-62.4181
2.617066667e+08,-54.7301
2.620800000e+08,-54.0231
2.624533333e+08,-63.6979
2.628266667e+08,-69.4793
2.632000000e+08,-65.2651
2.635733333e+08,-63.4887
2.639466667e+08,-55.2175
2.643200000e+08,-52.3477
2.646933333e+08,-48.7905
2.650666667e+08,-59.5043
2.654400000e+08,-62.3884
2.658133333e+08,-70.2572
2.661866667e+08,-69.0996
2.665600000e+08,-72.0482
2.669333333e+08,-61.0199
2.673066667e+08,-52.4127
2.676800000e+08,-59.6562
2.680533333e+08,-68.8873
2.684266667e+08,-71.8483
2.688000000e+08,-72.3644
2.691733333e+08,-69.8974
2.695466667e+08,-62.0179
2.699200000e+08,-47.2431
2.702933333e+08,-51.1352
2.706666667e+08,-70.1374
2.710400000e+08,-68.6267
2.714133333e+08,-69.6056
2.717866667e+08,-67.3064
2.721600000e+08,-65.2437
2.725333333e+08,-52.8786
2.729066667e+08,-53.8872
2.732800000e+08,-72.668
2.736533333e+08,-74.4382
2.740266667e+08,-73.2826
2.744000000e+08,-66.941
2.747733333e+08,-66.1228
2.751466667e+08,-49.9492
2.755200000e+08,-48.5491
2.758933333e+08,-46.0394
2.762666667e+08,-49.7221
2.766400000e+08,-70.3641
2.770133333e+08,-63.6855
2.773866667e+08,-60.9581
2.777600000e+08,-56.1991
2.781333333e+08,-53.4372
2.785066667e+08,-62.362
2.788800000e+08,-65.9245
2.792533333e+08,-69.2282
2.796266667e+08,-68.1423
2.800000000e+08,-65.4041

