2/tek0036NRM.csv

Model,MDO3104
Firmware Version,1.30

Waveform Type,RF_FD
Point Format,Y
Horizontal Units,Hz
Horizontal Scale,2.8e+07
,
Sample Interval,373333
Record Length,751
Gating,0.133155792277% to 100.0%
Probe Attenuation,1
Vertical Units,dBm
Vertical Offset,0
Vertical Scale,10
Vertical Position,0
Center Frequency,1.4e+08
Span,2.8e+08
Reference Level,-15
Label,
FREQUENCY,FD NORM
0.000000000e+00,-55.4298
3.733333333e+05,-64.0275
7.466666667e+05,-80.3928
1.120000000e+06,-77.4953
1.493333333e+06,-70.086
1.866666667e+06,-69.7709
2.240000000e+06,-70.5519
2.613333333e+06,-68.1839
2.986666667e+06,-72.2131
3.360000000e+06,-61.6865
3.733333333e+06,-65.3297
4.106666667e+06,-68.0435
4.480000000e+06,-65.6044
4.853333333e+06,-69.3279
5.226666667e+06,-68.9462
5.600000000e+06,-76.0542
5.973333333e+06,-61.43
6.346666667e+06,-64.5481
6.720000000e+06,-78.6673
7.093333333e+06,-76.7173
7.466666667e+06,-72.9697
7.840000000e+06,-69.6568
8.213333333e+06,-64.727
8.586666667e+06,-68.8689
8.960000000e+06,-69.2078
9.333333333e+06,-71.2911
9.706666667e+06,-73.832
1.008000000e+07,-74.3577
1.045333333e+07,-71.686
1.082666667e+07,-73.6388
1.120000000e+07,-63.6007
1.157333333e+07,-68.8435
1.194666667e+07,-58.3609
1.232000000e+07,-61.1293
1.269333333e+07,-66.3867
1.306666667e+07,-76.3353
1.344000000e+07,-64.8518
1.381333333e+07,-66.3856
1.418666667e+07,-68.8855
1.456000000e+07,-67.8445
1.493333333e+07,-75.2318
1.530666667e+07,-68.9105
1.568000000e+07,-68.8236
1.605333333e+07,-60.8836
1.642666667e+07,-62.2435
1.680000000e+07,-68.0033
1.717333333e+07,-68.7652
1.754666667e+07,-67.1358
1.792000000e+07,-56.1993
1.829333333e+07,-63.4272
1.866666667e+07,-69.7859
1.904000000e+07,-66.7065
1.941333333e+07,-68.5834
1.978666667e+07,-76.5634
2.016000000e+07,-72.1809
2.053333333e+07,-68.6311
2.090666667e+07,-68.5301
2.128000000e+07,-66.3588
2.165333333e+07,-61.3455
2.202666667e+07,-61.0853
2.240000000e+07,-70.3863
2.277333333e+07,-67.9426
2.314666667e+07,-70.4586
2.352000000e+07,-66.716
2.389333333e+07,-65.5343
2.426666667e+07,-60.364
2.464000000e+07,-59.6546
2.501333333e+07,-52.219
2.538666667e+07,-67.4731
2.576000000e+07,-69.0685
2.613333333e+07,-66.0557
2.650666667e+07,-72.6151
2.688000000e+07,-70.1191
2.725333333e+07,-61.1597
2.762666667e+07,-65.4282
2.800000000e+07,-65.1092
2.837333333e+07,-68.0167
2.874666667e+07,-72.4869
2.912000000e+07,-72.6515
2.949333333e+07,-70.6773
2.986666667e+07,-48.9131
3.024000000e+07,-50.4104
3.061333333e+07,-81.2014
3.098666667e+07,-73.9726
3.136000000e+07,-69.7351
3.173333333e+07,-70.3921
3.210666667e+07,-69.181
3.248000000e+07,-60.9721
3.285333333e+07,-60.6188
3.322666667e+07,-71.0523
3.360000000e+07,-69.4011
3.397333333e+07,-79.3676
3.434666667e+07,-72.2984
3.472000000e+07,-68.5756
3.509333333e+07,-65.9519
3.546666667e+07,-59.9285
3.584000000e+07,-46.8453
3.621333333e+07,-47.5655
3.658666667e+07,-71.1613
3.696000000e+07,-71.8999
3.733333333e+07,-72.5621
3.770666667e+07,-72.7612
3.808000000e+07,-59.1318
3.845333333e+07,-62.8961
3.882666667e+07,-72.2927
3.920000000e+07,-72.8437
3.957333333e+07,-71.0523
3.994666667e+07,-87.5293
4.032000000e+07,-74.4583
4.069333333e+07,-59.3221
4.106666667e+07,-59.7303
4.144000000e+07,-71.6816
4.181333333e+07,-52.863
4.218666667e+07,-52.4315
4.256000000e+07,-70.2845
4.293333333e+07,-72.4206
4.330666667e+07,-60.1415
4.368000000e+07,-59.9471
4.405333333e+07,-65.9801
4.442666667e+07,-76.8294
4.480000000e+07,-77.0278
4.517333333e+07,-69.758
4.554666667e+07,-73.1089
4.592000000e+07,-64.0457
4.629333333e+07,-56.8248
4.666666667e+07,-57.6669
4.704000000e+07,-68.5728
4.741333333e+07,-70.5829
4.778666667e+07,-37.6881
4.816000000e+07,-36.8353
4.853333333e+07,-61.1801
4.890666667e+07,-60.4443
4.928000000e+07,-58.6024
4.965333333e+07,-67.8859
5.002666667e+07,-68.9623
5.040000000e+07,-72.496
5.077333333e+07,-74.3954
5.114666667e+07,-69.5789
5.152000000e+07,-59.2998
5.189333333e+07,-54.5679
5.226666667e+07,-64.547
5.264000000e+07,-66.079
5.301333333e+07,-73.2405
5.338666667e+07,-74.1902
5.376000000e+07,-49.6604
5.413333333e+07,-48.4729
5.450666667e+07,-57.0657
5.488000000e+07,-59.8613
5.525333333e+07,-73.0687
5.562666667e+07,-74.4547
5.600000000e+07,-75.1158
5.637333333e+07,-72.1597
5.674666667e+07,-73.4642
5.712000000e+07,-53.8781
5.749333333e+07,-54.122
5.786666667e+07,-77.5176
5.824000000e+07,-71.1537
5.861333333e+07,-71.7807
5.898666667e+07,-70.757
5.936000000e+07,-65.064
5.973333333e+07,-30.6597
6.010666667e+07,-28.3748
6.048000000e+07,-46.7212
6.085333333e+07,-69.2102
6.122666667e+07,-72.3264
6.160000000e+07,-71.9601
6.197333333e+07,-71.7312
6.234666667e+07,-61.1019
6.272000000e+07,-52.4854
6.309333333e+07,-59.8203
6.346666667e+07,-71.1056
6.384000000e+07,-70.9213
6.421333333e+07,-65.6316
6.458666667e+07,-68.7737
6.496000000e+07,-71.7392
6.533333333e+07,-54.2476
6.570666667e+07,-47.7669
6.608000000e+07,-45.6244
6.645333333e+07,-60.7523
6.682666667e+07,-68.4808
6.720000000e+07,-69.3498
6.757333333e+07,-67.081
6.794666667e+07,-55.0361
6.832000000e+07,-55.3268
6.869333333e+07,-70.2156
6.906666667e+07,-70.2802
6.944000000e+07,-70.0013
6.981333333e+07,-72.3938
7.018666667e+07,-68.2948
7.056000000e+07,-60.5586
7.093333333e+07,-57.1273
7.130666667e+07,-63.8974
7.168000000e+07,-46.4998
7.205333333e+07,-41.3063
7.242666667e+07,-54.7559
7.280000000e+07,-70.9384
7.317333333e+07,-63.8877
7.354666667e+07,-57.776
7.392000000e+07,-57.6942
7.429333333e+07,-68.7434
7.466666667e+07,-69.9713
7.504000000e+07,-68.887
7.541333333e+07,-72.0732
7.578666667e+07,-66.7435
7.616000000e+07,-57.2673
7.653333333e+07,-57.181
7.690666667e+07,-67.3354
7.728000000e+07,-70.1424
7.765333333e+07,-55.9118
7.802666667e+07,-49.0627
7.840000000e+07,-59.8559
7.877333333e+07,-56.694
7.914666667e+07,-54.7376
7.952000000e+07,-61.1387
7.989333333e+07,-66.5161
8.026666667e+07,-69.2576
8.064000000e+07,-74.0796
8.101333333e+07,-70.9288
8.138666667e+07,-62.7593
8.176000000e+07,-56.1347
8.213333333e+07,-57.9254
8.250666667e+07,-71.7881
8.288000000e+07,-68.4165
8.325333333e+07,-70.8
8.362666667e+07,-48.4692
8.400000000e+07,-40.2077
8.437333333e+07,-47.5451
8.474666667e+07,-52.8136
8.512000000e+07,-68.4407
8.549333333e+07,-67.2403
8.586666667e+07,-72.2225
8.624000000e+07,-67.9451
8.661333333e+07,-73.4033
8.698666667e+07,-58.692
8.736000000e+07,-54.1284
8.773333333e+07,-68.4124
8.810666667e+07,-78.8487
8.848000000e+07,-69.8783
8.885333333e+07,-67.3626
8.922666667e+07,-68.7775
8.960000000e+07,-58.681
8.997333333e+07,-47.4556
9.034666667e+07,-53.6725
9.072000000e+07,-71.656
9.109333333e+07,-73.8488
9.146666667e+07,-72.2696
9.184000000e+07,-79.6443
9.221333333e+07,-76.4169
9.258666667e+07,-53.912
9.296000000e+07,-55.9627
9.333333333e+07,-72.6044
9.370666667e+07,-73.4707
9.408000000e+07,-71.8317
9.445333333e+07,-74.505
9.482666667e+07,-74.7525
9.520000000e+07,-53.292
9.557333333e+07,-51.9254
9.594666667e+07,-44.9331
9.632000000e+07,-50.8188
9.669333333e+07,-73.1356
9.706666667e+07,-70.4801
9.744000000e+07,-74.4786
9.781333333e+07,-59.1507
9.818666667e+07,-54.3931
9.856000000e+07,-60.0219
9.893333333e+07,-70.3867
9.930666667e+07,-73.3757
9.968000000e+07,-77.565
1.000533333e+08,-64.3441
1.004266667e+08,-64.7423
1.008000000e+08,-52.4217
1.011733333e+08,-54.9479
1.015466667e+08,-65.2187
1.019200000e+08,-55.1104
1.022933333e+08,-60.4157
1.026666667e+08,-66.7697
1.030400000e+08,-66.6625
1.034133333e+08,-56.4507
1.037866667e+08,-57.2161
1.041600000e+08,-70.0875
1.045333333e+08,-66.916
1.049066667e+08,-74.3814
1.052800000e+08,-71.7185
1.056533333e+08,-68.8743
1.060266667e+08,-54.5561
1.064000000e+08,-52.4107
1.067733333e+08,-56.9456
1.071466667e+08,-65.6181
1.075200000e+08,-67.7496
1.078933333e+08,-47.1721
1.082666667e+08,-49.6353
1.086400000e+08,-59.8871
1.090133333e+08,-54.5619
1.093866667e+08,-55.665
1.097600000e+08,-65.7373
1.101333333e+08,-78.9146
1.105066667e+08,-67.3077
1.108800000e+08,-70.4269
1.112533333e+08,-69.475
1.116266667e+08,-51.2411
1.120000000e+08,-49.8952
1.123733333e+08,-72.5642
1.127466667e+08,-67.8926
1.131200000e+08,-69.0783
1.134933333e+08,-65.2196
1.138666667e+08,-60.2174
1.142400000e+08,-58.0681
1.146133333e+08,-53.3064
1.149866667e+08,-64.1414
1.153600000e+08,-72.4232
1.157333333e+08,-68.6371
1.161066667e+08,-69.745
1.164800000e+08,-67.5281
1.168533333e+08,-59.782
1.172266667e+08,-49.3493
1.176000000e+08,-53.6079
1.179733333e+08,-73.2221
1.183466667e+08,-72.4259
1.187200000e+08,-75.8554
1.190933333e+08,-74.4775
1.194666667e+08,-58.897
1.198400000e+08,-38.4656
1.202133333e+08,-39.3172
1.205866667e+08,-63.7146
1.209600000e+08,-69.4688
1.213333333e+08,-67.4754
1.217066667e+08,-69.1845
1.220800000e+08,-75.8227
1.224533333e+08,-51.5726
1.228266667e+08,-49.72
1.232000000e+08,-61.6155
1.235733333e+08,-72.9408
1.239466667e+08,-73.6835
1.243200000e+08,-73.7098
1.246933333e+08,-73.1404
1.250666667e+08,-60.115
1.254400000e+08,-52.2145
1.258133333e+08,-54.2255
1.261866667e+08,-53.9019
1.265600000e+08,-69.0857
1.269333333e+08,-70.9161
1.273066667e+08,-73.3094
1.276800000e+08,-70.6977
1.280533333e+08,-50.8311
1.284266667e+08,-53.1706
1.288000000e+08,-67.4638
1.291733333e+08,-67.1229
1.295466667e+08,-65.2756
1.299200000e+08,-68.7066
1.302933333e+08,-64.5445
1.306666667e+08,-53.2748
1.310400000e+08,-53.6551
1.314133333e+08,-65.359
1.317866667e+08,-54.6991
1.321600000e+08,-53.5529
1.325333333e+08,-69.3927
1.329066667e+08,-66.4067
1.332800000e+08,-54.1217
1.336533333e+08,-52.0771
1.340266667e+08,-55.6971
1.344000000e+08,-66.5106
1.347733333e+08,-67.6576
1.351466667e+08,-72.5898
1.355200000e+08,-69.1303
1.358933333e+08,-61.5877
1.362666667e+08,-53.654
1.366400000e+08,-53.9797
1.370133333e+08,-66.7638
1.373866667e+08,-66.5598
1.377600000e+08,-63.8945
1.381333333e+08,-59.8299
1.385066667e+08,-71.5827
1.388800000e+08,-50.6677
1.392533333e+08,-49.5524
1.396266667e+08,-66.0837
1.400000000e+08,-70.3852
1.403733333e+08,-68.1395
1.407466667e+08,-69.4774
1.411200000e+08,-71.6781
1.414933333e+08,-56.3467
1.418666667e+08,-53.0037
1.422400000e+08,-62.2665
1.426133333e+08,-70.3985
1.429866667e+08,-71.3858
1.433600000e+08,-66.5254
1.437333333e+08,-49.647
1.441066667e+08,-45.1027
1.444800000e+08,-49.2376
1.448533333e+08,-52.0139
1.452266667e+08,-70.1886
1.456000000e+08,-67.8229
1.459733333e+08,-69.8144
1.463466667e+08,-68.7845
1.467200000e+08,-66.9074
1.470933333e+08,-52.0067
1.474666667e+08,-51.3577
1.478400000e+08,-73.957
1.482133333e+08,-72.3593
1.485866667e+08,-71.3438
1.489600000e+08,-72.491
1.493333333e+08,-73.3533
1.497066667e+08,-50.0492
1.500800000e+08,-47.0877
1.504533333e+08,-59.9971
1.508266667e+08,-75.695
1.512000000e+08,-67.2962
1.515733333e+08,-69.485
1.519466667e+08,-68.1891
1.523200000e+08,-60.5159
1.526933333e+08,-51.2038
1.530666667e+08,-58.8544
1.534400000e+08,-66.553
1.538133333e+08,-71.145
1.541866667e+08,-69.5942
1.545600000e+08,-71.2231
1.549333333e+08,-68.8812
1.553066667e+08,-48.5523
1.556800000e+08,-45.6193
1.560533333e+08,-41.5509
1.564266667e+08,-52.7836
1.568000000e+08,-68.1754
1.571733333e+08,-66.6494
1.575466667e+08,-65.0794
1.579200000e+08,-53.0361
1.582933333e+08,-53.0138
1.586666667e+08,-60.5448
1.590400000e+08,-65.6101
1.594133333e+08,-63.1115
1.597866667e+08,-68.6094
1.601600000e+08,-62.5322
1.605333333e+08,-52.5441
1.609066667e+08,-49.1897
1.612800000e+08,-54.3089
1.616533333e+08,-63.8754
1.620266667e+08,-61.3501
1.624000000e+08,-67.4075
1.627733333e+08,-66.7387
1.631466667e+08,-64.2342
1.635200000e+08,-53.9223
1.638933333e+08,-54.9471
1.642666667e+08,-67.1507
1.646400000e+08,-64.3595
1.650133333e+08,-66.1017
1.653866667e+08,-62.9261
1.657600000e+08,-64.3383
1.661333333e+08,-50.1101
1.665066667e+08,-49.7572
1.668800000e+08,-60.0515
1.672533333e+08,-69.5258
1.676266667e+08,-54.8015
1.680000000e+08,-45.9817
1.683733333e+08,-55.3969
1.687466667e+08,-56.0835
1.691200000e+08,-53.0825
1.694933333e+08,-57.6945
1.698666667e+08,-65.0302
1.702400000e+08,-66.0716
1.706133333e+08,-64.9532
1.709866667e+08,-63.724
1.713600000e+08,-57.3326
1.717333333e+08,-47.805
1.721066667e+08,-48.8051
1.724800000e+08,-66.9886
1.728533333e+08,-68.9516
1.732266667e+08,-70.9523
1.736000000e+08,-69.359
1.739733333e+08,-62.7243
1.743466667e+08,-52.7197
1.747200000e+08,-51.5225
1.750933333e+08,-68.7207
1.754666667e+08,-65.6397
1.758400000e+08,-68.1134
1.762133333e+08,-69.0578
1.765866667e+08,-65.5846
1.769600000e+08,-51.5469
1.773333333e+08,-46.9876
1.777066667e+08,-61.2606
1.780800000e+08,-68.0602
1.784533333e+08,-72.983
1.788266667e+08,-72.3025
1.792000000e+08,-70.7669
1.795733333e+08,-52.761
1.799466667e+08,-37.9899
1.803200000e+08,-42.8426
1.806933333e+08,-71.3822
1.810666667e+08,-65.1059
1.814400000e+08,-62.9611
1.818133333e+08,-66.7194
1.821866667e+08,-67.5537
1.825600000e+08,-47.4486
1.829333333e+08,-48.4638
1.833066667e+08,-73.4976
1.836800000e+08,-70.4408
1.840533333e+08,-66.4026
1.844266667e+08,-74.5418
1.848000000e+08,-67.0021
1.851733333e+08,-53.4333
1.855466667e+08,-51.9974
1.859200000e+08,-60.2652
1.862933333e+08,-68.5191
1.866666667e+08,-68.4383
1.870400000e+08,-73.5715
1.874133333e+08,-65.8267
1.877866667e+08,-55.102
1.881600000e+08,-48.2749
1.885333333e+08,-53.5199
1.889066667e+08,-64.4649
1.892800000e+08,-64.3168
1.896533333e+08,-69.0287
1.900266667e+08,-63.7608
1.904000000e+08,-67.4881
1.907733333e+08,-52.7872
1.911466667e+08,-54.6908
1.915200000e+08,-53.3765
1.918933333e+08,-48.5789
1.922666667e+08,-50.832
1.926400000e+08,-66.4412
1.930133333e+08,-68.0451
1.933866667e+08,-48.6299
1.937600000e+08,-48.8778
1.941333333e+08,-57.0471
1.945066667e+08,-70.0529
1.948800000e+08,-67.2307
1.952533333e+08,-65.2231
1.956266667e+08,-62.2653
1.960000000e+08,-58.0231
1.963733333e+08,-54.5447
1.967466667e+08,-57.0727
1.971200000e+08,-66.6624
1.974933333e+08,-67.7191
1.978666667e+08,-63.2091
1.982400000e+08,-66.0272
1.986133333e+08,-55.9007
1.989866667e+08,-48.1981
1.993600000e+08,-48.286
1.997333333e+08,-62.5429
2.001066667e+08,-67.3952
2.004800000e+08,-68.7049
2.008533333e+08,-71.5655
2.012266667e+08,-64.33
2.016000000e+08,-55.9743
2.019733333e+08,-54.0453
2.023466667e+08,-66.6515
2.027200000e+08,-69.1726
2.030933333e+08,-68.6446
2.034666667e+08,-67.2852
2.038400000e+08,-56.1076
2.042133333e+08,-50.4971
2.045866667e+08,-46.3792
2.049600000e+08,-55.1787
2.053333333e+08,-67.6255
2.057066667e+08,-66.2878
2.060800000e+08,-73.6071
2.064533333e+08,-70.5092
2.068266667e+08,-61.4283
2.072000000e+08,-51.7403
2.075733333e+08,-53.5437
2.079466667e+08,-71.8348
2.083200000e+08,-76.0682
2.086933333e+08,-69.716
2.090666667e+08,-70.4674
2.094400000e+08,-70.0668
2.098133333e+08,-46.7539
2.101866667e+08,-46.4791
2.105600000e+08,-64.9871
2.109333333e+08,-66.0599
2.113066667e+08,-65.2086
2.116800000e+08,-64.7062
2.120533333e+08,-69.7381
2.124266667e+08,-55.198
2.128000000e+08,-52.4347
2.131733333e+08,-62.2849
2.135466667e+08,-70.3348
2.139200000e+08,-63.5582
2.142933333e+08,-65.9296
2.146666667e+08,-64.5174
2.150400000e+08,-56.7617
2.154133333e+08,-47.0713
2.157866667e+08,-49.324
2.161600000e+08,-48.3857
2.165333333e+08,-68.3883
2.169066667e+08,-67.1967
2.172800000e+08,-67.0018
2.176533333e+08,-64.553
2.180266667e+08,-54.064
2.184000000e+08,-55.7129
2.187733333e+08,-73.0467
2.191466667e+08,-65.0019
2.195200000e+08,-72.3372
2.198933333e+08,-62.7883
2.202666667e+08,-59.6418
2.206400000e+08,-48.6498
2.210133333e+08,-48.4243
2.213866667e+08,-57.4005
2.217600000e+08,-63.48
2.221333333e+08,-68.2496
2.225066667e+08,-64.3467
2.228800000e+08,-64.2192
2.232533333e+08,-56.5621
2.236266667e+08,-53.2976
2.240000000e+08,-57.4255
2.243733333e+08,-72.1688
2.247466667e+08,-69.9066
2.251200000e+08,-64.979
2.254933333e+08,-68.4608
2.258666667e+08,-55.7821
2.262400000e+08,-48.2434
2.266133333e+08,-48.4658
2.269866667e+08,-61.8058
2.273600000e+08,-68.1139
2.277333333e+08,-48.6605
2.281066667e+08,-45.9101
2.284800000e+08,-64.2921
2.288533333e+08,-55.4969
2.292266667e+08,-54.6166
2.296000000e+08,-65.577
2.299733333e+08,-67.5124
2.303466667e+08,-67.3261
2.307200000e+08,-66.7834
2.310933333e+08,-64.2699
2.314666667e+08,-52.6933
2.318400000e+08,-46.9223
2.322133333e+08,-53.0439
2.325866667e+08,-67.9728
2.329600000e+08,-67.4833
2.333333333e+08,-71.3269
2.337066667e+08,-69.9571
2.340800000e+08,-62.7197
2.344533333e+08,-53.2958
2.348266667e+08,-54.7915
2.352000000e+08,-69.8896
2.355733333e+08,-72.071
2.359466667e+08,-75.9157
2.363200000e+08,-73.8541
2.366933333e+08,-66.7999
2.370666667e+08,-47.4052
2.374400000e+08,-46.3489
2.378133333e+08,-71.1755
2.381866667e+08,-71.4677
2.385600000e+08,-71.6247
2.389333333e+08,-68.247
2.393066667e+08,-55.4632
2.396800000e+08,-49.2624
2.400533333e+08,-46.9044
2.404266667e+08,-58.9424
2.408000000e+08,-69.2518
2.411733333e+08,-73.3683
2.415466667e+08,-71.4006
2.419200000e+08,-72.3611
2.422933333e+08,-59.3398
2.426666667e+08,-46.634
2.430400000e+08,-51.7457
2.434133333e+08,-72.4038
2.437866667e+08,-74.388
2.441600000e+08,-71.1923
2.445333333e+08,-72.9916
2.449066667e+08,-71.6887
2.452800000e+08,-53.9692
2.456533333e+08,-55.5883
2.460266667e+08,-65.4028
2.464000000e+08,-71.9201
2.467733333e+08,-74.8311
2.471466667e+08,-66.8032
2.475200000e+08,-65.4153
2.478933333e+08,-48.9124
2.482666667e+08,-47.8091
2.486400000e+08,-57.4387
2.490133333e+08,-68.2725
2.493866667e+08,-71.8117
2.497600000e+08,-69.977
2.501333333e+08,-66.8342
2.505066667e+08,-58.5353
2.508800000e+08,-53.722
2.512533333e+08,-58.5692
2.516266667e+08,-50.9198
2.520000000e+08,-42.4645
2.523733333e+08,-51.1034
2.527466667e+08,-67.9378
2.531200000e+08,-62.1156
2.534933333e+08,-49.6688
2.538666667e+08,-50.1692
2.542400000e+08,-61.8246
2.546133333e+08,-65.5897
2.549866667e+08,-65.2679
2.553600000e+08,-68.3711
2.557333333e+08,-70.2589
2.561066667e+08,-55.3585
2.564800000e+08,-55.3462
2.568533333e+08,-65.5355
2.572266667e+08,-68.3783
2.576000000e+08,-68.873
2.579733333e+08,-64.1181
2.583466667e+08,-66.4267
2.587200000e+08,-52.7608
2.590933333e+08,-48.9041
2.594666667e+08,-52.5538
2.598400000e+08,-65.4618
2.602133333e+08,-72.1574
2.605866667e+08,-66.2998
2.609600000e+08,-68.523
2.613333333e+08,-65.256
2.617066667e+08,-55.9077
2.620800000e+08,-55.6202
2.624533333e+08,-73.8179
2.628266667e+08,-70.2257
2.632000000e+08,-74.5468
2.635733333e+08,-61.7325
2.639466667e+08,-46.8052
2.643200000e+08,-49.2065
2.646933333e+08,-47.524
2.650666667e+08,-69.3317
2.654400000e+08,-66.6511
2.658133333e+08,-69.3323
2.661866667e+08,-67.2095
2.665600000e+08,-69.2979
2.669333333e+08,-61.5941
2.673066667e+08,-54.0127
2.676800000e+08,-63.6242
2.680533333e+08,-69.9927
2.684266667e+08,-69.5858
2.688000000e+08,-67.5125
2.691733333e+08,-66.8574
2.695466667e+08,-59.7289
2.699200000e+08,-45.0941
2.702933333e+08,-48.907
2.706666667e+08,-74.0927
2.710400000e+08,-74.3244
2.714133333e+08,-76.1973
2.717866667e+08,-74.1909
2.721600000e+08,-73.8215
2.725333333e+08,-53.3139
2.729066667e+08,-53.57
2.732800000e+08,-67.1344
2.736533333e+08,-73.6122
2.740266667e+08,-78.6894
2.744000000e+08,-66.2501
2.747733333e+08,-66.34
2.751466667e+08,-50.9059
2.755200000e+08,-48.0205
2.758933333e+08,-50.213
2.762666667e+08,-52.7826
2.766400000e+08,-75.2644
2.770133333e+08,-66.8057
2.773866667e+08,-74.2849
2.777600000e+08,-64.7867
2.781333333e+08,-55.9008
2.785066667e+08,-62.812
2.788800000e+08,-69.1503
2.792533333e+08,-68.4438
2.796266667e+08,-68.4901
2.800000000e+08,-66.3472

