2/tek0077NRM.csv

Model,MDO3104
Firmware Version,1.30

Waveform Type,RF_FD
Point Format,Y
Horizontal Units,Hz
Horizontal Scale,2.8e+07
,
Sample Interval,373333
Record Length,751
Gating,0.133155792277% to 100.0%
Probe Attenuation,1
Vertical Units,dBm
Vertical Offset,0
Vertical Scale,10
Vertical Position,0
Center Frequency,1.4e+08
Span,2.8e+08
Reference Level,-15
Label,
FREQUENCY,FD NORM
0.000000000e+00,-59.9352
3.733333333e+05,-68.6717
7.466666667e+05,-77.11
1.120000000e+06,-75.5924
1.493333333e+06,-65.8993
1.866666667e+06,-64.6612
2.240000000e+06,-70.1141
2.613333333e+06,-64.5783
2.986666667e+06,-72.9941
3.360000000e+06,-59.4052
3.733333333e+06,-59.4719
4.106666667e+06,-70.3671
4.480000000e+06,-68.5617
4.853333333e+06,-72.1421
5.226666667e+06,-71.3506
5.600000000e+06,-66.8657
5.973333333e+06,-58.1096
6.346666667e+06,-63.8517
6.720000000e+06,-70.5851
7.093333333e+06,-67.9079
7.466666667e+06,-72.8416
7.840000000e+06,-72.9282
8.213333333e+06,-68.9434
8.586666667e+06,-73.1464
8.960000000e+06,-69.6341
9.333333333e+06,-68.5208
9.706666667e+06,-73.4563
1.008000000e+07,-69.4786
1.045333333e+07,-72.7552
1.082666667e+07,-70.1745
1.120000000e+07,-69.8061
1.157333333e+07,-68.5983
1.194666667e+07,-57.9128
1.232000000e+07,-64.7813
1.269333333e+07,-70.7112
1.306666667e+07,-70.7393
1.344000000e+07,-65.928
1.381333333e+07,-63.3995
1.418666667e+07,-66.5326
1.456000000e+07,-70.831
1.493333333e+07,-72.2688
1.530666667e+07,-66.1498
1.568000000e+07,-68.5735
1.605333333e+07,-71.0595
1.642666667e+07,-65.9696
1.680000000e+07,-68.2778
1.717333333e+07,-69.1981
1.754666667e+07,-77.123
1.792000000e+07,-57.0212
1.829333333e+07,-60.3869
1.866666667e+07,-68.2373
1.904000000e+07,-60.8521
1.941333333e+07,-60.777
1.978666667e+07,-68.9669
2.016000000e+07,-72.6876
2.053333333e+07,-72.7399
2.090666667e+07,-77.8126
2.128000000e+07,-72.1484
2.165333333e+07,-63.9098
2.202666667e+07,-62.93
2.240000000e+07,-65.7804
2.277333333e+07,-65.1994
2.314666667e+07,-72.8146
2.352000000e+07,-69.5341
2.389333333e+07,-65.59
2.426666667e+07,-61.2183
2.464000000e+07,-56.836
2.501333333e+07,-53.0104
2.538666667e+07,-68.3191
2.576000000e+07,-69.4388
2.613333333e+07,-63.5742
2.650666667e+07,-66.1071
2.688000000e+07,-64.4182
2.725333333e+07,-61.5055
2.762666667e+07,-69.59
2.800000000e+07,-66.0139
2.837333333e+07,-72.2531
2.874666667e+07,-72.2788
2.912000000e+07,-76.5385
2.949333333e+07,-68.8381
2.986666667e+07,-49.954
3.024000000e+07,-51.5539
3.061333333e+07,-68.4513
3.098666667e+07,-75.6449
3.136000000e+07,-75.0696
3.173333333e+07,-72.581
3.210666667e+07,-75.0381
3.248000000e+07,-60.8975
3.285333333e+07,-59.3677
3.322666667e+07,-72.5348
3.360000000e+07,-73.018
3.397333333e+07,-68.6301
3.434666667e+07,-76.6712
3.472000000e+07,-81.3342
3.509333333e+07,-64.0446
3.546666667e+07,-59.7053
3.584000000e+07,-50.1175
3.621333333e+07,-50.7315
3.658666667e+07,-73.7452
3.696000000e+07,-72.8981
3.733333333e+07,-72.7242
3.770666667e+07,-67.8606
3.808000000e+07,-59.6575
3.845333333e+07,-65.1434
3.882666667e+07,-70.8177
3.920000000e+07,-74.4343
3.957333333e+07,-74.927
3.994666667e+07,-73.8257
4.032000000e+07,-72.8736
4.069333333e+07,-59.1395
4.106666667e+07,-60.9498
4.144000000e+07,-65.4238
4.181333333e+07,-53.5366
4.218666667e+07,-53.6785
4.256000000e+07,-70.8214
4.293333333e+07,-69.2647
4.330666667e+07,-62.9608
4.368000000e+07,-62.5754
4.405333333e+07,-65.5119
4.442666667e+07,-67.0428
4.480000000e+07,-69.3263
4.517333333e+07,-74.196
4.554666667e+07,-71.0663
4.592000000e+07,-65.0002
4.629333333e+07,-57.984
4.666666667e+07,-56.963
4.704000000e+07,-63.3974
4.741333333e+07,-65.6263
4.778666667e+07,-37.0845
4.816000000e+07,-36.3264
4.853333333e+07,-61.9172
4.890666667e+07,-61.4411
4.928000000e+07,-58.6932
4.965333333e+07,-67.3005
5.002666667e+07,-70.9681
5.040000000e+07,-72.2587
5.077333333e+07,-73.6601
5.114666667e+07,-69.3841
5.152000000e+07,-62.3341
5.189333333e+07,-55.274
5.226666667e+07,-61.2177
5.264000000e+07,-68.6679
5.301333333e+07,-67.8466
5.338666667e+07,-66.6116
5.376000000e+07,-50.9968
5.413333333e+07,-49.0656
5.450666667e+07,-57.0287
5.488000000e+07,-59.3107
5.525333333e+07,-71.7185
5.562666667e+07,-81.7029
5.600000000e+07,-76.9379
5.637333333e+07,-70.0999
5.674666667e+07,-69.0594
5.712000000e+07,-53.1058
5.749333333e+07,-53.1222
5.786666667e+07,-80.9786
5.824000000e+07,-82.2184
5.861333333e+07,-79.1047
5.898666667e+07,-71.8764
5.936000000e+07,-72.3719
5.973333333e+07,-43.3666
6.010666667e+07,-40.775
6.048000000e+07,-61.6707
6.085333333e+07,-74.8816
6.122666667e+07,-74.9212
6.160000000e+07,-71.991
6.197333333e+07,-67.3779
6.234666667e+07,-58.3926
6.272000000e+07,-52.6329
6.309333333e+07,-65.1031
6.346666667e+07,-73.0248
6.384000000e+07,-72.2826
6.421333333e+07,-75.0155
6.458666667e+07,-69.3498
6.496000000e+07,-64.5872
6.533333333e+07,-54.8655
6.570666667e+07,-48.9605
6.608000000e+07,-45.0589
6.645333333e+07,-58.7797
6.682666667e+07,-67.5973
6.720000000e+07,-65.6451
6.757333333e+07,-64.9505
6.794666667e+07,-55.3002
6.832000000e+07,-56.9152
6.869333333e+07,-66.3514
6.906666667e+07,-69.8809
6.944000000e+07,-66.2616
6.981333333e+07,-71.1463
7.018666667e+07,-70.837
7.056000000e+07,-56.5151
7.093333333e+07,-54.9387
7.130666667e+07,-60.844
7.168000000e+07,-46.2035
7.205333333e+07,-41.2412
7.242666667e+07,-54.4469
7.280000000e+07,-67.7011
7.317333333e+07,-62.1938
7.354666667e+07,-58.7067
7.392000000e+07,-62.2637
7.429333333e+07,-66.8134
7.466666667e+07,-65.9751
7.504000000e+07,-65.2531
7.541333333e+07,-67.4338
7.578666667e+07,-65.1428
7.616000000e+07,-57.7607
7.653333333e+07,-56.6896
7.690666667e+07,-63.1714
7.728000000e+07,-68.3287
7.765333333e+07,-56.1842
7.802666667e+07,-49.4536
7.840000000e+07,-64.2294
7.877333333e+07,-60.3697
7.914666667e+07,-55.7239
7.952000000e+07,-58.8341
7.989333333e+07,-68.6985
8.026666667e+07,-68.3119
8.064000000e+07,-70.5663
8.101333333e+07,-73.4968
8.138666667e+07,-65.2492
8.176000000e+07,-54.4109
8.213333333e+07,-55.9486
8.250666667e+07,-74.2283
8.288000000e+07,-73.6178
8.325333333e+07,-68.803
8.362666667e+07,-51.9828
8.400000000e+07,-42.7836
8.437333333e+07,-49.6771
8.474666667e+07,-53.5446
8.512000000e+07,-66.7086
8.549333333e+07,-71.2147
8.586666667e+07,-76.0849
8.624000000e+07,-76.3533
8.661333333e+07,-76.8541
8.698666667e+07,-57.6175
8.736000000e+07,-53.8423
8.773333333e+07,-66.1778
8.810666667e+07,-71.5254
8.848000000e+07,-66.1181
8.885333333e+07,-64.8719
8.922666667e+07,-71.7106
8.960000000e+07,-59.2837
8.997333333e+07,-48.2394
9.034666667e+07,-54.9755
9.072000000e+07,-70.9963
9.109333333e+07,-70.7597
9.146666667e+07,-68.4426
9.184000000e+07,-72.0844
9.221333333e+07,-67.3681
9.258666667e+07,-53.0433
9.296000000e+07,-55.6541
9.333333333e+07,-70.522
9.370666667e+07,-69.2233
9.408000000e+07,-71.3058
9.445333333e+07,-69.3924
9.482666667e+07,-65.2682
9.520000000e+07,-53.2581
9.557333333e+07,-52.9079
9.594666667e+07,-43.2664
9.632000000e+07,-48.5503
9.669333333e+07,-67.6651
9.706666667e+07,-66.9909
9.744000000e+07,-66.9269
9.781333333e+07,-57.4719
9.818666667e+07,-54.8477
9.856000000e+07,-63.2112
9.893333333e+07,-65.5571
9.930666667e+07,-67.3694
9.968000000e+07,-68.4454
1.000533333e+08,-66.3168
1.004266667e+08,-59.9113
1.008000000e+08,-52.7261
1.011733333e+08,-55.5068
1.015466667e+08,-64.2409
1.019200000e+08,-55.2894
1.022933333e+08,-60.8293
1.026666667e+08,-65.3573
1.030400000e+08,-64.9705
1.034133333e+08,-56.1982
1.037866667e+08,-59.7233
1.041600000e+08,-66.0026
1.045333333e+08,-68.6728
1.049066667e+08,-65.1693
1.052800000e+08,-64.1717
1.056533333e+08,-63.9886
1.060266667e+08,-55.1007
1.064000000e+08,-55.2163
1.067733333e+08,-57.6479
1.071466667e+08,-68.229
1.075200000e+08,-60.3552
1.078933333e+08,-42.6262
1.082666667e+08,-45.0603
1.086400000e+08,-61.6442
1.090133333e+08,-55.6883
1.093866667e+08,-54.8919
1.097600000e+08,-69.5517
1.101333333e+08,-68.7023
1.105066667e+08,-68.4598
1.108800000e+08,-73.6679
1.112533333e+08,-61.6504
1.116266667e+08,-54.1293
1.120000000e+08,-51.099
1.123733333e+08,-62.6795
1.127466667e+08,-66.9912
1.131200000e+08,-68.2161
1.134933333e+08,-65.8826
1.138666667e+08,-59.4573
1.142400000e+08,-60.9734
1.146133333e+08,-52.8506
1.149866667e+08,-58.8248
1.153600000e+08,-68.8349
1.157333333e+08,-79.5191
1.161066667e+08,-80.1631
1.164800000e+08,-69.5548
1.168533333e+08,-65.9411
1.172266667e+08,-50.0628
1.176000000e+08,-53.3187
1.179733333e+08,-68.6332
1.183466667e+08,-70.8989
1.187200000e+08,-73.9471
1.190933333e+08,-71.8832
1.194666667e+08,-62.0313
1.198400000e+08,-38.1018
1.202133333e+08,-38.9558
1.205866667e+08,-67.2795
1.209600000e+08,-66.4707
1.213333333e+08,-69.6127
1.217066667e+08,-77.9769
1.220800000e+08,-67.5349
1.224533333e+08,-51.7039
1.228266667e+08,-49.897
1.232000000e+08,-66.3723
1.235733333e+08,-69.1529
1.239466667e+08,-76.3226
1.243200000e+08,-67.442
1.246933333e+08,-66.7471
1.250666667e+08,-56.6907
1.254400000e+08,-50.7313
1.258133333e+08,-54.5483
1.261866667e+08,-54.1228
1.265600000e+08,-64.6588
1.269333333e+08,-67.5181
1.273066667e+08,-63.0568
1.276800000e+08,-59.4681
1.280533333e+08,-50.4547
1.284266667e+08,-54.9312
1.288000000e+08,-62.7775
1.291733333e+08,-65.739
1.295466667e+08,-65.2052
1.299200000e+08,-65.9051
1.302933333e+08,-60.6112
1.306666667e+08,-52.6609
1.310400000e+08,-54.963
1.314133333e+08,-64.3922
1.317866667e+08,-46.1897
1.321600000e+08,-45.0802
1.325333333e+08,-63.9655
1.329066667e+08,-64.7131
1.332800000e+08,-51.692
1.336533333e+08,-51.29
1.340266667e+08,-53.5372
1.344000000e+08,-66.3545
1.347733333e+08,-67.4562
1.351466667e+08,-63.7337
1.355200000e+08,-64.1235
1.358933333e+08,-57.4201
1.362666667e+08,-55.4103
1.366400000e+08,-55.7526
1.370133333e+08,-66.8141
1.373866667e+08,-71.0185
1.377600000e+08,-64.1096
1.381333333e+08,-63.172
1.385066667e+08,-60.5837
1.388800000e+08,-54.1453
1.392533333e+08,-49.9975
1.396266667e+08,-61.2962
1.400000000e+08,-65.0172
1.403733333e+08,-67.7228
1.407466667e+08,-65.7001
1.411200000e+08,-64.0072
1.414933333e+08,-58.5948
1.418666667e+08,-52.5217
1.422400000e+08,-57.4962
1.426133333e+08,-68.2502
1.429866667e+08,-74.1274
1.433600000e+08,-68.7803
1.437333333e+08,-50.0341
1.441066667e+08,-46.3526
1.444800000e+08,-48.6418
1.448533333e+08,-50.162
1.452266667e+08,-64.4488
1.456000000e+08,-71.8001
1.459733333e+08,-68.3341
1.463466667e+08,-70.662
1.467200000e+08,-72.352
1.470933333e+08,-52.2459
1.474666667e+08,-51.3906
1.478400000e+08,-66.4376
1.482133333e+08,-70.5582
1.485866667e+08,-74.2988
1.489600000e+08,-78.6877
1.493333333e+08,-73.8687
1.497066667e+08,-54.2979
1.500800000e+08,-50.8918
1.504533333e+08,-71.2797
1.508266667e+08,-71.9273
1.512000000e+08,-74.172
1.515733333e+08,-71.4357
1.519466667e+08,-71.8996
1.523200000e+08,-58.7774
1.526933333e+08,-51.5996
1.530666667e+08,-58.6225
1.534400000e+08,-71.7635
1.538133333e+08,-73.5323
1.541866667e+08,-65.4339
1.545600000e+08,-66.5321
1.549333333e+08,-62.6532
1.553066667e+08,-48.2987
1.556800000e+08,-51.5156
1.560533333e+08,-50.2257
1.564266667e+08,-58.3615
1.568000000e+08,-65.1396
1.571733333e+08,-69.1121
1.575466667e+08,-62.7581
1.579200000e+08,-52.5054
1.582933333e+08,-52.846
1.586666667e+08,-64.7008
1.590400000e+08,-67.4238
1.594133333e+08,-65.2563
1.597866667e+08,-65.0099
1.601600000e+08,-61.6736
1.605333333e+08,-51.2731
1.609066667e+08,-49.9351
1.612800000e+08,-55.3339
1.616533333e+08,-63.1312
1.620266667e+08,-65.5206
1.624000000e+08,-66.2371
1.627733333e+08,-65.0635
1.631466667e+08,-59.288
1.635200000e+08,-54.8938
1.638933333e+08,-56.7925
1.642666667e+08,-63.357
1.646400000e+08,-65.3049
1.650133333e+08,-64.9196
1.653866667e+08,-63.4682
1.657600000e+08,-60.3542
1.661333333e+08,-51.8706
1.665066667e+08,-50.6993
1.668800000e+08,-56.849
1.672533333e+08,-65.1394
1.676266667e+08,-58.7722
1.680000000e+08,-47.3231
1.683733333e+08,-52.8925
1.687466667e+08,-58.2732
1.691200000e+08,-55.1038
1.694933333e+08,-57.7349
1.698666667e+08,-73.3501
1.702400000e+08,-68.1652
1.706133333e+08,-69.9057
1.709866667e+08,-63.6694
1.713600000e+08,-59.0966
1.717333333e+08,-49.0035
1.721066667e+08,-49.0743
1.724800000e+08,-62.117
1.728533333e+08,-67.8455
1.732266667e+08,-69.3225
1.736000000e+08,-68.5344
1.739733333e+08,-61.5361
1.743466667e+08,-54.7031
1.747200000e+08,-52.4073
1.750933333e+08,-68.069
1.754666667e+08,-72.6873
1.758400000e+08,-79.022
1.762133333e+08,-72.3631
1.765866667e+08,-70.4722
1.769600000e+08,-54.5333
1.773333333e+08,-47.1803
1.777066667e+08,-56.1702
1.780800000e+08,-74.6638
1.784533333e+08,-73.8961
1.788266667e+08,-71.1102
1.792000000e+08,-69.2882
1.795733333e+08,-56.6715
1.799466667e+08,-43.7413
1.803200000e+08,-49.1223
1.806933333e+08,-74.6179
1.810666667e+08,-68.9823
1.814400000e+08,-68.1589
1.818133333e+08,-68.3691
1.821866667e+08,-63.3914
1.825600000e+08,-46.6712
1.829333333e+08,-47.9917
1.833066667e+08,-67.5383
1.836800000e+08,-68.2841
1.840533333e+08,-68.0243
1.844266667e+08,-70.2354
1.848000000e+08,-69.4709
1.851733333e+08,-53.4519
1.855466667e+08,-52.7327
1.859200000e+08,-62.0551
1.862933333e+08,-64.9594
1.866666667e+08,-67.6022
1.870400000e+08,-64.938
1.874133333e+08,-62.7366
1.877866667e+08,-51.6315
1.881600000e+08,-48.2851
1.885333333e+08,-56.6245
1.889066667e+08,-63.8754
1.892800000e+08,-64.3422
1.896533333e+08,-63.7901
1.900266667e+08,-62.0093
1.904000000e+08,-62.2169
1.907733333e+08,-54.1636
1.911466667e+08,-57.1803
1.915200000e+08,-54.9007
1.918933333e+08,-49.6503
1.922666667e+08,-50.8157
1.926400000e+08,-62.7559
1.930133333e+08,-58.77
1.933866667e+08,-50.0957
1.937600000e+08,-50.9854
1.941333333e+08,-54.6172
1.945066667e+08,-60.7307
1.948800000e+08,-65.1915
1.952533333e+08,-65.9996
1.956266667e+08,-66.8498
1.960000000e+08,-55.7959
1.963733333e+08,-53.9387
1.967466667e+08,-55.5663
1.971200000e+08,-66.9665
1.974933333e+08,-66.8346
1.978666667e+08,-61.893
1.982400000e+08,-60.4014
1.986133333e+08,-55.4729
1.989866667e+08,-49.8027
1.993600000e+08,-48.6897
1.997333333e+08,-62.6248
2.001066667e+08,-65.8579
2.004800000e+08,-65.9302
2.008533333e+08,-67.6958
2.012266667e+08,-62.91
2.016000000e+08,-57.8533
2.019733333e+08,-53.5069
2.023466667e+08,-66.4073
2.027200000e+08,-71.5585
2.030933333e+08,-69.3086
2.034666667e+08,-71.1233
2.038400000e+08,-42.4934
2.042133333e+08,-42.6219
2.045866667e+08,-46.826
2.049600000e+08,-52.5206
2.053333333e+08,-71.9303
2.057066667e+08,-67.7622
2.060800000e+08,-68.7932
2.064533333e+08,-66.6872
2.068266667e+08,-68.3362
2.072000000e+08,-53.9363
2.075733333e+08,-56.4845
2.079466667e+08,-65.8165
2.083200000e+08,-74.1231
2.086933333e+08,-72.8141
2.090666667e+08,-73.0385
2.094400000e+08,-74.1966
2.098133333e+08,-47.869
2.101866667e+08,-47.7935
2.105600000e+08,-67.1022
2.109333333e+08,-65.4361
2.113066667e+08,-65.9995
2.116800000e+08,-70.5106
2.120533333e+08,-68.7678
2.124266667e+08,-55.2446
2.128000000e+08,-52.7226
2.131733333e+08,-65.6891
2.135466667e+08,-68.8363
2.139200000e+08,-66.7741
2.142933333e+08,-68.254
2.146666667e+08,-64.8464
2.150400000e+08,-53.0876
2.154133333e+08,-46.7728
2.157866667e+08,-47.2036
2.161600000e+08,-46.5361
2.165333333e+08,-65.5289
2.169066667e+08,-62.9354
2.172800000e+08,-63.1493
2.176533333e+08,-58.9745
2.180266667e+08,-52.5733
2.184000000e+08,-57.5766
2.187733333e+08,-67.0383
2.191466667e+08,-65.6405
2.195200000e+08,-63.7825
2.198933333e+08,-61.0506
2.202666667e+08,-58.3733
2.206400000e+08,-47.7313
2.210133333e+08,-49.0722
2.213866667e+08,-55.1271
2.217600000e+08,-68.1452
2.221333333e+08,-63.0112
2.225066667e+08,-63.1684
2.228800000e+08,-60.9328
2.232533333e+08,-55.838
2.236266667e+08,-55.6912
2.240000000e+08,-60.2934
2.243733333e+08,-68.6218
2.247466667e+08,-69.0748
2.251200000e+08,-67.8009
2.254933333e+08,-63.5222
2.258666667e+08,-54.754
2.262400000e+08,-50.196
2.266133333e+08,-48.6016
2.269866667e+08,-59.337
2.273600000e+08,-61.2787
2.277333333e+08,-54.3982
2.281066667e+08,-53.6988
2.284800000e+08,-63.1707
2.288533333e+08,-57.9623
2.292266667e+08,-54.8421
2.296000000e+08,-62.4638
2.299733333e+08,-69.1024
2.303466667e+08,-65.9351
2.307200000e+08,-67.8155
2.310933333e+08,-62.4849
2.314666667e+08,-56.8982
2.318400000e+08,-46.9365
2.322133333e+08,-50.7489
2.325866667e+08,-62.9383
2.329600000e+08,-70.2343
2.333333333e+08,-67.4381
2.337066667e+08,-74.3634
2.340800000e+08,-66.4828
2.344533333e+08,-53.5651
2.348266667e+08,-54.5213
2.352000000e+08,-66.9338
2.355733333e+08,-79.754
2.359466667e+08,-71.6921
2.363200000e+08,-72.0735
2.366933333e+08,-64.595
2.370666667e+08,-47.8004
2.374400000e+08,-46.3484
2.378133333e+08,-66.2539
2.381866667e+08,-72.5548
2.385600000e+08,-69.9761
2.389333333e+08,-68.012
2.393066667e+08,-55.1082
2.396800000e+08,-48.2368
2.400533333e+08,-51.0263
2.404266667e+08,-61.3305
2.408000000e+08,-70.1756
2.411733333e+08,-77.4255
2.415466667e+08,-77.1042
2.419200000e+08,-69.5009
2.422933333e+08,-56.9516
2.426666667e+08,-46.5935
2.430400000e+08,-53.2946
2.434133333e+08,-76.7729
2.437866667e+08,-72.3732
2.441600000e+08,-72.9034
2.445333333e+08,-72.5465
2.449066667e+08,-65.4467
2.452800000e+08,-54.195
2.456533333e+08,-56.0895
2.460266667e+08,-66.6109
2.464000000e+08,-67.6142
2.467733333e+08,-69.2578
2.471466667e+08,-67.3359
2.475200000e+08,-62.4941
2.478933333e+08,-48.0721
2.482666667e+08,-47.8158
2.486400000e+08,-56.8618
2.490133333e+08,-66.5843
2.493866667e+08,-67.56
2.497600000e+08,-67.1696
2.501333333e+08,-66.627
2.505066667e+08,-59.9248
2.508800000e+08,-55.5106
2.512533333e+08,-58.1582
2.516266667e+08,-53.0942
2.520000000e+08,-45.6249
2.523733333e+08,-55.5042
2.527466667e+08,-62.4049
2.531200000e+08,-57.083
2.534933333e+08,-50.5307
2.538666667e+08,-51.1686
2.542400000e+08,-59.6687
2.546133333e+08,-64.2515
2.549866667e+08,-63.4371
2.553600000e+08,-70.2351
2.557333333e+08,-67.2355
2.561066667e+08,-56.6208
2.564800000e+08,-55.9959
2.568533333e+08,-60.7335
2.572266667e+08,-65.965
2.576000000e+08,-63.4365
2.579733333e+08,-58.9473
2.583466667e+08,-59.46
2.587200000e+08,-54.2942
2.590933333e+08,-49.2667
2.594666667e+08,-50.9258
2.598400000e+08,-64.3351
2.602133333e+08,-64.1965
2.605866667e+08,-69.4512
2.609600000e+08,-65.1371
2.613333333e+08,-62.7497
2.617066667e+08,-54.2279
2.620800000e+08,-54.2382
2.624533333e+08,-68.5992
2.628266667e+08,-70.972
2.632000000e+08,-72.108
2.635733333e+08,-59.4722
2.639466667e+08,-48.812
2.643200000e+08,-51.0118
2.646933333e+08,-48.4422
2.650666667e+08,-59.8415
2.654400000e+08,-65.9777
2.658133333e+08,-72.7099
2.661866667e+08,-68.071
2.665600000e+08,-75.9
2.669333333e+08,-62.0443
2.673066667e+08,-54.3191
2.676800000e+08,-64.476
2.680533333e+08,-69.9183
2.684266667e+08,-68.9665
2.688000000e+08,-76.5589
2.691733333e+08,-73.6552
2.695466667e+08,-63.7682
2.699200000e+08,-48.5316
2.702933333e+08,-51.4578
2.706666667e+08,-73.1809
2.710400000e+08,-75.7257
2.714133333e+08,-73.7529
2.717866667e+08,-70.2844
2.721600000e+08,-70.8467
2.725333333e+08,-54.4898
2.729066667e+08,-55.1256
2.732800000e+08,-69.2991
2.736533333e+08,-65.4527
2.740266667e+08,-68.3233
2.744000000e+08,-72.7588
2.747733333e+08,-68.0479
2.751466667e+08,-50.2726
2.755200000e+08,-48.333
2.758933333e+08,-43.5105
2.762666667e+08,-45.6393
2.766400000e+08,-66.6066
2.770133333e+08,-69.2168
2.773866667e+08,-64.2489
2.777600000e+08,-61.0556
2.781333333e+08,-54.4999
2.785066667e+08,-58.9592
2.788800000e+08,-66.5189
2.792533333e+08,-67.5625
2.796266667e+08,-66.7156
2.800000000e+08,-66.9342

