2/tek0124NRM.csv

Model,MDO3104
Firmware Version,1.30

Waveform Type,RF_FD
Point Format,Y
Horizontal Units,Hz
Horizontal Scale,2.8e+07
,
Sample Interval,373333
Record Length,751
Gating,0.133155792277% to 100.0%
Probe Attenuation,1
Vertical Units,dBm
Vertical Offset,0
Vertical Scale,10
Vertical Position,0
Center Frequency,1.4e+08
Span,2.8e+08
Reference Level,-15
Label,
FREQUENCY,FD NORM
0.000000000e+00,-59.3469
3.733333333e+05,-67.6884
7.466666667e+05,-83.9889
1.120000000e+06,-75.4383
1.493333333e+06,-71.0575
1.866666667e+06,-68.6227
2.240000000e+06,-71.11
2.613333333e+06,-64.2068
2.986666667e+06,-68.1825
3.360000000e+06,-62.3462
3.733333333e+06,-63.7035
4.106666667e+06,-67.9511
4.480000000e+06,-65.2576
4.853333333e+06,-75.758
5.226666667e+06,-63.3197
5.600000000e+06,-67.0779
5.973333333e+06,-71.9451
6.346666667e+06,-72.9728
6.720000000e+06,-77.6794
7.093333333e+06,-75.6268
7.466666667e+06,-75.4173
7.840000000e+06,-66.2497
8.213333333e+06,-65.3106
8.586666667e+06,-67.3423
8.960000000e+06,-71.2888
9.333333333e+06,-74.4214
9.706666667e+06,-75.1553
1.008000000e+07,-74.375
1.045333333e+07,-71.2515
1.082666667e+07,-72.6519
1.120000000e+07,-75.9271
1.157333333e+07,-76.692
1.194666667e+07,-64.9632
1.232000000e+07,-69.335
1.269333333e+07,-78.5127
1.306666667e+07,-65.592
1.344000000e+07,-64.558
1.381333333e+07,-68.3807
1.418666667e+07,-76.4714
1.456000000e+07,-79.3512
1.493333333e+07,-72.976
1.530666667e+07,-69.1629
1.568000000e+07,-72.0322
1.605333333e+07,-64.8724
1.642666667e+07,-66.8049
1.680000000e+07,-69.32
1.717333333e+07,-72.1022
1.754666667e+07,-80.3081
1.792000000e+07,-73.1838
1.829333333e+07,-65.7885
1.866666667e+07,-71.6176
1.904000000e+07,-63.0956
1.941333333e+07,-63.9482
1.978666667e+07,-67.2336
2.016000000e+07,-71.174
2.053333333e+07,-68.0179
2.090666667e+07,-66.1582
2.128000000e+07,-67.7366
2.165333333e+07,-64.2128
2.202666667e+07,-62.7552
2.240000000e+07,-70.6208
2.277333333e+07,-71.8504
2.314666667e+07,-67.9827
2.352000000e+07,-72.0405
2.389333333e+07,-70.2893
2.426666667e+07,-70.7064
2.464000000e+07,-56.4094
2.501333333e+07,-52.0464
2.538666667e+07,-58.9781
2.576000000e+07,-66.0038
2.613333333e+07,-63.0139
2.650666667e+07,-70.754
2.688000000e+07,-67.6158
2.725333333e+07,-63.2619
2.762666667e+07,-69.9851
2.800000000e+07,-79.0749
2.837333333e+07,-66.9433
2.874666667e+07,-71.3937
2.912000000e+07,-74.1119
2.949333333e+07,-75.925
2.986666667e+07,-64.4376
3.024000000e+07,-66.8437
3.061333333e+07,-75.2862
3.098666667e+07,-76.9195
3.136000000e+07,-73.9717
3.173333333e+07,-72.6811
3.210666667e+07,-73.1628
3.248000000e+07,-58.8812
3.285333333e+07,-57.7785
3.322666667e+07,-69.3644
3.360000000e+07,-69.2516
3.397333333e+07,-78.0438
3.434666667e+07,-76.4076
3.472000000e+07,-76.9421
3.509333333e+07,-62.7651
3.546666667e+07,-58.6556
3.584000000e+07,-60.7625
3.621333333e+07,-62.6864
3.658666667e+07,-76.8451
3.696000000e+07,-72.7999
3.733333333e+07,-68.3379
3.770666667e+07,-69.9572
3.808000000e+07,-60.7403
3.845333333e+07,-67.3024
3.882666667e+07,-71.9251
3.920000000e+07,-70.0498
3.957333333e+07,-80.7166
3.994666667e+07,-69.4182
4.032000000e+07,-67.4846
4.069333333e+07,-57.8686
4.106666667e+07,-59.6772
4.144000000e+07,-65.9121
4.181333333e+07,-76.1171
4.218666667e+07,-75.3635
4.256000000e+07,-72.8914
4.293333333e+07,-71.6362
4.330666667e+07,-62.634
4.368000000e+07,-62.8211
4.405333333e+07,-63.4141
4.442666667e+07,-69.7633
4.480000000e+07,-75.702
4.517333333e+07,-78.215
4.554666667e+07,-69.7031
4.592000000e+07,-62.3704
4.629333333e+07,-59.4318
4.666666667e+07,-58.7009
4.704000000e+07,-67.4171
4.741333333e+07,-74.8367
4.778666667e+07,-63.2972
4.816000000e+07,-63.1741
4.853333333e+07,-68.6454
4.890666667e+07,-61.7416
4.928000000e+07,-59.5163
4.965333333e+07,-67.0411
5.002666667e+07,-80.1241
5.040000000e+07,-69.5673
5.077333333e+07,-67.6596
5.114666667e+07,-66.1707
5.152000000e+07,-64.273
5.189333333e+07,-56.2917
5.226666667e+07,-63.3159
5.264000000e+07,-68.2849
5.301333333e+07,-75.2969
5.338666667e+07,-71.1442
5.376000000e+07,-72.1688
5.413333333e+07,-64.6247
5.450666667e+07,-56.501
5.488000000e+07,-58.807
5.525333333e+07,-70.1399
5.562666667e+07,-74.5294
5.600000000e+07,-73.6559
5.637333333e+07,-75.0825
5.674666667e+07,-74.0715
5.712000000e+07,-53.5234
5.749333333e+07,-53.6027
5.786666667e+07,-68.9779
5.824000000e+07,-74.7426
5.861333333e+07,-75.2785
5.898666667e+07,-74.6646
5.936000000e+07,-71.4753
5.973333333e+07,-36.8358
6.010666667e+07,-34.5172
6.048000000e+07,-52.8378
6.085333333e+07,-67.7111
6.122666667e+07,-68.8218
6.160000000e+07,-74.7215
6.197333333e+07,-79.3025
6.234666667e+07,-59.3658
6.272000000e+07,-52.2142
6.309333333e+07,-61.3566
6.346666667e+07,-71.5798
6.384000000e+07,-71.0654
6.421333333e+07,-77.4912
6.458666667e+07,-74.1107
6.496000000e+07,-63.2929
6.533333333e+07,-53.3084
6.570666667e+07,-57.8316
6.608000000e+07,-75.1056
6.645333333e+07,-77.2718
6.682666667e+07,-73.0576
6.720000000e+07,-73.9982
6.757333333e+07,-66.7593
6.794666667e+07,-56.1742
6.832000000e+07,-56.9378
6.869333333e+07,-65.7187
6.906666667e+07,-72.5984
6.944000000e+07,-69.894
6.981333333e+07,-71.1393
7.018666667e+07,-68.5521
7.056000000e+07,-59.5494
7.093333333e+07,-57.8372
7.130666667e+07,-61.1119
7.168000000e+07,-63.0583
7.205333333e+07,-61.5834
7.242666667e+07,-65.6721
7.280000000e+07,-69.8919
7.317333333e+07,-60.8438
7.354666667e+07,-57.688
7.392000000e+07,-57.973
7.429333333e+07,-66.5405
7.466666667e+07,-66.1686
7.504000000e+07,-66.0267
7.541333333e+07,-66.893
7.578666667e+07,-61.3877
7.616000000e+07,-58.5415
7.653333333e+07,-57.2808
7.690666667e+07,-61.878
7.728000000e+07,-71.0755
7.765333333e+07,-67.811
7.802666667e+07,-71.0907
7.840000000e+07,-61.6767
7.877333333e+07,-63.0227
7.914666667e+07,-54.6224
7.952000000e+07,-58.0439
7.989333333e+07,-67.7093
8.026666667e+07,-63.325
8.064000000e+07,-70.1261
8.101333333e+07,-70.388
8.138666667e+07,-62.8151
8.176000000e+07,-53.9932
8.213333333e+07,-54.6149
8.250666667e+07,-71.3636
8.288000000e+07,-70.9383
8.325333333e+07,-72.9227
8.362666667e+07,-62.9456
8.400000000e+07,-53.4976
8.437333333e+07,-54.4482
8.474666667e+07,-53.1198
8.512000000e+07,-66.8293
8.549333333e+07,-69.3986
8.586666667e+07,-73.8133
8.624000000e+07,-66.4204
8.661333333e+07,-68.7851
8.698666667e+07,-61.3009
8.736000000e+07,-55.1632
8.773333333e+07,-73.676
8.810666667e+07,-73.5115
8.848000000e+07,-71.9681
8.885333333e+07,-78.9163
8.922666667e+07,-74.3219
8.960000000e+07,-67.2564
8.997333333e+07,-52.7241
9.034666667e+07,-59.4606
9.072000000e+07,-73.9273
9.109333333e+07,-71.025
9.146666667e+07,-72.4874
9.184000000e+07,-70.461
9.221333333e+07,-68.2873
9.258666667e+07,-54.9621
9.296000000e+07,-57.8553
9.333333333e+07,-70.5764
9.370666667e+07,-79.617
9.408000000e+07,-67.4407
9.445333333e+07,-64.9327
9.482666667e+07,-66.1485
9.520000000e+07,-51.6066
9.557333333e+07,-51.8787
9.594666667e+07,-53.2233
9.632000000e+07,-69.235
9.669333333e+07,-68.5586
9.706666667e+07,-70.0824
9.744000000e+07,-72.5683
9.781333333e+07,-57.7754
9.818666667e+07,-55.3038
9.856000000e+07,-62.3524
9.893333333e+07,-67.2199
9.930666667e+07,-68.2094
9.968000000e+07,-70.7988
1.000533333e+08,-62.9882
1.004266667e+08,-60.4997
1.008000000e+08,-54.1547
1.011733333e+08,-57.3943
1.015466667e+08,-63.529
1.019200000e+08,-68.9514
1.022933333e+08,-67.0293
1.026666667e+08,-68.5596
1.030400000e+08,-66.6873
1.034133333e+08,-57.4199
1.037866667e+08,-59.4355
1.041600000e+08,-65.8946
1.045333333e+08,-69.47
1.049066667e+08,-68.1913
1.052800000e+08,-66.0124
1.056533333e+08,-64.1695
1.060266667e+08,-56.7943
1.064000000e+08,-54.1405
1.067733333e+08,-56.3605
1.071466667e+08,-61.1635
1.075200000e+08,-63.7437
1.078933333e+08,-51.0526
1.082666667e+08,-54.0613
1.086400000e+08,-61.4038
1.090133333e+08,-55.281
1.093866667e+08,-54.9549
1.097600000e+08,-63.1334
1.101333333e+08,-64.6978
1.105066667e+08,-70.3259
1.108800000e+08,-67.482
1.112533333e+08,-65.313
1.116266667e+08,-53.8811
1.120000000e+08,-51.1321
1.123733333e+08,-60.0041
1.127466667e+08,-67.7185
1.131200000e+08,-67.3109
1.134933333e+08,-64.6946
1.138666667e+08,-64.0086
1.142400000e+08,-59.2834
1.146133333e+08,-54.6846
1.149866667e+08,-65.4125
1.153600000e+08,-73.0202
1.157333333e+08,-71.7428
1.161066667e+08,-75.1824
1.164800000e+08,-70.9517
1.168533333e+08,-67.3756
1.172266667e+08,-51.1002
1.176000000e+08,-54.1473
1.179733333e+08,-73.2492
1.183466667e+08,-71.4538
1.187200000e+08,-72.5829
1.190933333e+08,-72.0948
1.194666667e+08,-59.1556
1.198400000e+08,-35.9028
1.202133333e+08,-36.7471
1.205866667e+08,-70.2248
1.209600000e+08,-65.301
1.213333333e+08,-64.8253
1.217066667e+08,-71.0135
1.220800000e+08,-72.028
1.224533333e+08,-51.4656
1.228266667e+08,-49.8647
1.232000000e+08,-68.1119
1.235733333e+08,-74.3146
1.239466667e+08,-75.2543
1.243200000e+08,-72.4819
1.246933333e+08,-73.6069
1.250666667e+08,-57.1361
1.254400000e+08,-52.2128
1.258133333e+08,-61.6997
1.261866667e+08,-65.3338
1.265600000e+08,-65.1917
1.269333333e+08,-69.3268
1.273066667e+08,-64.8117
1.276800000e+08,-58.8341
1.280533333e+08,-49.6759
1.284266667e+08,-54.4016
1.288000000e+08,-62.1032
1.291733333e+08,-64.1853
1.295466667e+08,-65.5117
1.299200000e+08,-65.1768
1.302933333e+08,-59.9673
1.306666667e+08,-52.2929
1.310400000e+08,-54.0204
1.314133333e+08,-61.2789
1.317866667e+08,-51.3624
1.321600000e+08,-50.189
1.325333333e+08,-65.9844
1.329066667e+08,-61.458
1.332800000e+08,-52.5698
1.336533333e+08,-51.7931
1.340266667e+08,-54.2626
1.344000000e+08,-64.2736
1.347733333e+08,-62.8024
1.351466667e+08,-65.4798
1.355200000e+08,-64.5736
1.358933333e+08,-58.38
1.362666667e+08,-55.026
1.366400000e+08,-53.6559
1.370133333e+08,-61.6558
1.373866667e+08,-62.1257
1.377600000e+08,-65.4128
1.381333333e+08,-68.9193
1.385066667e+08,-59.2963
1.388800000e+08,-54.6635
1.392533333e+08,-50.6451
1.396266667e+08,-59.2847
1.400000000e+08,-64.1403
1.403733333e+08,-65.4271
1.407466667e+08,-67.8073
1.411200000e+08,-62.6915
1.414933333e+08,-58.2283
1.418666667e+08,-52.5164
1.422400000e+08,-57.6237
1.426133333e+08,-69.473
1.429866667e+08,-71.9362
1.433600000e+08,-67.3003
1.437333333e+08,-57.3202
1.441066667e+08,-58.5934
1.444800000e+08,-48.885
1.448533333e+08,-50.2251
1.452266667e+08,-68.0061
1.456000000e+08,-70.589
1.459733333e+08,-70.6402
1.463466667e+08,-70.3086
1.467200000e+08,-71.7382
1.470933333e+08,-52.0439
1.474666667e+08,-51.2436
1.478400000e+08,-66.6113
1.482133333e+08,-66.1965
1.485866667e+08,-71.0109
1.489600000e+08,-70.1815
1.493333333e+08,-69.4247
1.497066667e+08,-52.0046
1.500800000e+08,-48.834
1.504533333e+08,-64.9112
1.508266667e+08,-72.7399
1.512000000e+08,-73.2747
1.515733333e+08,-68.3522
1.519466667e+08,-77.8223
1.523200000e+08,-62.7541
1.526933333e+08,-52.8737
1.530666667e+08,-61.2259
1.534400000e+08,-65.8811
1.538133333e+08,-66.9033
1.541866667e+08,-66.1799
1.545600000e+08,-69.9737
1.549333333e+08,-63.452
1.553066667e+08,-49.279
1.556800000e+08,-52.0615
1.560533333e+08,-51.272
1.564266667e+08,-63.9462
1.568000000e+08,-67.9268
1.571733333e+08,-66.5814
1.575466667e+08,-63.4814
1.579200000e+08,-51.8883
1.582933333e+08,-52.4047
1.586666667e+08,-66.4359
1.590400000e+08,-67.7723
1.594133333e+08,-69.9147
1.597866667e+08,-66.6065
1.601600000e+08,-64.4763
1.605333333e+08,-51.1329
1.609066667e+08,-49.5657
1.612800000e+08,-53.934
1.616533333e+08,-63.0472
1.620266667e+08,-65.9505
1.624000000e+08,-67.5167
1.627733333e+08,-66.7862
1.631466667e+08,-59.2202
1.635200000e+08,-54.742
1.638933333e+08,-56.1794
1.642666667e+08,-60.1321
1.646400000e+08,-62.0649
1.650133333e+08,-64.2019
1.653866667e+08,-61.5596
1.657600000e+08,-60.0414
1.661333333e+08,-52.154
1.665066667e+08,-50.351
1.668800000e+08,-56.2651
1.672533333e+08,-64.0349
1.676266667e+08,-61.6707
1.680000000e+08,-62.6004
1.683733333e+08,-60.0625
1.687466667e+08,-58.2562
1.691200000e+08,-54.4914
1.694933333e+08,-58.2521
1.698666667e+08,-65.4282
1.702400000e+08,-67.3263
1.706133333e+08,-67.3789
1.709866667e+08,-66.8452
1.713600000e+08,-59.9433
1.717333333e+08,-48.2141
1.721066667e+08,-48.4181
1.724800000e+08,-61.8272
1.728533333e+08,-69.829
1.732266667e+08,-71.8933
1.736000000e+08,-69.269
1.739733333e+08,-68.0921
1.743466667e+08,-54.772
1.747200000e+08,-52.4841
1.750933333e+08,-63.5485
1.754666667e+08,-66.9235
1.758400000e+08,-68.5622
1.762133333e+08,-66.9086
1.765866667e+08,-68.1266
1.769600000e+08,-53.4234
1.773333333e+08,-47.0544
1.777066667e+08,-58.5091
1.780800000e+08,-69.0533
1.784533333e+08,-73.9316
1.788266667e+08,-79.0844
1.792000000e+08,-75.0771
1.795733333e+08,-56.4889
1.799466667e+08,-42.7759
1.803200000e+08,-48.085
1.806933333e+08,-68.4496
1.810666667e+08,-65.6739
1.814400000e+08,-66.8822
1.818133333e+08,-69.9336
1.821866667e+08,-65.6503
1.825600000e+08,-47.262
1.829333333e+08,-48.4346
1.833066667e+08,-62.6314
1.836800000e+08,-66.5904
1.840533333e+08,-67.2899
1.844266667e+08,-67.7496
1.848000000e+08,-63.6199
1.851733333e+08,-53.744
1.855466667e+08,-52.7727
1.859200000e+08,-67.3847
1.862933333e+08,-70.0504
1.866666667e+08,-70.2953
1.870400000e+08,-66.1771
1.874133333e+08,-69.486
1.877866667e+08,-50.4625
1.881600000e+08,-47.6558
1.885333333e+08,-55.0261
1.889066667e+08,-69.1804
1.892800000e+08,-68.8625
1.896533333e+08,-63.3831
1.900266667e+08,-63.5167
1.904000000e+08,-59.8453
1.907733333e+08,-54.1095
1.911466667e+08,-56.7365
1.915200000e+08,-51.794
1.918933333e+08,-50.7752
1.922666667e+08,-61.0145
1.926400000e+08,-62.5791
1.930133333e+08,-59.8981
1.933866667e+08,-49.5037
1.937600000e+08,-50.7848
1.941333333e+08,-56.1589
1.945066667e+08,-61.7619
1.948800000e+08,-62.0562
1.952533333e+08,-60.1963
1.956266667e+08,-59.8694
1.960000000e+08,-55.0523
1.963733333e+08,-55.1255
1.967466667e+08,-56.0092
1.971200000e+08,-66.2286
1.974933333e+08,-68.415
1.978666667e+08,-64.8071
1.982400000e+08,-62.3043
1.986133333e+08,-55.1075
1.989866667e+08,-49.8821
1.993600000e+08,-48.8269
1.997333333e+08,-61.8874
2.001066667e+08,-63.6434
2.004800000e+08,-64.9173
2.008533333e+08,-67.648
2.012266667e+08,-64.7202
2.016000000e+08,-59.3449
2.019733333e+08,-54.7243
2.023466667e+08,-65.1915
2.027200000e+08,-66.751
2.030933333e+08,-62.6984
2.034666667e+08,-62.6587
2.038400000e+08,-50.3536
2.042133333e+08,-50.9238
2.045866667e+08,-47.4307
2.049600000e+08,-54.7025
2.053333333e+08,-63.9123
2.057066667e+08,-63.9838
2.060800000e+08,-64.2788
2.064533333e+08,-69.8482
2.068266667e+08,-65.4193
2.072000000e+08,-52.6321
2.075733333e+08,-54.5126
2.079466667e+08,-71.717
2.083200000e+08,-70.0669
2.086933333e+08,-70.449
2.090666667e+08,-70.3386
2.094400000e+08,-70.6083
2.098133333e+08,-46.3171
2.101866667e+08,-46.4241
2.105600000e+08,-70.2265
2.109333333e+08,-66.8824
2.113066667e+08,-62.8484
2.116800000e+08,-66.3686
2.120533333e+08,-69.4369
2.124266667e+08,-55.5717
2.128000000e+08,-53.3125
2.131733333e+08,-67.2409
2.135466667e+08,-65.3252
2.139200000e+08,-62.2474
2.142933333e+08,-67.3987
2.146666667e+08,-64.9924
2.150400000e+08,-55.4795
2.154133333e+08,-47.4045
2.157866667e+08,-53.9375
2.161600000e+08,-57.7005
2.165333333e+08,-71.6851
2.169066667e+08,-74.9469
2.172800000e+08,-68.5741
2.176533333e+08,-61.0936
2.180266667e+08,-55.247
2.184000000e+08,-60.0134
2.187733333e+08,-61.4272
2.191466667e+08,-61.5366
2.195200000e+08,-66.1879
2.198933333e+08,-66.4603
2.202666667e+08,-60.743
2.206400000e+08,-48.0796
2.210133333e+08,-48.7918
2.213866667e+08,-54.4535
2.217600000e+08,-57.8531
2.221333333e+08,-64.9311
2.225066667e+08,-63.4885
2.228800000e+08,-64.981
2.232533333e+08,-55.1087
2.236266667e+08,-55.0417
2.240000000e+08,-58.6077
2.243733333e+08,-61.4714
2.247466667e+08,-62.9727
2.251200000e+08,-63.9453
2.254933333e+08,-64.6976
2.258666667e+08,-55.9711
2.262400000e+08,-51.2996
2.266133333e+08,-50.6635
2.269866667e+08,-60.4371
2.273600000e+08,-66.4436
2.277333333e+08,-49.9235
2.281066667e+08,-47.9996
2.284800000e+08,-63.9801
2.288533333e+08,-59.5986
2.292266667e+08,-54.5448
2.296000000e+08,-60.9837
2.299733333e+08,-63.4676
2.303466667e+08,-66.6039
2.307200000e+08,-65.5116
2.310933333e+08,-61.0385
2.314666667e+08,-54.444
2.318400000e+08,-47.0153
2.322133333e+08,-50.5382
2.325866667e+08,-63.948
2.329600000e+08,-65.0629
2.333333333e+08,-68.8721
2.337066667e+08,-66.5757
2.340800000e+08,-63.778
2.344533333e+08,-52.5332
2.348266667e+08,-53.6162
2.352000000e+08,-67.9513
2.355733333e+08,-71.8172
2.359466667e+08,-72.3207
2.363200000e+08,-68.8767
2.366933333e+08,-69.9595
2.370666667e+08,-48.6328
2.374400000e+08,-47.0851
2.378133333e+08,-71.616
2.381866667e+08,-67.6268
2.385600000e+08,-67.9101
2.389333333e+08,-71.6417
2.393066667e+08,-55.3408
2.396800000e+08,-46.9865
2.400533333e+08,-47.1768
2.404266667e+08,-61.2905
2.408000000e+08,-68.7041
2.411733333e+08,-72.1106
2.415466667e+08,-72.2737
2.419200000e+08,-68.6743
2.422933333e+08,-58.2478
2.426666667e+08,-46.4413
2.430400000e+08,-52.4219
2.434133333e+08,-67.777
2.437866667e+08,-69.7006
2.441600000e+08,-66.5106
2.445333333e+08,-65.5036
2.449066667e+08,-68.3537
2.452800000e+08,-53.3367
2.456533333e+08,-55.6145
2.460266667e+08,-65.4736
2.464000000e+08,-67.6178
2.467733333e+08,-67.7314
2.471466667e+08,-68.1294
2.475200000e+08,-65.3483
2.478933333e+08,-48.7644
2.482666667e+08,-48.2672
2.486400000e+08,-56.1546
2.490133333e+08,-62.6868
2.493866667e+08,-63.7841
2.497600000e+08,-64.9425
2.501333333e+08,-62.7619
2.505066667e+08,-57.0953
2.508800000e+08,-54.7869
2.512533333e+08,-61.1281
2.516266667e+08,-59.1035
2.520000000e+08,-48.352
2.523733333e+08,-54.1578
2.527466667e+08,-61.8258
2.531200000e+08,-56.2668
2.534933333e+08,-49.9972
2.538666667e+08,-51.3035
2.542400000e+08,-59.2488
2.546133333e+08,-62.1868
2.549866667e+08,-67.2648
2.553600000e+08,-66.4216
2.557333333e+08,-62.3778
2.561066667e+08,-56.7062
2.564800000e+08,-55.936
2.568533333e+08,-60.1802
2.572266667e+08,-63.4892
2.576000000e+08,-67.2421
2.579733333e+08,-66.2724
2.583466667e+08,-64.0574
2.587200000e+08,-52.8415
2.590933333e+08,-49.0081
2.594666667e+08,-50.7847
2.598400000e+08,-65.5779
2.602133333e+08,-64.446
2.605866667e+08,-67.0072
2.609600000e+08,-69.334
2.613333333e+08,-60.5851
2.617066667e+08,-56.3403
2.620800000e+08,-54.8309
2.624533333e+08,-63.1973
2.628266667e+08,-70.0092
2.632000000e+08,-68.6519
2.635733333e+08,-55.0475
2.639466667e+08,-54.2074
2.643200000e+08,-51.4971
2.646933333e+08,-48.4311
2.650666667e+08,-60.363
2.654400000e+08,-69.6349
2.658133333e+08,-69.4
2.661866667e+08,-73.0799
2.665600000e+08,-74.1545
2.669333333e+08,-62.3492
2.673066667e+08,-54.1061
2.676800000e+08,-64.4153
2.680533333e+08,-69.6017
2.684266667e+08,-71.0359
2.688000000e+08,-70.8057
2.691733333e+08,-70.3954
2.695466667e+08,-62.898
2.699200000e+08,-47.1047
2.702933333e+08,-50.2519
2.706666667e+08,-72.79
2.710400000e+08,-71.1065
2.714133333e+08,-66.5007
2.717866667e+08,-70.5661
2.721600000e+08,-68.7406
2.725333333e+08,-53.9356
2.729066667e+08,-54.857
2.732800000e+08,-72.3894
2.736533333e+08,-73.0128
2.740266667e+08,-70.466
2.744000000e+08,-68.4481
2.747733333e+08,-68.2056
2.751466667e+08,-50.6686
2.755200000e+08,-48.9508
2.758933333e+08,-46.2939
2.762666667e+08,-48.8716
2.766400000e+08,-74.0485
2.770133333e+08,-63.2791
2.773866667e+08,-62.395
2.777600000e+08,-60.068
2.781333333e+08,-54.2473
2.785066667e+08,-60.9125
2.788800000e+08,-65.1771
2.792533333e+08,-66.8143
2.796266667e+08,-67.47
2.800000000e+08,-67.0798

