2/tek0005NRM.csv

Model,MDO3104
Firmware Version,1.30

Waveform Type,RF_FD
Point Format,Y
Horizontal Units,Hz
Horizontal Scale,2.8e+07
,
Sample Interval,373333
Record Length,751
Gating,0.133155792277% to 100.0%
Probe Attenuation,1
Vertical Units,dBm
Vertical Offset,0
Vertical Scale,10
Vertical Position,0
Center Frequency,1.4e+08
Span,2.8e+08
Reference Level,-15
Label,
FREQUENCY,FD NORM
0.000000000e+00,-61.8715
3.733333333e+05,-70.5344
7.466666667e+05,-77.2824
1.120000000e+06,-76.8056
1.493333333e+06,-71.4629
1.866666667e+06,-69.1066
2.240000000e+06,-68.3813
2.613333333e+06,-63.8999
2.986666667e+06,-69.0404
3.360000000e+06,-58.8799
3.733333333e+06,-60.5626
4.106666667e+06,-66.368
4.480000000e+06,-65.8038
4.853333333e+06,-72.0066
5.226666667e+06,-62.333
5.600000000e+06,-65.8539
5.973333333e+06,-70.279
6.346666667e+06,-69.6235
6.720000000e+06,-69.4663
7.093333333e+06,-68.2775
7.466666667e+06,-74.5129
7.840000000e+06,-67.9463
8.213333333e+06,-65.3631
8.586666667e+06,-70.7006
8.960000000e+06,-69.3507
9.333333333e+06,-69.3873
9.706666667e+06,-67.8966
1.008000000e+07,-69.41
1.045333333e+07,-79.8372
1.082666667e+07,-83.3832
1.120000000e+07,-67.8218
1.157333333e+07,-72.3271
1.194666667e+07,-68.2367
1.232000000e+07,-71.8487
1.269333333e+07,-69.855
1.306666667e+07,-70.6278
1.344000000e+07,-63.5904
1.381333333e+07,-68.8166
1.418666667e+07,-73.9485
1.456000000e+07,-69.1361
1.493333333e+07,-73.8173
1.530666667e+07,-70.027
1.568000000e+07,-65.3526
1.605333333e+07,-66.4959
1.642666667e+07,-70.4711
1.680000000e+07,-70.0882
1.717333333e+07,-73.2212
1.754666667e+07,-68.9192
1.792000000e+07,-74.3271
1.829333333e+07,-66.0861
1.866666667e+07,-70.4159
1.904000000e+07,-71.7629
1.941333333e+07,-73.9052
1.978666667e+07,-75.783
2.016000000e+07,-71.1963
2.053333333e+07,-72.754
2.090666667e+07,-67.4853
2.128000000e+07,-68.9047
2.165333333e+07,-69.718
2.202666667e+07,-70.1574
2.240000000e+07,-70.7724
2.277333333e+07,-64.8029
2.314666667e+07,-66.1709
2.352000000e+07,-64.5259
2.389333333e+07,-66.7077
2.426666667e+07,-64.6037
2.464000000e+07,-56.8709
2.501333333e+07,-51.923
2.538666667e+07,-64.5364
2.576000000e+07,-66.6262
2.613333333e+07,-69.6248
2.650666667e+07,-71.2035
2.688000000e+07,-63.3925
2.725333333e+07,-58.0834
2.762666667e+07,-61.8486
2.800000000e+07,-72.2237
2.837333333e+07,-72.5639
2.874666667e+07,-68.9035
2.912000000e+07,-74.9527
2.949333333e+07,-66.2729
2.986666667e+07,-59.5479
3.024000000e+07,-61.0043
3.061333333e+07,-70.7709
3.098666667e+07,-76.3566
3.136000000e+07,-70.4541
3.173333333e+07,-72.6176
3.210666667e+07,-73.1706
3.248000000e+07,-61.1111
3.285333333e+07,-59.8328
3.322666667e+07,-69.104
3.360000000e+07,-70.2436
3.397333333e+07,-75.3133
3.434666667e+07,-69.5225
3.472000000e+07,-75.2261
3.509333333e+07,-64.177
3.546666667e+07,-58.6732
3.584000000e+07,-61.4562
3.621333333e+07,-61.361
3.658666667e+07,-72.318
3.696000000e+07,-74.1484
3.733333333e+07,-73.4465
3.770666667e+07,-71.7259
3.808000000e+07,-59.0561
3.845333333e+07,-61.9553
3.882666667e+07,-73.2988
3.920000000e+07,-73.5283
3.957333333e+07,-74.8663
3.994666667e+07,-75.1821
4.032000000e+07,-67.8078
4.069333333e+07,-58.7458
4.106666667e+07,-59.8549
4.144000000e+07,-69.6171
4.181333333e+07,-73.3102
4.218666667e+07,-71.1109
4.256000000e+07,-70.4371
4.293333333e+07,-70.7985
4.330666667e+07,-60.9714
4.368000000e+07,-60.4672
4.405333333e+07,-67.2469
4.442666667e+07,-69.0412
4.480000000e+07,-68.5889
4.517333333e+07,-70.6886
4.554666667e+07,-70.8977
4.592000000e+07,-65.2404
4.629333333e+07,-57.4509
4.666666667e+07,-57.8446
4.704000000e+07,-71.0376
4.741333333e+07,-72.7988
4.778666667e+07,-68.1556
4.816000000e+07,-74.9462
4.853333333e+07,-71.0695
4.890666667e+07,-59.777
4.928000000e+07,-58.5355
4.965333333e+07,-72.4917
5.002666667e+07,-70.6708
5.040000000e+07,-69.3091
5.077333333e+07,-67.5121
5.114666667e+07,-68.9465
5.152000000e+07,-57.6101
5.189333333e+07,-54.1258
5.226666667e+07,-65.6355
5.264000000e+07,-73.5077
5.301333333e+07,-72.8657
5.338666667e+07,-69.4663
5.376000000e+07,-77.4938
5.413333333e+07,-64.926
5.450666667e+07,-57.1329
5.488000000e+07,-61.2216
5.525333333e+07,-64.3379
5.562666667e+07,-63.612
5.600000000e+07,-71.2495
5.637333333e+07,-70.281
5.674666667e+07,-74.0986
5.712000000e+07,-52.5033
5.749333333e+07,-52.8426
5.786666667e+07,-73.6131
5.824000000e+07,-75.3122
5.861333333e+07,-70.2832
5.898666667e+07,-69.111
5.936000000e+07,-71.6586
5.973333333e+07,-36.7161
6.010666667e+07,-34.4577
6.048000000e+07,-53.2136
6.085333333e+07,-69.0917
6.122666667e+07,-70.2695
6.160000000e+07,-67.2099
6.197333333e+07,-69.2804
6.234666667e+07,-62.4243
6.272000000e+07,-52.9445
6.309333333e+07,-62.6446
6.346666667e+07,-69.2557
6.384000000e+07,-68.6974
6.421333333e+07,-69.4335
6.458666667e+07,-69.2766
6.496000000e+07,-70.7048
6.533333333e+07,-55.1016
6.570666667e+07,-59.326
6.608000000e+07,-73.3764
6.645333333e+07,-70.9521
6.682666667e+07,-68.284
6.720000000e+07,-67.5366
6.757333333e+07,-66.7961
6.794666667e+07,-56.5234
6.832000000e+07,-56.0736
6.869333333e+07,-69.4356
6.906666667e+07,-66.6598
6.944000000e+07,-65.4551
6.981333333e+07,-68.8346
7.018666667e+07,-64.5742
7.056000000e+07,-59.5273
7.093333333e+07,-56.9598
7.130666667e+07,-62.3187
7.168000000e+07,-65.3009
7.205333333e+07,-65.4899
7.242666667e+07,-71.1678
7.280000000e+07,-72.13
7.317333333e+07,-63.7191
7.354666667e+07,-54.8718
7.392000000e+07,-57.4905
7.429333333e+07,-67.1368
7.466666667e+07,-65.6578
7.504000000e+07,-63.7003
7.541333333e+07,-65.8371
7.578666667e+07,-67.7835
7.616000000e+07,-55.9841
7.653333333e+07,-55.3511
7.690666667e+07,-65.3586
7.728000000e+07,-68.0272
7.765333333e+07,-68.5618
7.802666667e+07,-61.9579
7.840000000e+07,-61.3923
7.877333333e+07,-57.7835
7.914666667e+07,-55.2375
7.952000000e+07,-62.0319
7.989333333e+07,-69.1972
8.026666667e+07,-66.9953
8.064000000e+07,-65.3878
8.101333333e+07,-69.106
8.138666667e+07,-60.7466
8.176000000e+07,-54.8863
8.213333333e+07,-56.7484
8.250666667e+07,-68.5316
8.288000000e+07,-68.406
8.325333333e+07,-68.4042
8.362666667e+07,-60.4985
8.400000000e+07,-53.8084
8.437333333e+07,-54.6211
8.474666667e+07,-53.6666
8.512000000e+07,-67.2245
8.549333333e+07,-65.3831
8.586666667e+07,-72.6349
8.624000000e+07,-65.4248
8.661333333e+07,-70.5533
8.698666667e+07,-57.7915
8.736000000e+07,-54.856
8.773333333e+07,-68.5889
8.810666667e+07,-72.8796
8.848000000e+07,-70.5317
8.885333333e+07,-69.9038
8.922666667e+07,-68.4273
8.960000000e+07,-64.9097
8.997333333e+07,-60.1529
9.034666667e+07,-64.0157
9.072000000e+07,-70.1075
9.109333333e+07,-70.5227
9.146666667e+07,-71.6821
9.184000000e+07,-70.4609
9.221333333e+07,-73.1554
9.258666667e+07,-53.7742
9.296000000e+07,-55.9613
9.333333333e+07,-67.829
9.370666667e+07,-68.4347
9.408000000e+07,-69.6187
9.445333333e+07,-69.843
9.482666667e+07,-70.7552
9.520000000e+07,-52.2066
9.557333333e+07,-51.573
9.594666667e+07,-51.0193
9.632000000e+07,-68.0849
9.669333333e+07,-68.2809
9.706666667e+07,-71.9327
9.744000000e+07,-66.1133
9.781333333e+07,-57.9308
9.818666667e+07,-53.8521
9.856000000e+07,-59.6052
9.893333333e+07,-75.0211
9.930666667e+07,-71.3504
9.968000000e+07,-70.2667
1.000533333e+08,-60.5615
1.004266667e+08,-64.7112
1.008000000e+08,-52.6055
1.011733333e+08,-54.7579
1.015466667e+08,-65.7372
1.019200000e+08,-64.9895
1.022933333e+08,-67.4431
1.026666667e+08,-68.7776
1.030400000e+08,-67.8841
1.034133333e+08,-54.1723
1.037866667e+08,-54.8904
1.041600000e+08,-67.4691
1.045333333e+08,-63.3097
1.049066667e+08,-66.8861
1.052800000e+08,-64.6846
1.056533333e+08,-66.2873
1.060266667e+08,-53.9657
1.064000000e+08,-51.5943
1.067733333e+08,-56.0418
1.071466667e+08,-64.1029
1.075200000e+08,-63.9718
1.078933333e+08,-52.2376
1.082666667e+08,-53.2787
1.086400000e+08,-62.5411
1.090133333e+08,-54.5378
1.093866667e+08,-55.3067
1.097600000e+08,-67.0923
1.101333333e+08,-68.0717
1.105066667e+08,-63.907
1.108800000e+08,-67.8163
1.112533333e+08,-64.751
1.116266667e+08,-52.335
1.120000000e+08,-51.0762
1.123733333e+08,-66.3291
1.127466667e+08,-64.8207
1.131200000e+08,-64.8242
1.134933333e+08,-63.7408
1.138666667e+08,-67.0755
1.142400000e+08,-56.8205
1.146133333e+08,-52.4451
1.149866667e+08,-65.5311
1.153600000e+08,-62.4265
1.157333333e+08,-70.7059
1.161066667e+08,-66.5327
1.164800000e+08,-68.8976
1.168533333e+08,-61.9784
1.172266667e+08,-50.0197
1.176000000e+08,-54.5601
1.179733333e+08,-71.3063
1.183466667e+08,-67.4372
1.187200000e+08,-68.7898
1.190933333e+08,-66.2382
1.194666667e+08,-61.3566
1.198400000e+08,-36.4118
1.202133333e+08,-37.2528
1.205866667e+08,-71.4804
1.209600000e+08,-69.5498
1.213333333e+08,-66.5104
1.217066667e+08,-68.266
1.220800000e+08,-67.6949
1.224533333e+08,-51.4556
1.228266667e+08,-49.6083
1.232000000e+08,-65.1306
1.235733333e+08,-76.3458
1.239466667e+08,-70.4813
1.243200000e+08,-71.0682
1.246933333e+08,-63.9398
1.250666667e+08,-58.1119
1.254400000e+08,-51.9517
1.258133333e+08,-58.8676
1.261866667e+08,-74.0798
1.265600000e+08,-67.7862
1.269333333e+08,-69.4692
1.273066667e+08,-65.367
1.276800000e+08,-65.0735
1.280533333e+08,-50.306
1.284266667e+08,-53.1222
1.288000000e+08,-63.2308
1.291733333e+08,-65.3443
1.295466667e+08,-65.499
1.299200000e+08,-64.2523
1.302933333e+08,-65.8851
1.306666667e+08,-52.5084
1.310400000e+08,-53.2763
1.314133333e+08,-65.3451
1.317866667e+08,-51.6261
1.321600000e+08,-52.0039
1.325333333e+08,-67.384
1.329066667e+08,-65.2859
1.332800000e+08,-52.0755
1.336533333e+08,-50.6548
1.340266667e+08,-53.8102
1.344000000e+08,-65.473
1.347733333e+08,-63.0915
1.351466667e+08,-63.0678
1.355200000e+08,-62.5697
1.358933333e+08,-59.6246
1.362666667e+08,-53.267
1.366400000e+08,-53.8006
1.370133333e+08,-65.6598
1.373866667e+08,-61.6454
1.377600000e+08,-64.487
1.381333333e+08,-64.2071
1.385066667e+08,-67.1416
1.388800000e+08,-50.635
1.392533333e+08,-49.2521
1.396266667e+08,-65.0634
1.400000000e+08,-62.663
1.403733333e+08,-63.4566
1.407466667e+08,-61.5888
1.411200000e+08,-67.3713
1.414933333e+08,-56.0054
1.418666667e+08,-51.9555
1.422400000e+08,-60.3031
1.426133333e+08,-66.3905
1.429866667e+08,-65.2441
1.433600000e+08,-63.9209
1.437333333e+08,-55.4549
1.441066667e+08,-58.4676
1.444800000e+08,-48.0878
1.448533333e+08,-50.3819
1.452266667e+08,-62.0074
1.456000000e+08,-63.6776
1.459733333e+08,-63.6409
1.463466667e+08,-64.5341
1.467200000e+08,-68.3875
1.470933333e+08,-52.6207
1.474666667e+08,-52.3434
1.478400000e+08,-67.2598
1.482133333e+08,-65.0326
1.485866667e+08,-64.9892
1.489600000e+08,-65.4185
1.493333333e+08,-65.5812
1.497066667e+08,-50.402
1.500800000e+08,-47.9023
1.504533333e+08,-66.1591
1.508266667e+08,-65.2055
1.512000000e+08,-64.8372
1.515733333e+08,-62.8596
1.519466667e+08,-66.715
1.523200000e+08,-61.2445
1.526933333e+08,-51.9034
1.530666667e+08,-59.4946
1.534400000e+08,-66.1246
1.538133333e+08,-69.231
1.541866667e+08,-65.8038
1.545600000e+08,-69.4878
1.549333333e+08,-65.4822
1.553066667e+08,-49.2652
1.556800000e+08,-51.3962
1.560533333e+08,-49.5811
1.564266667e+08,-64.8932
1.568000000e+08,-63.415
1.571733333e+08,-67.5841
1.575466667e+08,-61.5651
1.579200000e+08,-53.0503
1.582933333e+08,-53.1834
1.586666667e+08,-65.311
1.590400000e+08,-69.1192
1.594133333e+08,-65.5464
1.597866667e+08,-64.2588
1.601600000e+08,-62.5688
1.605333333e+08,-53.2993
1.609066667e+08,-49.4225
1.612800000e+08,-54.3332
1.616533333e+08,-61.7018
1.620266667e+08,-61.0651
1.624000000e+08,-65.9198
1.627733333e+08,-63.0688
1.631466667e+08,-62.5286
1.635200000e+08,-53.2547
1.638933333e+08,-55.4088
1.642666667e+08,-65.8488
1.646400000e+08,-64.4338
1.650133333e+08,-63.9425
1.653866667e+08,-63.7867
1.657600000e+08,-59.6034
1.661333333e+08,-50.2154
1.665066667e+08,-49.6403
1.668800000e+08,-62.6557
1.672533333e+08,-60.8837
1.676266667e+08,-58.8371
1.680000000e+08,-64.4659
1.683733333e+08,-64.3799
1.687466667e+08,-56.7092
1.691200000e+08,-51.9932
1.694933333e+08,-55.7915
1.698666667e+08,-70.6448
1.702400000e+08,-67.7382
1.706133333e+08,-68.0245
1.709866667e+08,-62.873
1.713600000e+08,-57.9457
1.717333333e+08,-49.2022
1.721066667e+08,-50.442
1.724800000e+08,-63.3334
1.728533333e+08,-63.5655
1.732266667e+08,-65.6792
1.736000000e+08,-65.163
1.739733333e+08,-65.1285
1.743466667e+08,-52.1838
1.747200000e+08,-50.9342
1.750933333e+08,-62.5925
1.754666667e+08,-62.5511
1.758400000e+08,-65.145
1.762133333e+08,-64.839
1.765866667e+08,-75.4073
1.769600000e+08,-51.7846
1.773333333e+08,-46.6783
1.777066667e+08,-59.7026
1.780800000e+08,-65.0513
1.784533333e+08,-65.1168
1.788266667e+08,-63.0982
1.792000000e+08,-64.1826
1.795733333e+08,-62.7189
1.799466667e+08,-54.8778
1.803200000e+08,-58.2225
1.806933333e+08,-65.0393
1.810666667e+08,-67.3574
1.814400000e+08,-64.2461
1.818133333e+08,-68.3043
1.821866667e+08,-70.8365
1.825600000e+08,-46.8532
1.829333333e+08,-47.8597
1.833066667e+08,-68.9163
1.836800000e+08,-66.0454
1.840533333e+08,-67.8307
1.844266667e+08,-64.722
1.848000000e+08,-67.5214
1.851733333e+08,-52.4407
1.855466667e+08,-51.0201
1.859200000e+08,-63.7408
1.862933333e+08,-64.9154
1.866666667e+08,-68.9738
1.870400000e+08,-63.452
1.874133333e+08,-64.2018
1.877866667e+08,-53.0112
1.881600000e+08,-47.1948
1.885333333e+08,-53.078
1.889066667e+08,-64.9623
1.892800000e+08,-65.6538
1.896533333e+08,-64.6466
1.900266667e+08,-63.016
1.904000000e+08,-67.6625
1.907733333e+08,-53.4821
1.911466667e+08,-54.8345
1.915200000e+08,-53.6903
1.918933333e+08,-53.0173
1.922666667e+08,-59.7087
1.926400000e+08,-61.8053
1.930133333e+08,-58.4987
1.933866667e+08,-48.7693
1.937600000e+08,-49.0992
1.941333333e+08,-63.6802
1.945066667e+08,-58.4107
1.948800000e+08,-63.7384
1.952533333e+08,-63.5426
1.956266667e+08,-62.3107
1.960000000e+08,-57.9333
1.963733333e+08,-54.5662
1.967466667e+08,-55.8463
1.971200000e+08,-64.3644
1.974933333e+08,-67.393
1.978666667e+08,-60.9962
1.982400000e+08,-62.6162
1.986133333e+08,-57.6601
1.989866667e+08,-48.6549
1.993600000e+08,-48.7114
1.997333333e+08,-63.5017
2.001066667e+08,-63.4196
2.004800000e+08,-62.8318
2.008533333e+08,-65.2878
2.012266667e+08,-59.5746
2.016000000e+08,-56.9436
2.019733333e+08,-55.7332
2.023466667e+08,-64.0104
2.027200000e+08,-67.1407
2.030933333e+08,-60.8065
2.034666667e+08,-63.3143
2.038400000e+08,-49.0876
2.042133333e+08,-50.2075
2.045866667e+08,-47.3397
2.049600000e+08,-57.2092
2.053333333e+08,-66.4995
2.057066667e+08,-63.8337
2.060800000e+08,-64.5956
2.064533333e+08,-64.4473
2.068266667e+08,-63.4955
2.072000000e+08,-54.0979
2.075733333e+08,-57.6415
2.079466667e+08,-66.8528
2.083200000e+08,-63.1605
2.086933333e+08,-64.5596
2.090666667e+08,-64.9864
2.094400000e+08,-67.3676
2.098133333e+08,-46.9228
2.101866667e+08,-46.8411
2.105600000e+08,-65.1273
2.109333333e+08,-67.0857
2.113066667e+08,-68.0798
2.116800000e+08,-65.4884
2.120533333e+08,-66.4011
2.124266667e+08,-58.376
2.128000000e+08,-53.2969
2.131733333e+08,-61.6001
2.135466667e+08,-64.5429
2.139200000e+08,-63.0655
2.142933333e+08,-68.04
2.146666667e+08,-63.9823
2.150400000e+08,-57.528
2.154133333e+08,-46.5392
2.157866667e+08,-50.7617
2.161600000e+08,-57.4718
2.165333333e+08,-64.9118
2.169066667e+08,-63.843
2.172800000e+08,-66.3773
2.176533333e+08,-67.2225
2.180266667e+08,-51.9897
2.184000000e+08,-54.3375
2.187733333e+08,-64.1565
2.191466667e+08,-65.2021
2.195200000e+08,-61.7943
2.198933333e+08,-60.1848
2.202666667e+08,-62.7104
2.206400000e+08,-47.1082
2.210133333e+08,-47.2204
2.213866667e+08,-58.3457
2.217600000e+08,-60.3574
2.221333333e+08,-59.9137
2.225066667e+08,-62.043
2.228800000e+08,-62.9234
2.232533333e+08,-55.9299
2.236266667e+08,-53.4797
2.240000000e+08,-56.6782
2.243733333e+08,-61.2289
2.247466667e+08,-64.1505
2.251200000e+08,-60.0135
2.254933333e+08,-61.1533
2.258666667e+08,-59.858
2.262400000e+08,-47.6283
2.266133333e+08,-47.651
2.269866667e+08,-60.9175
2.273600000e+08,-61.5554
2.277333333e+08,-52.7258
2.281066667e+08,-48.3036
2.284800000e+08,-62.4426
2.288533333e+08,-54.9669
2.292266667e+08,-53.6382
2.296000000e+08,-62.316
2.299733333e+08,-60.9665
2.303466667e+08,-63.1795
2.307200000e+08,-62.6288
2.310933333e+08,-60.0182
2.314666667e+08,-51.8606
2.318400000e+08,-46.9881
2.322133333e+08,-53.9126
2.325866667e+08,-61.5056
2.329600000e+08,-65.7878
2.333333333e+08,-61.5152
2.337066667e+08,-65.9701
2.340800000e+08,-62.7923
2.344533333e+08,-52.9876
2.348266667e+08,-54.5422
2.352000000e+08,-64.4208
2.355733333e+08,-65.4773
2.359466667e+08,-63.8469
2.363200000e+08,-65.9903
2.366933333e+08,-65.4912
2.370666667e+08,-47.1838
2.374400000e+08,-46.1619
2.378133333e+08,-67.0861
2.381866667e+08,-65.4144
2.385600000e+08,-66.1496
2.389333333e+08,-66.0795
2.393066667e+08,-53.7261
2.396800000e+08,-47.9209
2.400533333e+08,-48.4974
2.404266667e+08,-60.2273
2.408000000e+08,-67.6642
2.411733333e+08,-65.9952
2.415466667e+08,-68.2323
2.419200000e+08,-67.9577
2.422933333e+08,-58.5374
2.426666667e+08,-46.8145
2.430400000e+08,-52.4274
2.434133333e+08,-70.0907
2.437866667e+08,-66.3865
2.441600000e+08,-69.13
2.445333333e+08,-65.6662
2.449066667e+08,-67.6275
2.452800000e+08,-53.407
2.456533333e+08,-54.9464
2.460266667e+08,-72.8884
2.464000000e+08,-66.5362
2.467733333e+08,-66.0922
2.471466667e+08,-66.8832
2.475200000e+08,-66.4701
2.478933333e+08,-48.5116
2.482666667e+08,-47.4968
2.486400000e+08,-58.1414
2.490133333e+08,-66.1535
2.493866667e+08,-67.8862
2.497600000e+08,-62.3396
2.501333333e+08,-64.4488
2.505066667e+08,-57.996
2.508800000e+08,-53.808
2.512533333e+08,-58.6217
2.516266667e+08,-55.8857
2.520000000e+08,-48.2844
2.523733333e+08,-58.9251
2.527466667e+08,-68.2282
2.531200000e+08,-61.1123
2.534933333e+08,-48.5375
2.538666667e+08,-49.448
2.542400000e+08,-63.1243
2.546133333e+08,-64.2373
2.549866667e+08,-61.7875
2.553600000e+08,-63.9239
2.557333333e+08,-69.3426
2.561066667e+08,-55.6761
2.564800000e+08,-55.1338
2.568533333e+08,-66.2685
2.572266667e+08,-65.6824
2.576000000e+08,-63.9965
2.579733333e+08,-61.4803
2.583466667e+08,-61.2827
2.587200000e+08,-52.5213
2.590933333e+08,-48.8035
2.594666667e+08,-53.5244
2.598400000e+08,-64.7331
2.602133333e+08,-61.6484
2.605866667e+08,-63.9307
2.609600000e+08,-62.4689
2.613333333e+08,-62.4721
2.617066667e+08,-53.0263
2.620800000e+08,-53.4582
2.624533333e+08,-63.3921
2.628266667e+08,-64.1142
2.632000000e+08,-68.5261
2.635733333e+08,-54.8852
2.639466667e+08,-57.2808
2.643200000e+08,-50.1002
2.646933333e+08,-48.319
2.650666667e+08,-64.7263
2.654400000e+08,-65.5652
2.658133333e+08,-63.5162
2.661866667e+08,-64.309
2.665600000e+08,-64.6363
2.669333333e+08,-61.0617
2.673066667e+08,-53.6983
2.676800000e+08,-63.6463
2.680533333e+08,-64.4893
2.684266667e+08,-62.4437
2.688000000e+08,-66.0992
2.691733333e+08,-64.7032
2.695466667e+08,-63.2449
2.699200000e+08,-48.4907
2.702933333e+08,-51.9305
2.706666667e+08,-67.1778
2.710400000e+08,-70.48
2.714133333e+08,-64.131
2.717866667e+08,-69.0183
2.721600000e+08,-66.884
2.725333333e+08,-52.8073
2.729066667e+08,-53.5977
2.732800000e+08,-65.9258
2.736533333e+08,-73.3011
2.740266667e+08,-70.4066
2.744000000e+08,-66.2828
2.747733333e+08,-65.2102
2.751466667e+08,-50.2822
2.755200000e+08,-48.1579
2.758933333e+08,-46.9791
2.762666667e+08,-49.2989
2.766400000e+08,-66.8102
2.770133333e+08,-67.2906
2.773866667e+08,-66.6998
2.777600000e+08,-61.0539
2.781333333e+08,-55.14
2.785066667e+08,-62.4768
2.788800000e+08,-66.8993
2.792533333e+08,-69.4057
2.796266667e+08,-68.7082
2.800000000e+08,-65.1203

