2/tek0107NRM.csv

Model,MDO3104
Firmware Version,1.30

Waveform Type,RF_FD
Point Format,Y
Horizontal Units,Hz
Horizontal Scale,2.8e+07
,
Sample Interval,373333
Record Length,751
Gating,0.133155792277% to 100.0%
Probe Attenuation,1
Vertical Units,dBm
Vertical Offset,0
Vertical Scale,10
Vertical Position,0
Center Frequency,1.4e+08
Span,2.8e+08
Reference Level,-15
Label,
FREQUENCY,FD NORM
0.000000000e+00,-62.7708
3.733333333e+05,-70.8818
7.466666667e+05,-80.1794
1.120000000e+06,-80.7122
1.493333333e+06,-67.7478
1.866666667e+06,-65.5831
2.240000000e+06,-66.3497
2.613333333e+06,-64.1735
2.986666667e+06,-66.5253
3.360000000e+06,-61.805
3.733333333e+06,-63.4316
4.106666667e+06,-75.0953
4.480000000e+06,-68.7292
4.853333333e+06,-66.807
5.226666667e+06,-66.5598
5.600000000e+06,-66.1874
5.973333333e+06,-70.7276
6.346666667e+06,-77.5475
6.720000000e+06,-73.7985
7.093333333e+06,-73.5798
7.466666667e+06,-75.8773
7.840000000e+06,-69.0383
8.213333333e+06,-67.355
8.586666667e+06,-74.9455
8.960000000e+06,-68.6875
9.333333333e+06,-68.3742
9.706666667e+06,-71.3371
1.008000000e+07,-72.2372
1.045333333e+07,-70.4877
1.082666667e+07,-70.3981
1.120000000e+07,-66.6982
1.157333333e+07,-68.2695
1.194666667e+07,-67.8774
1.232000000e+07,-67.2105
1.269333333e+07,-70.3017
1.306666667e+07,-66.1755
1.344000000e+07,-64.8497
1.381333333e+07,-66.9926
1.418666667e+07,-68.8982
1.456000000e+07,-71.7573
1.493333333e+07,-68.8458
1.530666667e+07,-68.8699
1.568000000e+07,-77.7496
1.605333333e+07,-69.1585
1.642666667e+07,-71.665
1.680000000e+07,-73.7152
1.717333333e+07,-68.2176
1.754666667e+07,-66.1931
1.792000000e+07,-67.0814
1.829333333e+07,-64.1326
1.866666667e+07,-66.1249
1.904000000e+07,-66.2643
1.941333333e+07,-71.0444
1.978666667e+07,-71.4993
2.016000000e+07,-83.5421
2.053333333e+07,-83.153
2.090666667e+07,-67.8962
2.128000000e+07,-70.2788
2.165333333e+07,-61.3653
2.202666667e+07,-60.8995
2.240000000e+07,-68.1462
2.277333333e+07,-63.8289
2.314666667e+07,-68.8326
2.352000000e+07,-59.9023
2.389333333e+07,-65.5384
2.426666667e+07,-60.3272
2.464000000e+07,-59.5526
2.501333333e+07,-52.959
2.538666667e+07,-60.3672
2.576000000e+07,-79.9638
2.613333333e+07,-73.8167
2.650666667e+07,-74.0953
2.688000000e+07,-67.2823
2.725333333e+07,-61.1589
2.762666667e+07,-64.6011
2.800000000e+07,-65.7928
2.837333333e+07,-73.7196
2.874666667e+07,-67.0774
2.912000000e+07,-74.379
2.949333333e+07,-67.9443
2.986666667e+07,-58.7329
3.024000000e+07,-60.7256
3.061333333e+07,-67.2286
3.098666667e+07,-76.1655
3.136000000e+07,-71.9485
3.173333333e+07,-69.8248
3.210666667e+07,-70.3063
3.248000000e+07,-60.6424
3.285333333e+07,-60.0904
3.322666667e+07,-68.9146
3.360000000e+07,-80.8496
3.397333333e+07,-70.127
3.434666667e+07,-71.2641
3.472000000e+07,-73.7019
3.509333333e+07,-65.1462
3.546666667e+07,-60.524
3.584000000e+07,-59.1769
3.621333333e+07,-60.7527
3.658666667e+07,-75.0549
3.696000000e+07,-79.4871
3.733333333e+07,-68.0204
3.770666667e+07,-66.8925
3.808000000e+07,-58.8763
3.845333333e+07,-65.1619
3.882666667e+07,-76.2544
3.920000000e+07,-80.7721
3.957333333e+07,-80.6845
3.994666667e+07,-74.8752
4.032000000e+07,-70.9881
4.069333333e+07,-58.658
4.106666667e+07,-60.1
4.144000000e+07,-68.6561
4.181333333e+07,-70.0165
4.218666667e+07,-68.4687
4.256000000e+07,-69.6569
4.293333333e+07,-71.1526
4.330666667e+07,-59.3587
4.368000000e+07,-59.6957
4.405333333e+07,-64.4406
4.442666667e+07,-72.0007
4.480000000e+07,-73.3537
4.517333333e+07,-73.4583
4.554666667e+07,-67.6049
4.592000000e+07,-64.65
4.629333333e+07,-59.6973
4.666666667e+07,-59.3762
4.704000000e+07,-68.3701
4.741333333e+07,-76.5561
4.778666667e+07,-65.6279
4.816000000e+07,-64.1947
4.853333333e+07,-69.7333
4.890666667e+07,-62.266
4.928000000e+07,-59.1472
4.965333333e+07,-68.8138
5.002666667e+07,-75.2514
5.040000000e+07,-75.3285
5.077333333e+07,-68.3091
5.114666667e+07,-70.9288
5.152000000e+07,-63.2308
5.189333333e+07,-55.0668
5.226666667e+07,-61.8349
5.264000000e+07,-69.624
5.301333333e+07,-76.4602
5.338666667e+07,-77.0419
5.376000000e+07,-73.7299
5.413333333e+07,-65.1957
5.450666667e+07,-57.7576
5.488000000e+07,-60.3179
5.525333333e+07,-70.1776
5.562666667e+07,-77.845
5.600000000e+07,-80.8573
5.637333333e+07,-71.8916
5.674666667e+07,-66.6895
5.712000000e+07,-53.2424
5.749333333e+07,-53.3952
5.786666667e+07,-69.8513
5.824000000e+07,-72.5059
5.861333333e+07,-74.1003
5.898666667e+07,-77.3427
5.936000000e+07,-73.2116
5.973333333e+07,-36.8561
6.010666667e+07,-34.5464
6.048000000e+07,-52.8412
6.085333333e+07,-75.892
6.122666667e+07,-74.7972
6.160000000e+07,-73.022
6.197333333e+07,-78.2633
6.234666667e+07,-60.4635
6.272000000e+07,-52.5827
6.309333333e+07,-59.9755
6.346666667e+07,-71.8176
6.384000000e+07,-72.1108
6.421333333e+07,-78.1727
6.458666667e+07,-69.6051
6.496000000e+07,-65.1893
6.533333333e+07,-54.0048
6.570666667e+07,-57.8174
6.608000000e+07,-68.3049
6.645333333e+07,-74.8843
6.682666667e+07,-70.5173
6.720000000e+07,-67.0239
6.757333333e+07,-67.8703
6.794666667e+07,-56.1882
6.832000000e+07,-57.8508
6.869333333e+07,-65.9198
6.906666667e+07,-65.2656
6.944000000e+07,-68.1874
6.981333333e+07,-66.4219
7.018666667e+07,-67.9794
7.056000000e+07,-56.5311
7.093333333e+07,-55.3737
7.130666667e+07,-61.6485
7.168000000e+07,-64.6754
7.205333333e+07,-63.8426
7.242666667e+07,-72.117
7.280000000e+07,-67.8316
7.317333333e+07,-64.4186
7.354666667e+07,-56.7533
7.392000000e+07,-57.338
7.429333333e+07,-63.5993
7.466666667e+07,-70.1019
7.504000000e+07,-66.4676
7.541333333e+07,-65.7889
7.578666667e+07,-66.3267
7.616000000e+07,-58.9279
7.653333333e+07,-55.6108
7.690666667e+07,-62.5518
7.728000000e+07,-66.0281
7.765333333e+07,-66.0629
7.802666667e+07,-65.8268
7.840000000e+07,-66.7932
7.877333333e+07,-61.1975
7.914666667e+07,-56.0774
7.952000000e+07,-60.6685
7.989333333e+07,-70.4699
8.026666667e+07,-73.533
8.064000000e+07,-71.2052
8.101333333e+07,-71.8255
8.138666667e+07,-63.6477
8.176000000e+07,-58.3612
8.213333333e+07,-60.2511
8.250666667e+07,-72.1082
8.288000000e+07,-71.5275
8.325333333e+07,-70.1186
8.362666667e+07,-60.4201
8.400000000e+07,-52.1373
8.437333333e+07,-56.7921
8.474666667e+07,-55.2519
8.512000000e+07,-67.7637
8.549333333e+07,-73.0329
8.586666667e+07,-75.6752
8.624000000e+07,-80.215
8.661333333e+07,-72.4777
8.698666667e+07,-59.5506
8.736000000e+07,-53.5371
8.773333333e+07,-67.277
8.810666667e+07,-75.0535
8.848000000e+07,-70.8494
8.885333333e+07,-69.9733
8.922666667e+07,-68.5098
8.960000000e+07,-69.2417
8.997333333e+07,-62.8104
9.034666667e+07,-66.8719
9.072000000e+07,-73.9193
9.109333333e+07,-74.6931
9.146666667e+07,-72.2436
9.184000000e+07,-73.6453
9.221333333e+07,-72.2981
9.258666667e+07,-54.0394
9.296000000e+07,-56.3619
9.333333333e+07,-72.9921
9.370666667e+07,-70.3502
9.408000000e+07,-71.3026
9.445333333e+07,-71.9441
9.482666667e+07,-69.4525
9.520000000e+07,-53.2189
9.557333333e+07,-52.7206
9.594666667e+07,-53.8712
9.632000000e+07,-54.7889
9.669333333e+07,-65.3628
9.706666667e+07,-65.1392
9.744000000e+07,-64.4271
9.781333333e+07,-56.1677
9.818666667e+07,-53.6617
9.856000000e+07,-59.3053
9.893333333e+07,-63.9082
9.930666667e+07,-66.3598
9.968000000e+07,-70.8227
1.000533333e+08,-68.5455
1.004266667e+08,-60.6938
1.008000000e+08,-54.3837
1.011733333e+08,-57.2865
1.015466667e+08,-63.2338
1.019200000e+08,-74.113
1.022933333e+08,-72.7066
1.026666667e+08,-69.7028
1.030400000e+08,-64.3808
1.034133333e+08,-55.8999
1.037866667e+08,-55.8684
1.041600000e+08,-64.4739
1.045333333e+08,-68.813
1.049066667e+08,-72.1891
1.052800000e+08,-68.5499
1.056533333e+08,-67.6282
1.060266667e+08,-55.1853
1.064000000e+08,-53.7328
1.067733333e+08,-56.0859
1.071466667e+08,-64.5082
1.075200000e+08,-68.0527
1.078933333e+08,-51.4635
1.082666667e+08,-54.2313
1.086400000e+08,-58.3938
1.090133333e+08,-55.3693
1.093866667e+08,-55.5937
1.097600000e+08,-64.7847
1.101333333e+08,-69.3719
1.105066667e+08,-77.2824
1.108800000e+08,-68.6678
1.112533333e+08,-65.3851
1.116266667e+08,-52.5192
1.120000000e+08,-50.7476
1.123733333e+08,-59.738
1.127466667e+08,-66.9502
1.131200000e+08,-67.2518
1.134933333e+08,-68.6882
1.138666667e+08,-68.5878
1.142400000e+08,-59.5607
1.146133333e+08,-53.27
1.149866667e+08,-65.5501
1.153600000e+08,-74.979
1.157333333e+08,-68.7654
1.161066667e+08,-72.761
1.164800000e+08,-72.7662
1.168533333e+08,-64.1281
1.172266667e+08,-50.2827
1.176000000e+08,-53.9437
1.179733333e+08,-70.4275
1.183466667e+08,-71.7015
1.187200000e+08,-69.7412
1.190933333e+08,-73.978
1.194666667e+08,-63.9758
1.198400000e+08,-36.2497
1.202133333e+08,-36.8855
1.205866667e+08,-69.9029
1.209600000e+08,-68.6082
1.213333333e+08,-73.6332
1.217066667e+08,-73.9097
1.220800000e+08,-70.3015
1.224533333e+08,-50.7743
1.228266667e+08,-49.2221
1.232000000e+08,-64.5864
1.235733333e+08,-64.8034
1.239466667e+08,-66.8664
1.243200000e+08,-69.633
1.246933333e+08,-65.4318
1.250666667e+08,-58.2539
1.254400000e+08,-53.0779
1.258133333e+08,-61.3159
1.261866667e+08,-71.967
1.265600000e+08,-71.4414
1.269333333e+08,-66.4064
1.273066667e+08,-65.4906
1.276800000e+08,-63.6784
1.280533333e+08,-50.6682
1.284266667e+08,-53.7799
1.288000000e+08,-64.5242
1.291733333e+08,-64.2277
1.295466667e+08,-62.8286
1.299200000e+08,-64.7473
1.302933333e+08,-66.3781
1.306666667e+08,-53.0918
1.310400000e+08,-54.6447
1.314133333e+08,-62.2057
1.317866667e+08,-50.5057
1.321600000e+08,-49.8596
1.325333333e+08,-72.1843
1.329066667e+08,-65.2435
1.332800000e+08,-51.5692
1.336533333e+08,-50.7986
1.340266667e+08,-53.3792
1.344000000e+08,-62.342
1.347733333e+08,-64.8982
1.351466667e+08,-66.6646
1.355200000e+08,-64.1126
1.358933333e+08,-57.3648
1.362666667e+08,-54.7606
1.366400000e+08,-54.9112
1.370133333e+08,-66.0441
1.373866667e+08,-65.9965
1.377600000e+08,-64.3299
1.381333333e+08,-64.2623
1.385066667e+08,-63.4552
1.388800000e+08,-53.0099
1.392533333e+08,-49.3351
1.396266667e+08,-59.5998
1.400000000e+08,-68.2007
1.403733333e+08,-67.5718
1.407466667e+08,-68.5816
1.411200000e+08,-65.467
1.414933333e+08,-59.7185
1.418666667e+08,-52.2999
1.422400000e+08,-57.0242
1.426133333e+08,-68.8781
1.429866667e+08,-69.581
1.433600000e+08,-67.6349
1.437333333e+08,-60.6527
1.441066667e+08,-56.662
1.444800000e+08,-48.6866
1.448533333e+08,-50.4388
1.452266667e+08,-62.5887
1.456000000e+08,-64.1221
1.459733333e+08,-73.2451
1.463466667e+08,-68.7155
1.467200000e+08,-68.8076
1.470933333e+08,-53.0168
1.474666667e+08,-52.4633
1.478400000e+08,-66.2661
1.482133333e+08,-74.2606
1.485866667e+08,-71.1271
1.489600000e+08,-71.4494
1.493333333e+08,-69.9765
1.497066667e+08,-53.1718
1.500800000e+08,-48.7033
1.504533333e+08,-62.6294
1.508266667e+08,-68.9947
1.512000000e+08,-79.7963
1.515733333e+08,-77.4356
1.519466667e+08,-73.2141
1.523200000e+08,-59.9653
1.526933333e+08,-52.1007
1.530666667e+08,-58.6221
1.534400000e+08,-68.1767
1.538133333e+08,-73.0901
1.541866667e+08,-75.7034
1.545600000e+08,-68.6196
1.549333333e+08,-61.3193
1.553066667e+08,-48.2487
1.556800000e+08,-50.8195
1.560533333e+08,-48.3634
1.564266667e+08,-59.8829
1.568000000e+08,-62.7214
1.571733333e+08,-71.5733
1.575466667e+08,-67.4349
1.579200000e+08,-52.5601
1.582933333e+08,-52.9457
1.586666667e+08,-68.6399
1.590400000e+08,-68.2852
1.594133333e+08,-66.3615
1.597866667e+08,-72.1467
1.601600000e+08,-64.8508
1.605333333e+08,-51.2082
1.609066667e+08,-49.3468
1.612800000e+08,-53.9373
1.616533333e+08,-62.7645
1.620266667e+08,-65.0437
1.624000000e+08,-65.0311
1.627733333e+08,-62.1679
1.631466667e+08,-59.857
1.635200000e+08,-54.9709
1.638933333e+08,-55.536
1.642666667e+08,-62.7689
1.646400000e+08,-71.0132
1.650133333e+08,-65.8246
1.653866667e+08,-66.7802
1.657600000e+08,-62.447
1.661333333e+08,-51.4709
1.665066667e+08,-49.694
1.668800000e+08,-57.2737
1.672533333e+08,-60.9263
1.676266667e+08,-65.3816
1.680000000e+08,-64.449
1.683733333e+08,-63.2318
1.687466667e+08,-57.3659
1.691200000e+08,-53.6818
1.694933333e+08,-56.3612
1.698666667e+08,-69.3606
1.702400000e+08,-64.5573
1.706133333e+08,-63.9267
1.709866667e+08,-69.0281
1.713600000e+08,-57.4479
1.717333333e+08,-48.7676
1.721066667e+08,-49.4478
1.724800000e+08,-64.1492
1.728533333e+08,-65.557
1.732266667e+08,-63.9548
1.736000000e+08,-64.7729
1.739733333e+08,-65.6745
1.743466667e+08,-54.4441
1.747200000e+08,-52.344
1.750933333e+08,-62.5112
1.754666667e+08,-72.2656
1.758400000e+08,-72.8322
1.762133333e+08,-71.1436
1.765866667e+08,-66.8564
1.769600000e+08,-52.2932
1.773333333e+08,-46.6982
1.777066667e+08,-58.8889
1.780800000e+08,-71.0157
1.784533333e+08,-71.5079
1.788266667e+08,-70.099
1.792000000e+08,-65.7953
1.795733333e+08,-55.766
1.799466667e+08,-43.2289
1.803200000e+08,-47.6983
1.806933333e+08,-67.1668
1.810666667e+08,-78.9723
1.814400000e+08,-71.6518
1.818133333e+08,-68.3608
1.821866667e+08,-65.5621
1.825600000e+08,-47.5889
1.829333333e+08,-48.9998
1.833066667e+08,-65.4273
1.836800000e+08,-78.7127
1.840533333e+08,-71.106
1.844266667e+08,-67.0966
1.848000000e+08,-64.7823
1.851733333e+08,-53.4124
1.855466667e+08,-52.1426
1.859200000e+08,-61.319
1.862933333e+08,-68.1773
1.866666667e+08,-67.3503
1.870400000e+08,-68.4203
1.874133333e+08,-63.6366
1.877866667e+08,-52.2155
1.881600000e+08,-47.6809
1.885333333e+08,-54.3513
1.889066667e+08,-61.1249
1.892800000e+08,-62.6527
1.896533333e+08,-69.625
1.900266667e+08,-71.328
1.904000000e+08,-60.7894
1.907733333e+08,-54.5997
1.911466667e+08,-58.8749
1.915200000e+08,-65.4907
1.918933333e+08,-53.83
1.922666667e+08,-52.9783
1.926400000e+08,-65.72
1.930133333e+08,-59.9303
1.933866667e+08,-50.1031
1.937600000e+08,-50.8492
1.941333333e+08,-58.5988
1.945066667e+08,-63.39
1.948800000e+08,-65.7719
1.952533333e+08,-64.9177
1.956266667e+08,-66.2804
1.960000000e+08,-57.7684
1.963733333e+08,-54.6587
1.967466667e+08,-55.7452
1.971200000e+08,-62.367
1.974933333e+08,-64.5188
1.978666667e+08,-71.0106
1.982400000e+08,-60.22
1.986133333e+08,-55.8544
1.989866667e+08,-49.9095
1.993600000e+08,-49.3511
1.997333333e+08,-60.2863
2.001066667e+08,-63.2463
2.004800000e+08,-64.3256
2.008533333e+08,-69.1073
2.012266667e+08,-63.8803
2.016000000e+08,-56.2796
2.019733333e+08,-53.6799
2.023466667e+08,-61.766
2.027200000e+08,-70.4262
2.030933333e+08,-69.6656
2.034666667e+08,-67.7104
2.038400000e+08,-47.8001
2.042133333e+08,-48.1608
2.045866667e+08,-47.959
2.049600000e+08,-56.2479
2.053333333e+08,-68.0893
2.057066667e+08,-62.4483
2.060800000e+08,-63.6154
2.064533333e+08,-63.6446
2.068266667e+08,-66.5913
2.072000000e+08,-51.8367
2.075733333e+08,-54.4328
2.079466667e+08,-65.9704
2.083200000e+08,-67.1131
2.086933333e+08,-65.7626
2.090666667e+08,-68.565
2.094400000e+08,-72.236
2.098133333e+08,-46.4326
2.101866667e+08,-46.4253
2.105600000e+08,-62.3252
2.109333333e+08,-61.8742
2.113066667e+08,-70.6201
2.116800000e+08,-66.1465
2.120533333e+08,-74.6294
2.124266667e+08,-54.448
2.128000000e+08,-52.1144
2.131733333e+08,-66.3939
2.135466667e+08,-66.0871
2.139200000e+08,-67.898
2.142933333e+08,-62.3794
2.146666667e+08,-68.123
2.150400000e+08,-55.7705
2.154133333e+08,-46.6978
2.157866667e+08,-53.7102
2.161600000e+08,-58.6376
2.165333333e+08,-68.0736
2.169066667e+08,-64.3431
2.172800000e+08,-65.1114
2.176533333e+08,-63.2745
2.180266667e+08,-54.9685
2.184000000e+08,-58.9223
2.187733333e+08,-61.0044
2.191466667e+08,-65.6047
2.195200000e+08,-70.8985
2.198933333e+08,-63.7172
2.202666667e+08,-58.833
2.206400000e+08,-48.3934
2.210133333e+08,-49.068
2.213866667e+08,-55.1814
2.217600000e+08,-64.5677
2.221333333e+08,-68.3223
2.225066667e+08,-68.1131
2.228800000e+08,-62.2561
2.232533333e+08,-55.977
2.236266667e+08,-54.8868
2.240000000e+08,-58.7612
2.243733333e+08,-63.2909
2.247466667e+08,-61.8092
2.251200000e+08,-64.7582
2.254933333e+08,-65.3993
2.258666667e+08,-56.9759
2.262400000e+08,-50.9089
2.266133333e+08,-49.435
2.269866667e+08,-59.5654
2.273600000e+08,-63.0736
2.277333333e+08,-49.8413
2.281066667e+08,-47.5289
2.284800000e+08,-62.7502
2.288533333e+08,-58.0023
2.292266667e+08,-55.032
2.296000000e+08,-61.237
2.299733333e+08,-68.9901
2.303466667e+08,-68.0873
2.307200000e+08,-62.5818
2.310933333e+08,-62.8968
2.314666667e+08,-53.9783
2.318400000e+08,-47.091
2.322133333e+08,-51.7217
2.325866667e+08,-64.2399
2.329600000e+08,-68.1816
2.333333333e+08,-68.8878
2.337066667e+08,-68.132
2.340800000e+08,-62.0455
2.344533333e+08,-53.0397
2.348266667e+08,-53.6604
2.352000000e+08,-62.9998
2.355733333e+08,-66.3531
2.359466667e+08,-73.5818
2.363200000e+08,-70.1882
2.366933333e+08,-64.5084
2.370666667e+08,-47.9622
2.374400000e+08,-46.5645
2.378133333e+08,-69.9106
2.381866667e+08,-76.6019
2.385600000e+08,-67.9958
2.389333333e+08,-68.2736
2.393066667e+08,-71.8125
2.396800000e+08,-51.6767
2.400533333e+08,-43.6518
2.404266667e+08,-48.6809
2.408000000e+08,-71.1302
2.411733333e+08,-67.8305
2.415466667e+08,-68.2452
2.419200000e+08,-69.5334
2.422933333e+08,-57.1836
2.426666667e+08,-46.3971
2.430400000e+08,-52.09
2.434133333e+08,-66.3961
2.437866667e+08,-71.4487
2.441600000e+08,-72.9689
2.445333333e+08,-72.6024
2.449066667e+08,-73.6774
2.452800000e+08,-53.7912
2.456533333e+08,-56.1832
2.460266667e+08,-66.129
2.464000000e+08,-71.9718
2.467733333e+08,-75.1933
2.471466667e+08,-67.9279
2.475200000e+08,-60.8697
2.478933333e+08,-48.4923
2.482666667e+08,-48.0226
2.486400000e+08,-57.0523
2.490133333e+08,-64.213
2.493866667e+08,-64.9994
2.497600000e+08,-68.5137
2.501333333e+08,-66.1269
2.505066667e+08,-58.7032
2.508800000e+08,-54.9479
2.512533333e+08,-58.3876
2.516266667e+08,-57.3179
2.520000000e+08,-47.1301
2.523733333e+08,-52.5822
2.527466667e+08,-63.433
2.531200000e+08,-58.8777
2.534933333e+08,-50.1694
2.538666667e+08,-50.9189
2.542400000e+08,-60.4126
2.546133333e+08,-63.7389
2.549866667e+08,-63.9899
2.553600000e+08,-64.2079
2.557333333e+08,-62.9361
2.561066667e+08,-57.9267
2.564800000e+08,-55.8189
2.568533333e+08,-61.0482
2.572266667e+08,-66.4948
2.576000000e+08,-65.955
2.579733333e+08,-64.3145
2.583466667e+08,-63.0144
2.587200000e+08,-52.7025
2.590933333e+08,-48.8291
2.594666667e+08,-50.9878
2.598400000e+08,-64.3368
2.602133333e+08,-63.8213
2.605866667e+08,-65.4182
2.609600000e+08,-65.9502
2.613333333e+08,-63.0065
2.617066667e+08,-55.0969
2.620800000e+08,-54.2831
2.624533333e+08,-66.3876
2.628266667e+08,-70.5508
2.632000000e+08,-68.7615
2.635733333e+08,-66.0558
2.639466667e+08,-61.0906
2.643200000e+08,-50.1374
2.646933333e+08,-48.1482
2.650666667e+08,-62.053
2.654400000e+08,-72.9177
2.658133333e+08,-68.2067
2.661866667e+08,-67.5395
2.665600000e+08,-67.9953
2.669333333e+08,-60.2121
2.673066667e+08,-53.5744
2.676800000e+08,-61.7637
2.680533333e+08,-75.6491
2.684266667e+08,-80.4017
2.688000000e+08,-73.6708
2.691733333e+08,-74.518
2.695466667e+08,-61.3108
2.699200000e+08,-45.6212
2.702933333e+08,-49.2129
2.706666667e+08,-77.1041
2.710400000e+08,-69.8857
2.714133333e+08,-65.8102
2.717866667e+08,-71.2939
2.721600000e+08,-70.1211
2.725333333e+08,-52.7201
2.729066667e+08,-53.252
2.732800000e+08,-82.3034
2.736533333e+08,-84.4947
2.740266667e+08,-79.7692
2.744000000e+08,-68.1116
2.747733333e+08,-67.3575
2.751466667e+08,-50.1009
2.755200000e+08,-48.3055
2.758933333e+08,-46.3765
2.762666667e+08,-48.7319
2.766400000e+08,-68.0692
2.770133333e+08,-68.7763
2.773866667e+08,-68.6327
2.777600000e+08,-59.2284
2.781333333e+08,-55.4279
2.785066667e+08,-61.783
2.788800000e+08,-69.0636
2.792533333e+08,-73.0025
2.796266667e+08,-65.0475
2.800000000e+08,-64.5301

